,tipslm10-NULC_PER-PCH_3Y,tipspd20-CO-S11_S14_S15-LIAB-F3_F4-MIO_NAC,tipspd20-CO-S11_S14_S15-LIAB-F3_F4-PC_GDP,tipslm60-T-PPCH_3Y,tipsfs10-F-NCO-S12-LIAB-PC_GDP,tipsun10-TOTAL-AVG_3Y-T,tipsii10-NSA-FA-S1-S1-N_LE-WRL_REST-MIO_NAC,tipsho10-RCH_A_AVG,tipspc20-CO-S11_S14_S15-LIAB-F3_F4-MIO_NAC,tipsfs10-F-NCO-S12-LIAB-MIO_NAC,tipser10-PCH_3Y,tipser10-PCH_1Y,tipslm70-PC_ACT-T,tipslm70-PPCH_3Y-T,tipslm80-Y_LT25-T-PC_ACT,tipspc20-CO-S11_S14_S15-LIAB-F3_F4-PC_GDP,tipsfs10-F-NCO-S12-LIAB-PCH_PRE,tipslm60-T-PC_POP,tipsex10-PCH_WRL_5Y-S-CRE-WRL_REST,tipsex10-PCH_WRL_5Y-GS-CRE-WRL_REST,tipslm80-Y_LT25-T-PPCH_3Y,tipsbp10-PC_GDP_3Y-NSA-CA-BAL-WRL_REST,tipsgo10-GD-S13-PC_GDP,tipsgo10-GD-S13-MIO_NAC,tipsii10-NSA-FA-S1-S1-N_LE-WRL_REST-PC_GDP,tipsex10-PCH_WRL_5Y-G-CRE-WRL_REST,tipsho10-INX_A_AVG,label
1995_AT,,181741.7,102.9,,271.3,,,,,479107.6,,2.0,,,5.9,,,71.6,,,,,68.3,120660.0,,,,
1995_BE,,195566.2,92.4,,363.2,,,,7347.6,768618.0,,2.9,,,22.9,3.5,,62.3,,,7.5,,130.5,276252.6,,,,
1995_BG,,391.0,30.8,,131.1,,,,0.0,1662.0,,13.6,,,,0.0,,,,,,,,,,,,
1995_CY,,24384.6,317.6,,273.0,,,,5661.2,20960.0,,-2.2,,,,73.7,,,,,,,49.0,3765.7,,,,
1995_CZ,,1022596.0,64.5,,149.5,,58902.0,,145794.0,2371865.0,,3.1,,,7.8,9.2,,,,,,,13.7,216645.0,3.7,,,
1995_DE,6.4,2005758.0,105.6,,294.2,,,,23686.0,5587088.0,,3.5,,,8.9,1.2,,70.6,,,2.4,-1.2,54.8,1040187.3,,,,
1995_DK,-1.0,1431580.0,138.1,,343.4,,,,9408.0,3559665.0,,3.6,,,9.6,0.9,7.9,79.5,,,-2.1,,,,,,,
1995_EE,,802.2,28.9,,59.0,,,,241.7,1640.7,,16.4,,,,8.7,,,,,,,8.2,227.5,,,,
1995_EL,,33239.8,35.7,,139.7,,,,1412.5,129973.4,,0.9,,,,1.5,,60.2,,,,,99.0,92124.0,,,,
1995_ES,,344929.0,75.1,,212.3,,-98646.0,,16729.0,975029.0,,1.6,,,39.8,3.6,,60.9,,,7.5,,61.7,283457.0,-21.0,,,
1995_FI,-5.1,93936.0,95.3,,154.8,,,,-4267.0,152556.0,,6.4,,,29.7,-4.3,,,,,3.3,,55.1,54351.4,,,,
1995_FR,1.8,1138671.0,93.5,,315.3,,,,0.0,3840755.0,,2.3,,,34.7,0.0,,,,,7.1,,56.1,683523.0,,,,
1995_HR,,,,,,,,,,,,4.5,,,,,,,,,,,22.6,26442.8,,,,
1995_HU,,2381960.0,40.8,,161.5,,-3528361.1,,123996.0,9422076.0,,-6.5,,,,2.1,28.0,,,,,,84.0,4900605.0,-60.8,,,
1995_IE,,,,,,,,,,,,0.0,,,19.5,,,62.5,,,-4.9,,78.5,43060.7,,,,
1995_IT,,674408.0,68.5,,167.0,,,,44722.0,1645260.0,,-7.0,,,29.9,4.5,,57.7,,,3.5,,116.9,1151539.0,,,,
1995_LT,,1632.0,21.0,,40.3,,,,397.9,3125.5,,11.9,,,,5.1,,,,,,,11.5,894.5,,,,
1995_LU,,,,,,,,,,,,3.4,,,7.2,,,60.2,,,3.4,,,,,,,
1995_LV,,460.0,11.3,,46.5,,,,-153.0,1888.0,,8.1,,,,-3.8,,,,,,,13.9,563.6,,,,
1995_MT,,3290.7,108.2,,237.2,,,,364.3,7211.5,,2.0,,,,12.0,,,,,,,34.4,1044.9,,,,
1995_NL,,622971.0,189.0,,628.0,,,,13043.0,2069609.0,,2.6,,,16.8,4.0,,69.4,,,8.3,,73.1,240962.0,,,,
1995_PL,,68899.0,20.0,,54.3,,,,16699.0,187259.0,,4.8,,,,4.8,,,,,,,47.6,163971.0,,,,
1995_PT,,72566.1,81.5,,220.3,,,,6633.9,196173.4,,3.1,,,18.3,7.5,,67.5,,,5.8,,58.3,51913.1,,,,
1995_RO,,5856.4,77.0,,112.0,,,,266.9,8520.5,,-4.8,,,,3.5,,,,,,,6.6,503.2,,,,
1995_SE,,2191073.0,116.2,,240.8,,,,-15181.0,4541274.0,,-0.3,,,19.1,-0.8,,,,,5.9,1.0,69.5,1309923.0,,,,
1995_SI,,3530.0,33.5,,78.7,,330.9,,1007.0,8278.0,,8.3,,,,9.6,,,,,,,18.3,1926.4,2.0,,,
1995_SK,,13130.8,66.7,,202.0,,,,2501.0,39768.1,,2.4,,,,12.7,,,,,,,21.7,4266.3,,,,
1995_UK,,972529.0,114.9,,455.9,,,,46493.0,3859055.0,,-4.5,,,15.3,5.5,,75.1,,,-1.0,,44.7,378245.0,,,,
1996_AT,,190274.2,104.2,,282.8,,,,11256.0,516240.6,,-3.3,,,6.3,6.2,7.8,71.3,,,,,68.3,124601.6,,,,
1996_BE,,210130.5,97.3,1.4,390.1,,,,13119.0,842465.1,,-3.1,,,22.1,6.1,9.6,62.7,,,1.4,,128.0,276348.3,,,,
1996_BG,,1123.0,51.8,,218.2,,,,732.0,4729.0,,-21.0,,,,33.8,184.5,,,,,,,,,,,
1996_CY,,25107.6,314.7,,307.6,,,,1684.9,24542.1,,-3.1,,,,21.1,17.1,,,,,,50.3,4012.6,,,,
1996_CZ,,1183645.0,65.1,,143.2,,-68930.0,,193804.0,2604134.0,,5.4,,,7.2,10.7,9.8,,,,-1.2,,11.6,211777.0,-3.8,,,
1996_DE,2.9,2122950.0,110.2,-0.3,319.5,,,,124355.0,6153642.0,,-4.8,,,10.0,6.5,10.1,70.5,,,2.0,-1.1,57.6,1110441.1,,,,
1996_DK,0.6,1553526.0,142.8,-1.2,368.6,,,,95307.0,4010753.0,,-1.6,,,9.7,8.8,12.7,79.6,,,-3.1,,,,,,,
1996_EE,,1289.2,35.3,,74.8,,-501.6,,511.3,2729.1,,6.9,,,,14.0,66.3,,,,,,7.5,275.4,-13.4,,,
1996_EL,,37356.9,36.3,2.0,140.6,,,,5423.0,144823.2,,2.5,,,,5.3,11.4,60.8,,,,,101.3,104413.0,,,,
1996_ES,,367829.0,75.4,1.4,222.6,,-117725.0,,24694.0,1086050.0,,1.3,11.6,,39.2,5.1,11.4,61.6,,,-1.5,,65.6,319976.0,-23.3,,,
1996_FI,-0.1,94247.0,92.3,,148.5,,,,-806.0,151578.0,,-5.9,,,28.0,-0.8,-0.6,70.4,,,-5.6,,55.3,56457.7,,,,
1996_FR,1.0,1165358.0,93.1,,327.0,,,,46862.0,4094824.0,,-0.9,,,37.2,3.7,6.6,,,,4.2,,60.0,751340.0,,,,
1996_HR,,,,,,,,,,,,-2.7,,,,,,,,,,,25.5,32773.0,,,,
1996_HU,,3046743.0,42.8,,144.3,,-4154461.1,,496666.0,10277541.0,,0.0,,,19.7,7.0,9.1,,,,,,71.2,5072071.0,-58.5,,,
1996_IE,,,,1.4,,,,,,,,1.8,,,18.2,,,63.1,,,-7.1,,69.9,42063.9,,,,
1996_IT,,692218.0,66.4,-0.1,172.4,,,,24088.0,1798448.0,,10.1,,,29.9,2.3,9.3,58.0,,,2.8,,116.3,1213535.2,,,,
1996_LT,,2034.9,20.9,,34.7,,,,227.7,3371.2,,14.9,,,,2.3,7.9,,,,,,13.9,1351.5,,,,
1996_LU,,,,-0.7,,,,,,,,-3.6,,,8.2,,,60.6,,,3.0,,,,,,,
1996_LV,,871.0,18.6,,55.8,,,,167.0,2610.0,,2.9,,,,3.6,38.2,,,,,,13.3,620.1,,,,
1996_MT,,3765.3,117.8,,263.2,,,,438.1,8411.3,,0.2,,,,13.7,16.6,,,,,,38.7,1236.0,,,,
1996_NL,,660996.0,191.8,2.2,663.5,,,,39139.0,2286652.0,,-3.4,,,15.7,11.4,10.5,70.2,,,5.3,,71.4,245950.0,,,,
1996_PL,,99466.0,23.1,,57.5,,,,27513.0,247761.0,,6.1,,,,6.4,32.3,,,,,,42.4,182860.0,,,,
1996_PT,,82960.5,87.9,-0.6,242.7,,-12451.0,,9895.5,228996.2,,0.0,,,18.7,10.5,16.7,67.5,,,3.7,,59.5,56149.2,-12.9,,,
1996_RO,,6886.0,60.5,,87.8,,,,636.1,9998.9,,-10.2,,,,5.6,17.4,,,,,,10.6,1209.7,,,,
1996_SE,5.5,2241533.0,115.9,,252.5,,,,24764.0,4884519.0,,6.9,,,20.5,1.3,7.6,76.9,,,-1.5,2.5,69.8,1351003.0,,,,
1996_SI,,4103.0,33.8,,84.2,,-448.4,,587.0,10221.0,,-5.5,,,17.5,4.8,23.5,,,,,,21.6,2619.1,-2.6,,,
1996_SK,,13373.3,60.9,,196.3,,,,2412.1,43089.0,,-0.5,,,,11.0,8.4,,,,,,30.5,6695.3,,,,
1996_UK,,1024178.0,113.4,-0.3,468.5,,,,51225.0,4232315.0,,1.0,,,14.9,5.7,9.7,75.2,,,-2.6,,44.3,400253.0,,,,
1997_AT,,205016.3,108.6,,291.7,4.5,,,9189.0,550546.7,-5.8,-4.5,,,6.7,4.9,6.6,71.2,,,0.5,-2.7,63.5,119827.1,,,,
1997_BE,,228731.2,101.2,1.3,404.6,9.5,,,17112.6,914168.2,-5.4,-5.2,,,22.0,7.6,8.5,63.2,,,-1.2,,123.2,278405.6,,,,
1997_BG,,1889.0,10.0,,81.2,,,,479.0,15321.0,15.6,28.9,,,,2.5,224.0,,,,,,97.1,18314.2,,,,
1997_CY,,26394.1,315.2,,314.4,,,,2329.2,26328.3,-9.3,-4.3,,,,27.8,7.3,68.1,,,,,54.1,4531.8,,,,
1997_CZ,,1425647.0,72.8,,157.1,4.2,-106837.0,,240970.0,3076839.0,8.9,0.2,,,8.6,12.3,18.2,,,,-0.1,-4.7,12.3,240341.0,-5.5,,,
1997_DE,1.2,2229323.0,113.3,-0.2,353.2,8.9,,,102841.0,6947572.0,-7.5,-6.2,,,10.6,5.2,12.9,70.7,,,1.7,-0.8,58.7,1154462.9,,,,
1997_DK,4.5,1651566.0,144.1,0.4,417.2,6.1,,,72860.0,4781187.0,-1.9,-3.8,,,7.7,6.4,19.2,79.7,,,-2.5,,,,,,,
1997_EE,,2336.8,52.0,,109.9,,-1568.6,,888.0,4941.2,24.4,-0.1,,,,19.8,81.1,72.4,,,,-7.8,7.0,314.4,-35.0,,,
1997_EL,,42402.1,37.0,1.8,141.1,,,,3837.8,161847.3,2.1,-1.3,,,,3.3,11.8,61.3,,,,,99.5,114083.0,,,,
1997_ES,,407908.0,78.7,1.7,239.6,19.7,-144208.0,,40367.0,1241121.0,-2.5,-5.3,10.7,,36.1,7.8,14.3,62.4,,,-6.2,-0.8,64.4,333627.0,-27.8,,,
1997_FI,0.9,93941.0,84.8,,153.7,14.2,,,-485.0,170175.0,-5.0,-5.2,,,25.2,-0.4,12.3,71.4,,,-8.8,4.3,52.2,57858.0,,,,
1997_FR,1.8,1198935.0,92.7,,348.1,10.5,,,48603.0,4500763.0,-3.7,-5.1,,,39.3,3.8,9.9,,,,3.9,,61.4,794088.0,,,,
1997_HR,,,,,,,,,,,0.6,-1.0,,,,,,,,,,,24.9,36504.2,,,,
1997_HU,,3935372.0,44.6,,134.7,,-5703365.7,,746578.0,11896934.0,-2.0,4.7,,,17.2,8.5,15.8,57.5,,,,-3.6,62.0,5480415.0,-64.8,,,
1997_IE,,,,1.6,,11.3,,,,,2.6,0.8,,,15.4,,,64.0,,,-7.6,,61.6,42735.4,,,,
1997_IT,,719266.0,66.0,0.5,193.6,11.2,,,29731.0,2109797.0,1.3,-1.1,,,29.6,2.7,17.3,58.3,,,0.9,2.5,113.8,1239878.5,,,,
1997_LT,,2734.3,23.3,,36.0,,,,712.8,4214.9,48.3,15.3,,,,6.1,25.0,72.1,,,,,15.4,1802.2,,,,
1997_LU,,,,-0.1,,2.8,,,,,-5.4,-5.2,,,7.9,,,61.0,,,0.8,10.4,,,,,,
1997_LV,,1286.0,23.8,,66.8,,,,501.0,3603.0,18.5,6.5,,,,9.3,38.0,70.3,,,,,10.6,574.3,,,,
1997_MT,,4150.7,122.3,,290.7,,,,332.2,9869.5,5.4,3.1,,,,9.8,17.3,58.1,,,,,46.6,1582.2,,,,
1997_NL,,701332.0,190.0,2.8,702.4,7.5,,,44460.0,2592326.0,-5.6,-4.7,,,12.4,12.0,13.4,71.6,,,1.3,,65.8,242791.0,,,,
1997_PL,,125737.4,24.1,,62.7,,,,21076.4,327411.6,13.7,2.2,,,23.2,4.0,32.1,,,,,,42.3,220697.0,,,,
1997_PT,,96638.1,94.4,0.7,272.2,7.8,-15289.0,,14282.0,278618.7,0.2,-2.8,3.5,,17.2,14.0,21.7,68.4,,,0.3,,55.2,56484.8,-14.8,,,
1997_RO,,9198.2,36.1,,56.2,,,,1343.7,14343.7,0.5,17.5,,,15.8,5.3,43.5,,,,,,15.1,3840.2,,,,
1997_SE,6.0,2494581.0,123.4,,276.8,9.4,,,80995.0,5596048.0,1.3,-4.9,,,20.6,4.0,14.6,76.1,,,-1.4,3.5,67.5,1364248.0,,,,
1997_SI,,4952.0,35.8,,92.3,,-392.5,,862.0,12756.0,2.2,-0.1,,,17.2,6.2,24.8,67.6,,,,-0.1,22.1,3052.1,-2.1,,,
1997_SK,,14449.9,59.2,,183.9,,,,3085.3,44905.4,6.7,4.7,,,,12.6,4.2,69.2,,,,,33.0,8052.4,,,,
1997_UK,,1126977.0,118.8,0.0,528.0,7.7,,,114772.0,5010886.0,11.1,15.2,,,13.7,12.1,18.4,75.3,,,-2.7,,43.4,411845.0,,,,
1998_AT,-1.0,214266.5,109.1,-0.2,309.5,4.7,,,10617.0,607681.5,-7.2,0.5,,,6.2,5.4,10.4,71.4,,,0.3,-2.4,63.9,125384.9,,,,
1998_BE,1.7,246068.8,104.9,1.6,451.0,9.3,,,20257.6,1057538.9,-7.7,0.5,,,22.1,8.6,15.7,63.9,,,-0.8,,118.2,277158.3,,,,
1998_BG,2615.8,2755.0,10.5,,61.7,,,,867.0,16235.0,19.8,17.7,,,,3.3,6.0,,,,,,67.9,17848.5,,,,
1998_CY,5.8,28084.6,310.0,,330.0,,,,1475.6,29894.1,-0.3,7.5,,,,16.3,13.5,68.1,,,,,55.7,5043.6,,,,
1998_CZ,33.2,1332309.0,62.1,,153.0,5.1,-117477.0,,-51137.0,3284825.0,15.5,9.4,2.0,,12.4,-2.4,6.8,72.0,,,4.6,-4.6,14.0,300976.0,-5.5,,,
1998_DE,-0.8,2354874.0,116.7,0.3,388.2,9.3,,,140076.0,7835449.0,-10.2,0.5,,,9.7,6.9,12.8,70.9,,,0.8,-0.6,59.4,1199283.7,,,,
1998_DK,6.7,1732530.0,146.1,0.2,465.9,5.5,,,112083.0,5526080.0,-3.6,1.9,,,7.3,9.5,15.6,79.7,,,-2.3,,,,,,,
1998_EE,37.3,2850.3,56.5,,94.3,,-1843.7,,462.7,4763.6,22.4,14.6,,,,9.2,-3.6,71.4,,,,-9.3,6.0,302.3,-36.8,,,
1998_EL,21.9,50570.1,40.4,3.0,150.9,,,,8310.4,189045.2,-0.4,-1.6,6.0,,30.4,6.6,16.8,63.2,,,,,97.4,122037.0,,,,
1998_ES,7.4,471073.0,85.0,2.1,250.9,18.2,-199650.0,,67337.0,1390099.0,-3.1,0.9,9.3,,32.4,12.2,12.0,63.0,,,-7.4,-1.0,62.5,346417.0,-36.2,,,
1998_FI,0.4,99659.0,82.8,,148.2,12.9,,,6216.0,178383.0,-9.2,1.7,,,23.5,5.2,4.8,72.3,,,-6.2,4.7,46.9,56414.1,,,,
1998_FR,0.6,1233947.0,91.3,,351.7,10.5,,,47012.0,4754063.0,-4.9,1.1,,,37.8,3.5,5.6,,,,3.1,,61.3,829353.0,,,,
1998_HR,30.0,,,,,,,,,,1.9,5.8,,,,,,,,,,,22.9,37027.1,,,,
1998_HU,61.5,4669933.0,44.7,,131.8,9.2,-6700504.0,,501399.0,13782909.0,6.0,1.2,,,15.3,4.8,15.9,58.7,,,,-4.9,60.1,6285528.0,-64.3,,,
1998_IE,7.1,,,6.4,,9.7,,,,,-0.5,-3.0,,,11.3,,,68.9,,,-8.2,,51.5,41352.7,,,,
1998_IT,6.5,756399.0,66.6,1.3,222.1,11.2,,,45247.0,2522188.0,10.5,1.5,,,29.2,4.0,19.5,59.0,,,-0.7,2.4,110.8,1258222.6,-9.1,,,
1998_LT,55.6,3306.2,25.4,,41.3,,,,550.5,5382.3,52.3,14.9,,,22.9,4.2,27.7,72.2,,,,,16.5,2153.7,,,,
1998_LU,3.2,,,1.4,,2.8,,,,,-8.3,0.2,,,6.9,,,61.6,,,-0.3,9.7,,,,,,
1998_LV,26.9,1898.0,31.5,,61.6,,,,547.0,3707.0,19.9,9.4,,,,9.1,2.9,69.8,,,,,9.0,542.7,,,,
1998_MT,,4437.1,123.3,,358.1,,,,285.1,12881.9,7.8,4.3,,,,7.9,30.5,58.0,,,,,51.2,1841.5,,,,
1998_NL,2.4,770099.0,195.3,3.4,752.4,6.4,,,63390.0,2966536.0,-6.8,1.3,,,10.9,16.1,14.4,72.8,,,-5.9,,62.7,247173.0,,,,
1998_PL,,182344.4,30.1,,74.1,,,,52340.9,449288.9,18.4,9.1,,,22.5,8.6,37.2,65.9,,,,,38.4,232934.0,,,,
1998_PT,12.5,121333.6,108.9,3.1,290.0,7.2,-27058.0,,22836.3,323067.8,-2.6,0.2,2.2,,14.1,20.5,16.0,70.6,,,-4.2,-6.0,51.8,57727.9,-24.4,,,
1998_RO,443.0,13368.5,36.1,,50.2,,,,2437.8,18562.3,38.3,31.1,,,15.4,6.6,29.4,68.9,,,,,16.8,6217.5,,,,
1998_SE,1.8,2701242.0,127.2,,299.7,9.2,-745132.0,,190185.0,6365826.0,0.5,-1.1,,,16.1,9.0,13.8,75.6,,,-3.0,3.6,66.7,1417196.0,-35.1,,,
1998_SI,18.6,6297.0,41.1,,95.6,7.1,-872.8,,1361.0,14657.0,-0.3,5.7,,,17.8,8.9,14.9,68.1,,,,-0.2,22.8,3489.5,-4.4,,,
1998_SK,23.9,16714.7,62.7,,173.2,,,,2948.3,46173.3,6.6,2.3,6.4,,25.5,11.1,2.8,69.3,,,,,33.9,9028.7,,,,
1998_UK,8.3,1208357.0,121.9,0.1,558.0,6.9,,,88004.0,5530800.0,22.4,5.2,,,13.1,8.9,10.4,75.2,,,-2.2,,41.2,408217.0,,,,
1999_AT,-0.5,234293.4,114.9,-0.1,337.8,4.5,-34090.0,,22900.6,688613.9,-4.9,-0.8,,,5.4,11.2,13.3,71.2,,,-0.9,-2.2,66.7,135949.0,-16.7,,,
1999_BE,2.5,271793.7,111.3,2.2,466.3,9.0,,,23420.8,1138733.6,-5.6,-0.9,4.9,,20.3,9.6,7.7,64.9,,,-1.8,,114.4,279434.2,,,,
1999_BG,1772.6,4077.0,16.4,,77.2,,-9448.7,,1151.0,19195.0,56.5,3.2,,,,4.6,18.2,,,,,,75.9,18868.6,-38.0,,,
1999_CY,3.2,29543.6,303.6,,471.5,,,,2457.8,45887.9,3.5,0.7,,,,25.3,53.5,68.2,,,,,55.8,5428.9,,,,
1999_CZ,20.9,1361204.0,60.7,,155.0,6.7,-110938.0,,33507.0,3475069.0,8.4,-1.1,3.2,,17.0,1.5,5.8,72.0,14.37,11.05,9.8,-3.3,15.3,342083.0,-4.9,9.7,,
1999_DE,-0.3,2471123.0,119.7,0.6,424.1,9.2,63732.0,,178282.0,8756128.0,-7.1,-1.4,,,9.0,8.6,11.8,71.1,0.33,-3.32,-1.0,-0.9,60.0,1238568.1,3.1,-4.0,,
1999_DK,6.4,1836222.0,147.9,1.0,493.6,5.1,,,103770.0,6128685.0,-1.8,0.1,1.2,,9.1,8.4,10.9,80.6,,,-0.6,,,,,,,
1999_EE,20.4,2909.1,54.1,,108.1,,-2768.9,,100.5,5816.6,20.6,5.3,,,,1.9,22.1,70.4,132.27,76.58,,-8.0,6.5,348.0,-51.5,52.18,,
1999_EL,19.3,58655.5,43.8,3.0,204.2,,,,8186.5,273172.3,-0.5,2.5,6.6,,31.5,6.1,44.5,63.8,,,,,98.9,132326.0,,,,
1999_ES,6.4,559172.0,94.1,2.3,262.2,16.1,-206400.0,,89084.0,1558512.0,-4.1,0.3,7.2,-4.4,26.4,15.0,12.1,63.9,22.66,21.92,-12.8,-1.9,60.9,362223.0,-34.7,21.9,,
1999_FI,1.6,111437.0,87.8,3.5,163.1,11.4,-229982.8,,11756.0,207012.0,-3.3,0.3,2.9,,21.4,9.3,16.0,73.9,,,-6.6,5.1,44.1,55912.4,-181.2,,,
1999_FR,0.5,1333689.0,95.2,,389.4,10.3,12506.0,,113769.0,5455298.0,-6.0,-2.0,,,37.3,8.1,14.8,,,,0.1,,60.5,847555.0,0.9,,,
1999_HR,30.7,,,,,,,,,,2.2,-2.4,,,,,,,,,,,29.1,48474.4,,,,
1999_HU,41.4,5708811.0,49.0,,149.4,8.2,-8527076.9,,884631.0,17425830.0,9.7,3.5,3.4,,12.5,7.6,26.4,59.8,,,-7.2,-6.3,59.9,6988670.0,-73.1,,,
1999_IE,7.7,,,7.6,,7.7,,,,,-3.7,-1.6,2.3,,9.4,,,70.7,,,-8.8,,46.6,43212.9,,,,
1999_IT,2.7,841087.0,71.8,1.6,244.8,11.1,-54015.0,,95996.0,2869028.0,-0.2,-0.6,,,28.0,8.2,13.8,59.6,,,-1.9,1.8,109.7,1285054.1,-4.6,,,
1999_LT,23.6,3790.3,29.8,,42.9,,,,513.3,5447.2,46.2,10.3,,,27.2,4.0,1.2,72.3,,,,,22.7,2885.6,,,,
1999_LU,0.2,25037.1,120.0,2.1,8579.1,2.6,,,3559.7,1790516.3,-5.5,-0.6,,,6.9,17.1,,62.7,,,-1.3,8.9,,,,,,
1999_LV,8.1,2231.0,35.6,,67.3,,,,204.0,4222.0,27.1,9.0,,,24.0,3.3,13.9,68.6,,,,,12.1,757.0,,,,
1999_MT,,4869.8,128.0,,416.5,,,,301.5,15843.2,7.4,-0.2,,,,7.9,23.0,58.0,,,,,62.1,2361.1,,,,
1999_NL,4.0,856856.0,204.3,3.5,791.1,5.3,,,82224.0,3318232.0,-3.3,0.2,,,9.4,19.6,11.9,73.7,,,-6.3,,58.6,245746.0,,,,
1999_PL,,218033.1,32.4,,81.1,11.5,,,24120.2,545807.8,9.9,-1.5,,,30.1,3.6,21.5,65.9,,,,,39.0,262437.0,,,,
1999_PT,10.9,148934.3,124.5,3.4,321.1,6.4,-40692.0,,24080.8,384210.7,-2.4,0.2,1.8,,12.8,20.1,18.9,70.9,,,-5.9,-7.5,51.0,61074.6,-34.0,,,
1999_RO,439.2,15670.6,28.4,,47.1,6.5,,,-1647.5,25982.6,33.3,-13.5,3.1,,16.5,-3.0,40.0,68.4,,,,,21.7,11974.5,,,,
1999_SE,-1.1,2975398.0,132.8,-0.8,316.0,8.3,-731938.0,,278986.0,7079177.0,-7.1,-1.2,,,12.3,12.5,11.2,76.1,14.39,8.33,-8.2,3.8,61.2,1371032.0,-32.7,7.01,,
1999_SI,15.3,8340.0,48.5,,99.0,7.2,-2005.3,,2061.0,17040.0,6.6,1.0,3.3,,17.5,12.0,16.3,67.3,-24.22,-6.8,0.0,-1.3,23.7,4084.5,-9.5,-0.55,,
1999_SK,19.4,16805.3,58.9,,172.0,,,,-36.3,49099.4,5.1,-1.9,7.7,,34.2,-0.1,6.3,69.5,,,,,47.1,13440.2,,,,
1999_UK,9.6,1371617.0,133.0,0.2,567.4,6.3,-62190.0,,154874.0,5850473.0,21.6,0.4,,,12.7,15.0,5.8,75.4,,,-2.2,-0.8,39.8,410732.0,-6.0,,,
2000_AT,-0.1,259400.3,121.4,-0.2,354.6,4.3,-34597.0,,24945.3,757465.9,-4.3,-3.9,,,5.6,11.7,10.0,71.0,-20.91,-11.48,-1.1,-1.6,66.1,141245.5,-16.2,-7.32,80.59,
2000_BE,2.8,294648.7,114.1,1.9,451.4,8.2,,,22357.1,1165626.0,-4.0,-3.6,3.8,,16.7,8.7,2.4,65.1,,,-5.3,,108.8,280866.0,,,65.23,
2000_BG,71.3,7491.0,26.8,,88.3,,-9190.8,,2674.0,24656.0,24.2,2.3,9.6,,33.7,9.6,28.5,60.7,,,,-3.4,71.2,19872.2,-32.9,,,
2000_CY,1.5,32274.5,304.6,1.1,376.7,,,,3910.8,39915.8,4.8,-3.1,,,9.9,36.9,-13.0,69.2,,,,,55.7,5905.2,,,,
2000_CZ,11.9,1352364.0,56.8,,151.9,8.0,-191869.0,,-14761.0,3615015.0,10.1,1.7,4.2,,17.0,-0.6,4.0,71.3,-3.42,-1.47,8.4,-2.9,17.0,405418.0,-8.1,-0.23,64.5,
2000_DE,1.6,2603335.0,123.0,0.4,446.4,8.6,33991.0,,130567.0,9447006.0,-7.6,-6.7,,,8.7,6.2,7.9,71.1,-8.26,-11.69,-1.9,-1.3,58.9,1245785.0,1.6,-12.28,102.24,
2000_DK,5.3,2097419.0,158.1,0.3,506.7,4.8,,,266987.0,6723539.0,-2.7,-4.7,1.0,,6.2,20.1,9.7,80.0,,,-1.5,,52.4,694695.0,,,73.53,
2000_EE,14.0,3330.2,54.0,-1.5,133.5,,-2966.4,,444.7,8237.5,15.7,-4.2,6.7,,23.9,7.2,41.6,70.9,48.54,14.23,,-6.1,5.1,315.6,-48.1,-4.08,,
2000_EL,11.7,74655.5,52.9,2.5,189.9,11.4,,,14555.1,268238.3,-7.2,-8.0,6.2,,29.1,10.3,-1.8,63.8,,,,,104.9,148217.0,,,113.31,
2000_ES,6.6,665415.0,103.0,3.0,260.7,14.0,-224816.0,,110728.0,1684924.0,-1.8,-3.0,5.8,-4.9,23.2,17.1,8.1,65.4,6.85,3.85,-12.9,-3.1,58.0,374557.0,-34.8,2.73,84.45,
2000_FI,3.2,126688.0,93.0,3.1,157.9,10.5,-212535.3,,15934.0,215088.0,-3.4,-5.3,2.7,,21.4,11.7,3.9,74.5,-13.88,-6.5,-3.8,6.0,42.5,57926.2,-156.0,-5.03,76.39,
2000_FR,1.8,1470564.0,99.5,,393.5,9.6,31925.0,,143740.0,5818645.0,-6.6,-5.7,,,31.5,9.7,6.7,,,,-7.8,,58.9,870626.0,2.2,,59.15,
2000_HR,25.6,,,,,,-44441.5,,,,0.8,-2.4,,,37.3,,,,,,,,35.5,63983.1,-24.7,,96.71,
2000_HU,32.5,7475298.0,56.0,2.6,174.1,7.3,-9422555.9,,1588085.0,23244290.0,5.8,1.0,3.1,,11.9,11.9,33.4,60.1,-2.21,43.95,-5.3,-7.8,55.3,7377569.0,-70.6,68.97,,
2000_IE,10.6,,,7.5,,5.9,,,,,-7.5,-3.2,1.5,,6.9,,,71.5,,44.08,-8.5,0.5,36.1,39096.3,,,96.71,
2000_IT,0.4,939867.0,75.8,1.8,259.3,10.7,-79138.0,,108605.0,3213779.0,-4.1,-5.0,6.5,,26.2,8.8,12.0,60.1,-25.48,-26.12,-3.4,1.0,105.1,1302668.7,-6.4,-26.28,96.11,
2000_LT,-0.6,4028.1,30.1,-1.2,45.4,14.7,,,286.7,6075.5,36.3,7.5,,,30.0,2.1,11.5,70.9,,,,,23.5,3139.9,,,59.36,
2000_LU,3.2,27303.0,118.3,2.6,9042.7,2.4,,,2261.4,2086995.9,-1.7,-1.3,,,6.4,9.8,16.6,63.6,34.14,14.22,-1.5,9.8,7.2,1672.2,,-15.21,46.64,
2000_LV,6.3,3192.0,46.6,-2.9,81.7,,-2028.0,,445.0,5600.0,26.4,6.0,,,22.4,6.5,32.6,67.4,,,,,12.1,829.2,-23.6,,56.51,
2000_MT,,5390.2,130.3,-0.3,414.9,,,,342.0,17163.7,2.8,-1.3,,,13.7,8.3,8.3,57.8,,,,,60.9,2519.2,,,44.03,
2000_NL,6.1,951330.0,210.5,3.6,797.8,4.3,,,91239.0,3606229.0,-2.0,-3.5,,,8.2,20.2,8.7,75.2,,-9.97,-4.2,,52.1,235427.0,,,105.26,
2000_PL,,262253.0,35.1,,79.8,13.2,,,39771.2,596323.9,17.9,9.7,7.4,,34.9,5.3,9.3,65.8,,,11.7,,36.5,272317.0,,,,
2000_PT,11.4,176111.0,137.1,3.0,332.6,5.6,-53356.0,,27552.2,427217.1,-2.3,-2.7,1.7,-1.8,12.5,21.4,11.2,71.4,,,-4.7,-9.1,50.3,64640.5,-41.5,,124.44,
2000_RO,337.7,21618.7,26.7,,42.3,7.0,,,1455.0,34175.7,27.3,12.3,3.8,,16.5,1.8,31.5,68.4,,,0.7,,22.5,18185.6,,,,
2000_SE,1.7,3251572.0,136.4,0.0,340.4,6.8,-790553.0,,320201.0,8114965.0,-4.7,-2.5,,,10.5,13.4,14.6,76.1,12.22,-7.64,-10.1,3.8,50.7,1209595.0,-33.2,-11.23,43.73,
2000_SI,18.1,10048.0,53.2,-0.1,106.7,7.2,-2581.2,,1737.0,20170.0,3.7,-2.9,4.1,,16.3,9.2,18.4,67.5,-32.31,-16.94,-0.9,-2.2,25.9,4886.3,-11.8,-11.94,,
2000_SK,20.1,15035.8,47.6,0.7,162.0,16.0,,,-2583.7,51185.4,10.4,10.1,10.1,,37.3,-8.2,4.2,69.9,,,,,49.6,15681.7,,,,
2000_UK,10.6,1519136.0,139.5,0.2,614.2,5.8,26068.0,,123141.0,6690942.0,6.0,0.4,1.5,,12.2,11.3,14.4,75.5,,,-1.5,-1.7,37.0,403133.0,2.4,,57.2,
2001_AT,0.8,270875.1,122.8,-0.4,360.0,4.0,-46010.0,-1.6,16412.9,793898.4,-4.9,-0.2,,,6.2,7.4,4.8,71.0,-14.79,-2.23,0.0,-1.3,66.7,147154.2,-20.9,3.08,79.3,
2001_BE,5.9,299732.1,112.8,0.3,471.2,7.3,,2.8,7107.9,1252307.0,-3.7,0.8,3.2,,16.8,2.7,7.4,64.2,,,-5.3,,107.6,285965.7,,,67.05,
2001_BG,23.8,8878.0,28.9,,85.4,,-8212.2,,1718.0,26274.0,11.9,6.0,12.6,,38.2,5.6,6.6,62.5,,,,-5.1,65.0,19988.1,-26.7,,57.91,
2001_CY,5.1,31280.1,274.0,2.6,377.6,,,,110.7,43112.1,-3.0,-0.5,,,8.2,1.0,8.0,70.7,,,,,57.3,6544.4,,,,
2001_CZ,9.9,1300448.0,50.6,-1.2,141.8,8.5,-244068.0,5.7,-75508.0,3642886.0,6.7,6.0,4.2,2.2,16.6,-2.9,0.8,70.8,-1.84,13.1,4.2,-3.8,22.8,585615.0,-9.5,20.86,68.16,
2001_DE,1.4,2683320.0,123.1,0.5,456.9,8.1,142219.0,-1.7,75928.0,9960084.0,-8.2,-0.2,,,8.3,3.5,5.4,71.4,-4.25,-3.2,-1.4,-1.2,57.7,1258749.0,6.5,-2.95,100.51,
2001_DK,6.3,2318650.0,169.1,0.2,496.5,4.7,,3.5,129492.0,6809226.0,-3.3,1.2,0.9,,8.3,9.4,1.3,79.9,,,1.0,,48.5,665304.0,,,76.08,
2001_EE,10.7,4300.8,61.6,-1.0,133.6,,-3368.6,,995.1,9319.1,3.9,2.9,6.4,,22.2,14.3,13.1,70.4,31.8,16.96,,-5.6,4.8,333.4,-48.3,6.46,,
2001_EL,6.9,91357.0,60.0,0.1,178.0,11.3,,11.2,16700.0,270836.7,-5.5,0.3,5.5,-0.5,28.0,11.0,1.0,63.3,,,-2.4,,107.1,162971.0,,,126.04,
2001_ES,7.9,768098.0,109.8,1.7,259.1,12.0,-267087.0,6.1,102348.0,1812176.0,-1.4,1.3,3.8,-5.5,21.1,14.6,7.6,64.7,12.0,6.48,-11.3,-4.0,54.2,378883.0,-38.2,3.85,89.58,
2001_FI,4.5,133763.0,92.6,2.7,163.9,9.7,-132966.6,-4.1,3455.0,236775.0,-4.2,0.9,2.5,,19.8,2.4,10.1,75.0,9.96,-3.02,-3.7,6.9,41.0,59186.6,-92.1,-5.57,73.27,
2001_FR,4.3,1596743.0,103.8,,396.3,8.8,123556.0,5.7,128651.0,6096248.0,-7.4,0.2,,,29.1,8.4,4.8,,,,-8.7,2.0,58.3,897446.0,8.0,,62.54,
2001_HR,9.8,105568.1,54.3,,107.5,,-33357.0,-2.7,,208744.4,-1.7,3.1,,,39.9,,,,,,,,36.5,70861.3,-17.2,,94.1,
2001_HU,32.0,8844485.0,57.4,0.9,187.0,6.3,-9933831.8,,1575808.0,28827953.0,12.8,7.9,2.6,,11.0,10.2,24.0,59.6,5.51,59.22,-4.3,-7.4,51.9,8007848.0,-64.4,90.27,,
2001_IE,10.2,169920.0,139.3,2.8,883.4,4.8,,10.2,,1077442.0,-2.1,2.7,1.3,,7.3,,,71.7,,59.02,-4.0,0.3,33.2,40538.4,,,106.58,
2001_IT,5.6,1035666.0,79.7,1.6,240.0,10.0,-64082.0,3.1,107537.0,3117855.0,-4.9,0.6,5.9,,23.1,8.3,-3.0,60.6,-17.26,-16.9,-6.1,0.6,104.7,1360291.5,-4.9,-16.81,99.06,
2001_LT,-9.9,4162.2,29.3,-2.4,50.6,16.1,,10.1,298.8,7179.9,19.0,0.3,,,31.1,2.1,18.2,69.8,,,8.2,,22.9,3249.8,,,65.34,
2001_LU,10.3,34494.0,145.1,2.4,9845.2,2.2,,12.0,7195.4,2340393.4,-1.4,0.5,,,6.2,30.3,12.1,64.0,26.69,18.7,-0.7,9.6,7.3,1736.6,,2.35,52.26,
2001_LV,3.6,3547.0,47.5,-2.2,90.4,14.0,-2759.0,-2.0,478.0,6743.0,15.0,-0.5,,,22.7,6.4,20.4,67.6,,,,,13.8,1032.5,-29.5,,55.39,
2001_MT,,5838.1,137.0,0.0,401.4,,,6.7,320.3,17111.7,-0.3,1.2,,,18.8,7.5,-0.3,58.0,,,,,65.2,2781.0,,,46.98,
2001_NL,7.4,1014674.0,210.6,3.0,793.3,3.7,,6.1,60377.0,3822719.0,0.2,3.6,,,6.7,12.5,6.0,75.8,,-4.6,-4.2,,49.5,238329.0,,,111.71,
2001_PL,,292661.3,37.5,-0.4,86.6,15.9,,,26227.8,675327.2,20.9,11.9,9.2,,39.5,3.4,13.2,65.5,,,17.0,,37.3,291181.0,,,,
2001_PT,11.5,203420.3,149.8,1.5,341.3,5.2,-66588.0,1.7,26881.5,463549.3,0.1,2.7,1.5,-0.7,13.4,19.8,8.5,72.1,-2.92,-7.78,-0.7,-10.0,53.4,72554.2,-49.0,-9.67,126.53,
2001_RO,235.8,31309.9,26.7,-1.6,44.6,7.4,,,5882.2,52316.3,-1.2,1.7,3.4,,17.0,5.0,53.1,67.3,,,1.6,-4.5,25.9,30368.5,,,,
2001_SE,11.1,3567599.0,143.7,2.3,333.1,6.0,-575255.0,5.7,313732.0,8267547.0,-11.4,-8.1,1.0,,15.0,12.6,1.9,77.9,15.64,-11.93,-1.1,4.2,52.2,1296008.0,-23.2,-17.07,46.23,
2001_SI,22.5,12140.0,57.4,0.0,120.2,6.8,-485.0,,2122.0,25408.0,-2.3,-0.4,3.7,,17.8,10.0,26.0,68.1,-26.57,-5.77,0.0,-2.0,26.1,5511.6,-2.1,1.24,,
2001_SK,17.4,16464.6,48.0,1.1,162.9,18.3,,,1431.5,55878.1,9.7,1.7,11.3,4.9,39.6,4.2,9.2,70.4,,,14.1,,48.3,16565.6,,,,
2001_UK,10.4,1666077.0,147.5,0.1,626.4,5.4,-20643.0,7.7,161108.0,7074848.0,-2.0,-2.8,1.3,,11.7,14.3,5.7,75.3,,,-1.4,-2.4,34.3,387617.0,-1.8,,61.6,
2002_AT,1.2,277087.2,122.2,0.4,352.1,4.1,-46594.0,-0.4,10421.2,798297.1,-3.7,0.4,1.1,,6.7,4.6,0.6,71.6,-0.62,6.28,1.3,0.2,66.7,151295.9,-20.5,8.53,78.98,
2002_BE,6.6,307580.1,111.8,-0.1,448.6,7.0,,4.9,13093.5,1233922.6,-2.1,0.7,3.7,-1.2,17.7,4.8,-1.5,64.8,,,-2.6,,104.7,288024.3,,,70.32,
2002_BG,11.3,10874.0,32.2,,83.9,18.1,-8405.5,-11.9,2602.0,28360.0,12.1,3.4,12.0,,35.4,7.7,7.9,61.9,,,,-4.4,51.4,17376.8,-24.9,,51.02,
2002_CY,7.0,32909.4,277.1,3.0,372.3,4.1,,,-1370.7,44221.6,-1.6,2.1,,,8.0,-11.5,2.6,71.2,,,,,60.5,7187.9,,,103.6,
2002_CZ,14.5,1392402.0,51.9,-1.4,148.0,8.1,-397255.0,11.1,135030.0,3968800.0,19.3,10.7,3.7,0.5,16.0,5.0,8.9,70.6,4.73,30.05,-1.0,-4.8,25.9,695133.0,-14.8,41.99,75.75,
2002_DE,1.4,2697413.0,122.1,0.6,455.3,8.1,-72.0,-2.5,5812.0,10059778.0,-6.2,0.8,,,9.8,0.3,1.0,71.7,3.71,3.08,0.8,-0.1,59.4,1312446.6,0.0,3.26,97.95,
2002_DK,7.8,2356833.0,167.1,-1.0,482.6,4.5,,1.7,82958.0,6806614.0,-1.6,2.0,0.9,-0.3,7.4,5.9,0.0,79.6,,,-1.7,,49.1,692175.0,,,77.36,
2002_EE,10.3,5284.0,68.0,-1.1,149.0,12.9,-4167.8,,1134.1,11580.8,0.7,2.1,6.1,,17.9,14.6,24.3,69.3,10.71,1.17,,-7.9,5.7,442.9,-53.6,-6.42,,
2002_EL,12.8,104233.7,63.8,0.3,165.9,10.7,,11.3,13091.5,271232.7,-5.5,2.5,5.3,-1.3,26.8,8.0,0.1,64.1,,,-4.7,,104.9,171410.0,,,140.32,
2002_ES,9.1,872237.0,116.4,2.7,255.1,11.3,-334660.0,12.4,110757.0,1911523.0,1.0,2.8,3.8,-3.4,22.2,14.8,5.5,66.6,12.21,6.76,-4.2,-4.2,51.3,384145.0,-44.7,3.74,100.66,
2002_FI,4.1,150118.0,101.2,1.0,166.5,9.3,-72052.8,4.6,11479.0,246834.0,-2.8,1.7,2.2,-0.7,21.0,7.7,4.2,74.9,27.46,0.56,-0.4,7.9,40.2,59661.0,-48.6,-4.33,76.65,
2002_FR,6.4,1648789.0,103.8,,388.8,8.1,107175.0,7.9,75955.0,6174087.0,-4.0,1.6,,,30.5,4.8,1.3,,,,-6.8,1.3,60.3,956794.0,6.7,,67.45,
2002_HR,7.8,134404.4,63.5,,120.4,15.6,-55652.0,3.2,30742.2,254735.4,2.4,1.8,,,36.2,14.5,22.0,,,,,-4.2,36.6,77437.3,-26.3,,97.15,
2002_HU,31.8,9837389.0,56.3,-0.1,170.4,5.8,-11067942.3,,1357142.0,29758512.0,19.5,9.7,2.5,-0.9,11.9,7.8,3.2,59.7,4.39,51.64,-0.6,-6.9,55.3,9656989.0,-63.4,73.11,,
2002_IE,9.7,186861.0,137.4,0.8,875.4,4.5,-28489.0,-0.6,22859.0,1190200.0,4.4,5.0,1.4,-0.9,8.5,16.8,10.5,71.5,,65.06,-0.9,0.3,30.6,41538.4,-21.0,,105.96,
2002_IT,7.8,1112536.0,82.7,1.5,239.6,9.2,-149490.0,8.8,84533.0,3223973.0,-2.2,2.3,5.3,,22.0,6.3,3.4,61.1,-17.48,-10.32,-6.0,0.1,101.9,1371769.8,-11.1,-8.38,107.77,
2002_LT,-9.5,4517.3,29.7,-2.7,54.9,15.9,,5.9,550.9,8345.5,10.7,2.6,7.4,,23.0,3.6,16.2,69.6,,,-4.2,,22.1,3365.4,,,69.19,
2002_LU,12.5,38830.3,154.7,2.1,9727.0,2.2,16137.0,6.9,4363.6,2440966.4,0.0,0.8,,,7.0,17.4,4.3,64.8,24.7,20.36,0.1,10.1,7.0,1768.3,64.3,5.57,55.89,
2002_LV,-1.4,4235.0,50.4,0.0,100.1,13.4,-3355.0,39.1,800.0,8405.0,2.4,-2.9,5.7,,20.3,9.5,24.6,68.6,,,-3.7,-5.0,13.0,1093.4,-33.0,,77.05,
2002_MT,,5608.8,124.3,0.5,439.4,7.1,,10.5,114.7,19828.1,1.9,2.0,3.0,,14.8,2.5,15.9,58.5,,,,,63.2,2851.6,,,51.93,
2002_NL,10.7,1059411.0,211.4,2.8,796.7,3.5,,2.9,53205.0,3992333.0,2.9,3.0,,,7.4,10.6,4.4,76.5,,-2.58,-2.0,,48.8,244564.0,,,114.93,
2002_PL,,363230.3,44.8,-1.3,84.5,18.1,,,11903.3,685087.2,17.3,-4.4,10.9,,42.5,1.5,1.4,64.6,,,12.4,,41.8,338665.0,,,,
2002_PT,11.9,222346.2,155.9,1.8,334.8,5.5,-83337.0,-2.9,17422.7,477517.3,2.5,2.6,1.7,-0.1,15.6,12.2,3.0,72.7,2.86,-0.19,2.8,-9.9,56.2,80133.6,-58.4,-1.72,122.86,
2002_RO,138.2,46974.0,30.8,-5.0,49.1,7.8,,,13020.8,74709.3,14.7,0.4,4.6,1.5,19.8,8.6,42.8,63.4,,,3.3,-4.3,24.8,37795.0,,,,
2002_SE,10.7,3792072.0,147.3,1.5,325.7,5.8,-536705.0,4.9,123462.0,8384145.0,-8.0,2.6,1.0,,16.4,4.8,1.4,77.6,16.54,-8.77,4.1,4.4,50.2,1293116.0,-20.9,-13.7,48.48,
2002_SI,24.1,13910.0,58.9,0.5,133.7,6.4,27.0,,1664.0,31585.0,-1.4,2.0,3.5,0.2,16.5,7.0,24.3,67.8,-13.4,7.14,-1.0,-0.6,27.3,6442.4,0.1,13.57,,
2002_SK,17.6,19230.4,51.6,0.4,150.3,19.1,,,2895.3,56042.8,14.7,2.5,12.2,4.5,38.1,7.8,0.3,69.9,,,3.9,,42.9,15986.4,,,,
2002_UK,8.0,1820902.0,153.9,-0.1,615.5,5.2,44746.0,15.4,176600.0,7281454.0,-2.3,0.0,1.1,,12.0,14.9,2.9,75.3,6.51,-7.23,-0.7,-2.3,34.4,406983.0,3.8,-13.29,71.07,
2003_AT,2.7,289254.7,124.8,1.0,370.0,4.4,-29563.0,-1.3,14952.1,857899.0,3.5,3.3,1.1,,7.6,6.4,7.5,72.0,3.15,1.96,2.0,1.0,65.9,152688.1,-12.8,1.65,77.97,
2003_BE,7.4,330591.3,117.0,-0.2,484.9,7.4,,5.2,32102.7,1370512.9,5.9,4.4,3.7,-0.1,21.8,11.4,11.1,64.9,,,5.1,,101.1,285784.2,,,74.0,
2003_BG,10.9,15033.0,41.3,0.2,95.2,17.2,-9421.3,10.9,4173.0,34617.0,13.2,3.3,9.0,-0.6,26.6,11.5,22.1,60.9,28.3,30.4,-7.1,-4.4,43.7,15893.0,-25.9,31.53,56.59,
2003_CY,14.6,33141.0,258.0,3.0,384.7,3.8,,-0.9,231.6,49420.1,8.2,6.5,,,8.8,1.8,11.8,72.2,,,-1.1,,63.8,8200.1,,,102.68,
2003_CZ,15.6,1300936.0,46.3,-1.1,147.4,7.7,-527484.0,10.0,-74529.0,4143183.0,14.8,-2.2,3.8,-0.4,17.6,-2.7,4.4,70.2,-6.94,22.31,0.6,-5.2,28.3,795347.0,-18.8,36.58,83.35,
2003_DE,1.9,2728822.0,122.9,1.0,467.4,8.7,16698.0,-1.5,26438.0,10375666.0,5.8,5.2,,,11.5,1.2,3.1,72.1,4.63,0.34,2.8,1.0,63.1,1400260.9,0.8,-0.46,96.52,
2003_DK,10.0,2489463.0,173.3,-0.5,510.7,4.8,,1.9,139657.0,7336827.0,8.5,5.1,1.1,0.1,9.2,9.7,7.8,79.5,,,3.0,,46.2,663062.0,,,78.84,
2003_EE,14.5,6514.3,74.8,-0.4,150.9,11.5,-5738.4,,1263.5,13137.4,8.6,3.3,4.8,-1.9,20.9,14.5,13.4,70.5,8.6,-1.68,-3.0,-10.4,5.6,489.7,-65.9,-7.56,,
2003_EL,14.6,121475.3,67.9,1.2,165.8,10.2,-106621.0,2.9,18435.9,296651.2,9.0,6.1,5.4,-0.8,26.8,10.3,9.4,65.0,,,-2.3,,101.5,181510.0,-59.6,,144.33,
2003_ES,9.7,1014999.0,126.3,2.6,278.0,11.2,-387288.0,13.6,145158.0,2233275.0,10.0,5.6,3.8,-2.0,22.7,18.1,16.8,68.0,9.71,4.11,-0.5,-4.0,47.6,382775.0,-48.2,1.88,114.35,
2003_FI,4.0,158961.0,104.9,0.0,185.5,9.1,-94851.7,5.2,9677.0,281216.0,8.1,5.3,2.3,-0.4,21.8,6.4,13.9,74.5,12.24,-6.97,0.4,7.0,42.8,64870.0,-62.6,-10.66,80.66,
2003_FR,7.3,1692397.0,103.8,,404.5,8.1,-49832.0,9.9,72105.0,6595711.0,7.7,5.8,,,18.8,4.4,6.8,,,,-12.7,1.2,64.4,1050356.0,-3.1,,74.16,
2003_HR,7.9,158305.2,68.1,,131.1,15.1,-83169.0,0.9,25872.3,304715.4,6.0,1.1,,,34.0,11.1,19.6,62.6,,,-3.3,-5.4,38.1,88546.4,-35.8,,98.04,
2003_HU,27.2,12902015.0,67.4,0.5,174.6,5.7,-14506780.8,,2782934.0,33414544.0,20.3,1.6,2.4,-0.7,13.2,14.5,12.3,60.6,13.74,39.34,1.3,-6.7,57.9,11078541.0,-75.8,48.83,,
2003_IE,12.2,205684.0,141.3,0.2,1001.7,4.6,-34240.9,10.0,11982.0,1458020.0,18.3,9.8,1.5,0.0,8.9,8.2,22.5,71.7,,28.05,2.0,0.3,29.9,43564.4,-23.5,,116.57,
2003_IT,11.9,1199657.0,86.3,1.4,258.9,8.6,-167137.0,3.2,95498.0,3600367.0,9.8,6.7,5.0,-1.5,23.6,6.9,11.7,61.5,-16.58,-12.38,-2.6,-0.1,100.5,1397472.4,-12.0,-11.24,111.17,
2003_LT,-0.8,5948.5,35.7,-1.0,64.9,14.5,,11.6,1174.0,10813.8,5.2,2.1,6.0,,24.8,7.0,29.6,69.9,,,-5.2,,20.4,3394.7,,,77.23,
2003_LU,11.3,57029.8,217.8,1.0,11004.3,2.8,19208.0,8.7,18220.2,2881792.3,5.1,3.7,0.9,,11.2,69.6,18.1,64.6,26.4,14.39,4.8,8.0,6.9,1817.9,73.3,-5.19,60.78,
2003_LV,2.3,5081.0,53.2,1.5,109.4,12.5,-3973.0,16.5,788.0,10450.0,-7.7,-4.4,5.0,,19.6,8.2,24.3,68.9,,,-2.8,-6.1,13.7,1311.4,-37.9,,89.76,
2003_MT,10.6,5676.6,119.3,0.8,479.5,7.4,,15.1,314.9,22820.3,7.2,3.9,3.1,,16.4,6.6,15.1,58.6,,,2.7,,69.0,3285.6,,,59.76,
2003_NL,10.1,1162707.0,226.7,1.3,821.5,3.9,-19768.0,0.2,58833.0,4212803.0,11.4,4.5,1.0,,9.9,11.5,5.5,76.5,,-3.9,1.7,,50.0,256381.0,-3.9,,115.11,
2003_PL,0.4,391498.0,46.3,-1.9,93.8,19.4,,,17005.7,793335.0,-4.7,-10.9,11.0,3.6,41.9,2.0,15.8,63.9,,,7.0,,46.6,394100.0,,,,
2003_PT,11.1,236734.9,162.0,1.4,362.8,6.2,-91173.0,-2.4,11684.3,530321.8,10.5,4.9,2.2,0.5,18.6,8.0,11.1,72.8,-5.38,-4.79,6.1,-8.7,58.7,85726.1,-62.4,-4.41,119.94,
2003_RO,79.9,65196.5,34.0,-6.2,49.8,7.8,,,15144.6,95619.1,-0.8,-2.9,4.3,0.5,18.5,7.9,28.0,62.2,,,2.0,-5.1,22.1,42431.7,,,,
2003_SE,6.7,3879485.0,144.7,1.2,339.2,6.1,-465914.0,4.9,126990.0,9093493.0,1.1,7.2,1.0,,17.4,4.7,8.5,77.3,11.42,-8.85,6.9,5.0,49.7,1332063.0,-17.4,-12.9,50.87,
2003_SI,20.7,16157.0,62.9,-0.4,138.5,6.4,-1481.0,,2149.0,35554.0,4.7,3.1,3.5,-0.6,17.3,8.4,12.6,67.1,-4.19,5.41,1.0,0.0,26.7,6856.3,-5.6,8.13,84.96,
2003_SK,11.1,19467.8,47.0,0.1,144.2,18.7,,,1527.8,59684.6,17.7,12.9,11.4,1.3,33.8,3.7,6.5,70.0,,,-3.5,,41.6,17219.5,,,,
2003_UK,7.0,1943544.0,155.3,-0.2,656.9,5.0,35956.0,14.4,175178.0,8222851.0,-7.0,-4.4,1.1,-0.4,12.2,14.0,12.9,75.3,9.43,-9.48,0.0,-2.1,35.6,445516.0,2.9,-17.28,81.33,
2004_AT,1.7,297830.2,122.9,-0.6,393.2,4.9,-31621.0,-3.6,9992.0,952876.0,4.4,0.7,1.5,,10.5,4.1,11.1,70.4,1.72,3.85,4.3,1.9,65.2,157985.4,-13.0,4.68,75.17,
2004_BE,2.2,360474.8,120.7,1.7,519.6,8.0,,6.2,29001.4,1552181.1,6.2,1.0,4.1,0.9,21.2,9.7,13.3,65.9,,,4.4,,96.5,288327.2,,,78.56,
2004_BG,4.6,23413.0,57.3,-0.7,115.6,14.7,-12008.0,42.5,7628.0,47280.0,11.2,4.1,7.2,-5.4,24.3,18.7,36.6,61.8,42.33,51.73,-13.9,-4.7,36.0,14720.4,-29.4,56.04,80.63,
2004_CY,13.6,34315.6,247.7,1.9,428.7,4.1,,8.6,1174.6,59404.9,9.6,0.7,1.3,,10.2,8.5,20.2,72.6,,,2.0,,64.8,8974.3,,,111.53,
2004_CZ,13.0,1436781.0,46.9,-0.8,143.0,7.8,-734057.0,-2.6,179141.0,4380564.0,8.9,0.6,4.2,0.0,20.4,5.8,5.7,70.0,-17.67,54.75,3.8,-4.8,28.5,873760.0,-24.0,93.75,81.21,
2004_DE,1.3,2699679.0,118.9,1.2,475.0,9.6,101988.0,-2.4,-39660.0,10784318.0,7.4,1.3,5.5,,13.7,-1.7,3.9,72.6,17.44,5.93,5.4,2.6,64.8,1470586.1,4.5,4.09,94.2,
2004_DK,5.6,2604996.0,173.0,0.2,525.2,5.2,,7.8,100810.0,7909143.0,7.6,0.4,1.2,0.3,8.2,6.7,7.8,80.1,,,-0.1,,44.2,664989.0,,,84.98,
2004_EE,15.7,8291.5,85.4,0.1,181.9,10.5,-8381.3,,1538.7,17660.8,7.2,1.6,5.2,-1.2,23.9,15.9,34.4,70.5,17.0,15.17,1.7,-12.0,5.1,491.4,-86.3,14.06,,
2004_EL,14.5,142616.2,73.6,2.9,166.2,10.2,-129680.0,-1.0,21867.4,322026.7,10.2,1.4,5.6,0.1,26.5,11.3,8.6,66.2,,,-1.5,-7.7,102.9,199282.0,-66.9,,142.88,
2004_ES,9.4,1185317.0,137.6,4.2,301.4,11.3,-479388.0,12.9,167088.0,2596432.0,10.7,2.0,3.5,-0.3,22.0,19.4,16.3,68.9,0.23,0.73,0.9,-4.4,45.3,389888.0,-55.7,1.02,129.1,
2004_FI,1.6,170497.0,107.6,-0.8,201.3,9.0,-14788.0,7.8,10253.0,319044.0,6.7,-0.4,2.1,-0.4,20.7,6.5,13.5,74.2,32.68,-2.17,0.9,6.2,42.7,67697.0,-9.3,-8.69,86.93,
2004_FR,5.8,1792139.0,105.2,,425.2,8.4,-58611.0,12.8,97113.0,7245557.0,9.3,1.7,3.7,,20.4,5.7,9.9,69.3,-15.03,-13.14,-8.7,0.8,65.9,1123615.0,-3.4,-12.44,83.65,
2004_HR,12.2,182655.4,72.9,,139.2,14.4,-118555.0,8.7,26797.9,348898.5,4.2,1.3,7.3,,32.9,10.7,14.5,63.5,,,-7.0,-5.8,40.3,100923.5,-47.3,,106.6,
2004_HU,19.7,14838755.0,70.3,0.9,171.3,5.8,-17540516.0,,2564472.0,36149573.0,18.1,5.9,2.7,0.1,15.5,12.2,8.2,60.5,8.36,44.08,4.5,-7.6,58.7,12389858.0,-83.1,55.68,,
2004_IE,8.1,233410.0,149.5,0.8,1121.6,4.7,-34764.4,9.2,36833.0,1751386.0,18.4,2.7,1.5,0.2,8.8,23.6,20.1,72.5,,13.94,1.5,0.2,28.2,44055.8,-22.3,,127.26,
2004_IT,11.0,1300132.0,89.8,2.2,266.6,8.3,-218056.0,3.7,109328.0,3861461.0,10.9,1.6,3.8,-2.1,23.5,7.5,7.3,62.8,-9.61,-6.82,0.4,-0.4,100.1,1449660.9,-15.1,-6.08,115.33,
2004_LT,6.7,7399.6,40.6,-0.6,74.2,12.4,-6469.3,8.3,1548.8,13526.1,4.2,-0.5,5.6,,21.8,8.5,25.1,69.2,,,-9.3,,18.7,3404.5,-35.5,,83.61,
2004_LU,7.4,54484.4,195.0,1.8,11854.5,3.8,4998.0,11.5,-2546.5,3311605.5,6.5,1.8,1.1,,16.4,-9.1,14.9,65.8,19.71,13.31,10.2,9.2,7.3,2051.9,17.9,0.26,67.77,
2004_LV,9.4,7072.5,64.0,1.7,128.4,11.9,-5521.0,-4.0,2025.7,14181.1,-6.6,0.7,5.0,,20.0,18.3,35.7,69.3,,,-2.7,-8.0,14.0,1550.8,-47.3,,86.21,
2004_MT,7.1,6253.3,128.9,0.2,881.6,7.3,1835.9,13.4,455.2,42778.5,9.0,2.9,3.4,,16.6,9.4,87.5,58.2,,,-2.2,,71.9,3489.8,37.7,,67.74,
2004_NL,7.2,1200399.0,226.8,0.8,852.9,4.7,-1098.0,2.5,46788.0,4514450.0,7.8,0.2,1.5,,11.4,8.8,7.2,76.6,,-2.96,4.7,,50.3,266230.0,-0.2,,118.04,
2004_PL,-6.9,385960.0,41.4,-1.5,98.6,19.6,-381178.0,,7435.0,919579.0,-15.8,-1.1,10.3,1.1,39.6,0.8,15.9,64.0,,,0.1,,45.0,420282.0,-40.9,,,
2004_PT,7.1,252679.8,165.8,0.6,370.5,7.1,-101707.0,-1.6,19743.6,564477.6,9.0,1.2,3.0,1.5,19.7,13.0,6.4,72.7,-0.98,-4.06,6.3,-8.0,62.0,94454.1,-66.7,-5.19,117.98,
2004_RO,24.8,82332.6,33.6,-4.3,63.7,8.0,,,22193.2,155749.7,-0.6,1.9,4.8,1.4,20.5,9.1,62.9,63.0,142.8,27.63,3.5,-6.0,18.9,46356.8,,-5.17,,
2004_SE,1.1,4051320.0,144.3,-0.7,362.0,6.7,-607085.0,8.5,194744.0,10167032.0,11.4,1.3,1.3,0.3,20.4,6.9,11.8,77.2,8.09,-6.48,5.4,5.5,48.9,1371971.0,-21.6,-9.74,55.19,
2004_SI,14.6,18564.0,67.1,1.7,143.2,6.4,-2130.0,6.4,2344.0,39641.0,4.7,-0.5,3.3,-0.4,16.1,8.5,11.5,69.8,8.88,18.27,-1.7,-0.9,26.8,7429.1,-7.7,20.78,90.41,
2004_SK,10.6,21594.4,46.8,-0.7,139.3,18.3,-17934.0,,1333.6,64232.3,27.1,9.8,11.8,0.5,33.4,2.9,7.6,69.7,,,-6.2,,40.6,18735.3,-51.7,,,
2004_UK,6.5,2114276.0,161.0,0.0,809.3,4.9,-44140.0,10.3,187790.0,10624916.0,-0.8,3.7,1.0,-0.3,12.0,14.3,29.2,75.3,7.1,-11.16,0.3,-2.2,38.6,506689.0,-3.4,-19.41,89.7,
2005_AT,2.4,313728.4,123.5,-0.2,459.5,5.3,-39287.0,2.6,17240.5,1167563.9,2.5,-1.4,1.4,0.3,11.0,6.8,22.5,71.4,8.41,11.65,4.3,2.0,68.6,174403.5,-15.5,12.52,77.09,
2005_BE,1.4,375992.3,120.7,1.9,579.5,8.4,119694.2,9.7,16137.5,1805074.8,4.9,-0.4,4.4,0.7,21.5,5.2,16.3,66.7,-5.65,-5.66,3.8,3.0,94.7,294900.6,38.4,-5.7,86.2,
2005_BG,9.4,33870.0,72.6,0.2,136.0,12.0,-20084.9,27.8,8566.0,63463.0,8.3,0.7,6.0,-6.0,21.0,18.4,34.2,62.1,21.35,40.73,-14.4,-7.7,26.8,12498.1,-43.1,48.98,103.08,
2005_CY,16.1,39495.7,266.5,1.2,537.6,4.7,,3.1,6480.1,79677.4,7.0,-0.3,1.3,,13.9,43.7,34.1,72.4,,,5.9,,63.4,9402.8,,,115.0,
2005_CZ,5.3,1564600.0,47.9,-0.2,148.9,8.0,-753809.0,0.5,140711.0,4860864.0,3.3,5.0,4.2,0.5,19.3,4.3,11.0,70.4,-21.63,75.09,3.3,-3.9,27.9,910309.0,-23.1,123.54,81.58,
2005_DE,0.0,2690879.0,117.0,2.1,498.4,10.4,305745.0,-0.4,-4328.0,11467918.0,4.6,-1.8,5.9,,15.4,-0.2,6.3,73.8,19.05,10.12,5.6,3.5,67.0,1541399.9,13.3,8.9,93.81,
2005_DK,4.6,2977137.0,187.7,0.2,625.9,5.2,59957.0,15.6,353747.0,9926349.0,4.1,-1.4,1.1,0.2,8.6,22.3,25.5,79.8,,,1.2,,37.4,593352.0,3.8,,98.26,
2005_EE,14.8,10880.3,96.6,1.4,193.5,9.5,-9533.3,,2617.8,21792.4,5.8,0.8,4.4,-1.7,15.1,23.2,23.4,70.7,29.22,60.55,-2.8,-11.2,4.5,512.3,-84.6,85.3,86.02,
2005_EL,14.2,170709.7,85.7,2.3,189.1,10.1,-150675.0,7.8,28497.3,376705.2,6.4,-1.1,5.2,-0.1,25.8,14.3,17.0,66.4,,,-1.0,-8.3,107.4,213976.0,-75.6,,153.97,
2005_ES,9.6,1438661.0,154.6,3.4,349.5,10.6,-548344.0,9.9,250945.0,3252269.0,7.7,0.1,2.2,-1.6,19.6,27.0,25.3,70.0,3.71,2.22,-2.6,-5.7,42.3,393479.0,-58.9,0.98,141.9,
2005_FI,2.8,190571.0,115.9,-0.2,220.8,8.7,-23091.9,7.0,20684.0,362988.0,1.6,-3.1,2.1,-0.1,20.1,12.6,13.8,74.7,29.73,-6.29,-0.9,4.5,40.0,65759.0,-14.0,-13.02,92.99,
2005_FR,4.9,1935184.0,109.6,,471.8,8.8,-35721.0,13.3,145083.0,8331705.0,5.9,-1.5,3.7,,21.0,8.2,15.0,69.2,-3.68,-6.85,-9.5,0.5,67.4,1189919.0,-2.0,-8.14,94.76,
2005_HR,8.9,216186.3,80.1,,146.2,13.6,-151261.0,7.8,36657.7,394551.8,2.7,0.3,7.4,,31.7,13.6,13.1,63.3,37.23,42.64,-4.5,-5.2,41.2,111055.3,-56.1,46.38,114.89,
2005_HU,16.0,17815517.0,79.0,1.6,216.4,6.4,-20660652.0,,2522419.0,48819350.0,9.0,1.2,3.2,0.7,19.4,11.2,35.0,61.3,2.34,39.64,7.5,-7.8,60.5,13643767.0,-91.6,51.27,,
2005_IE,12.1,289540.0,170.1,2.4,1390.6,4.7,-78686.1,8.0,57177.0,2366540.0,12.1,-0.6,1.4,0.0,8.7,33.6,35.1,73.9,,8.8,0.2,-1.0,26.1,44379.0,-46.2,,137.39,
2005_IT,9.2,1429652.0,96.0,1.4,290.5,8.0,-230078.0,5.3,142991.0,4327479.0,6.7,-1.6,3.7,-1.6,24.1,9.6,12.1,62.5,-7.52,-4.99,2.1,-0.6,101.9,1518670.0,-15.4,-4.36,121.5,
2005_LT,11.5,10517.5,50.1,-0.9,95.7,10.5,-8865.2,22.7,2988.5,20102.1,-0.3,-1.8,4.4,-3.0,15.8,14.2,48.6,68.7,,,-7.2,,17.6,3701.9,-42.2,,102.56,
2005_LU,7.8,54726.4,182.2,1.8,14297.4,4.5,5904.0,7.8,167.8,4293637.4,6.6,1.0,1.2,,14.6,0.6,29.7,66.6,15.5,13.8,7.6,9.8,7.4,2217.1,19.7,3.35,73.03,
2005_LV,27.4,11033.5,81.1,0.5,146.0,11.1,-7637.0,13.0,3758.6,19854.9,-5.4,-1.7,4.5,-1.2,15.1,27.6,40.0,69.1,44.35,89.86,-5.2,-10.2,11.4,1552.0,-55.6,123.59,97.44,
2005_MT,5.0,6883.4,133.7,-0.9,1403.1,7.2,1846.2,4.5,759.8,72251.2,5.9,-0.8,3.4,0.4,16.1,14.8,68.9,57.6,,,1.3,,70.0,3606.4,35.9,,70.82,
2005_NL,2.1,1274887.0,231.4,-1.4,946.1,5.5,-27400.0,2.9,76063.0,5211855.0,3.2,-1.5,2.3,,11.8,13.8,15.4,75.1,,0.36,4.4,,49.8,274420.0,-5.0,,121.51,
2005_PL,-3.7,416164.0,42.0,-0.2,111.3,18.9,-413725.0,,35326.0,1102801.0,-2.0,11.2,10.3,-0.6,36.9,3.6,19.9,64.4,,,-5.6,,46.4,459985.0,-41.8,,68.39,
2005_PT,7.4,271865.6,171.4,0.5,393.7,8.0,-110972.0,-1.5,19077.2,624601.5,5.3,-0.9,3.7,2.0,20.8,12.0,10.7,73.2,-3.64,-3.52,5.2,-8.5,67.4,106919.5,-69.9,-3.83,116.21,
2005_RO,53.1,113475.2,39.6,-1.1,79.7,7.6,-85463.0,,33628.2,228605.3,16.5,17.7,4.0,-0.6,19.1,11.7,46.8,62.3,68.97,84.58,-0.7,-7.8,15.9,45625.7,-29.8,94.27,,
2005_SE,0.4,4417529.0,151.8,0.6,410.0,7.2,-504742.0,8.4,387318.0,11933172.0,3.7,-4.4,1.1,0.1,22.6,13.3,17.4,78.2,10.15,-5.18,6.2,6.0,49.1,1429434.0,-17.3,-8.72,59.83,
2005_SI,9.7,22311.0,76.3,2.9,159.6,6.5,-3160.0,11.9,3625.0,46658.0,0.8,-1.8,3.1,-0.4,15.9,12.4,17.7,70.7,21.11,29.66,-0.6,-1.8,26.3,7682.8,-10.8,31.81,101.19,
2005_SK,10.2,24598.0,48.8,-1.0,150.9,17.5,-23940.2,,3592.6,76072.3,27.1,2.5,11.7,-0.5,30.4,7.1,18.4,68.9,,,-7.7,,34.1,17201.2,-60.8,,,
2005_UK,7.2,2394330.0,172.4,0.1,892.7,4.8,-32619.0,9.5,196348.0,12397159.0,-3.0,-2.2,1.0,-0.1,12.8,14.1,16.7,75.4,13.12,-7.33,0.8,-2.1,39.8,552591.0,-2.3,-16.97,98.21,
2006_AT,2.4,327549.9,122.3,0.4,478.1,5.5,-34494.0,1.9,14118.4,1280383.7,-1.7,-0.9,1.5,0.4,9.8,5.3,9.7,72.4,2.19,1.25,2.2,2.5,67.3,180270.0,-12.9,1.24,78.54,
2006_BE,2.5,400624.2,122.6,1.6,614.9,8.4,112221.9,6.5,17003.9,2008667.9,0.5,0.0,4.2,0.5,20.5,5.2,11.3,66.5,-15.64,-13.89,-1.3,2.4,91.0,297424.0,34.4,-13.39,91.76,
2006_BG,10.2,48518.0,91.2,3.6,181.2,10.4,-30045.1,12.4,14903.0,96430.0,9.2,4.1,5.0,-4.0,18.3,28.0,51.9,64.5,,43.28,-8.3,-11.7,21.0,11189.2,-56.5,,115.84,
2006_CY,8.1,41475.0,259.2,0.8,644.8,4.8,,7.9,1979.3,103167.0,0.1,-0.3,0.9,,10.0,12.4,29.5,73.0,,-24.85,1.2,-6.4,59.3,9481.7,-45.4,,124.08,
2006_CZ,2.6,1856735.0,52.9,0.1,143.2,7.8,-988554.0,5.8,298508.0,5031704.0,10.2,4.4,3.9,0.1,17.5,8.5,3.5,70.3,-18.6,57.72,-0.1,-2.8,27.7,973153.0,-28.1,90.98,86.32,
2006_DE,-2.9,2729135.0,114.0,2.8,502.2,10.6,471717.0,-1.4,24059.0,12018961.0,-1.5,-0.9,5.7,,13.6,1.0,4.8,74.9,17.12,2.69,2.1,5.0,66.5,1591334.4,19.7,0.27,92.53,
2006_DK,4.3,3363922.0,200.0,1.1,660.4,4.7,-4833.0,21.3,400239.0,11110058.0,-1.6,-0.6,0.8,-0.3,7.7,23.8,11.9,80.6,,,-1.5,,31.5,530743.0,-0.3,,119.22,
2006_EE,18.7,15416.4,114.0,2.3,185.4,8.0,-9911.3,41.1,4662.1,25072.0,3.5,1.1,2.9,-1.9,12.1,34.5,15.0,72.8,15.37,44.2,-8.8,-11.9,4.4,595.5,-73.3,69.75,121.35,
2006_EL,10.0,201602.7,92.5,1.7,197.7,9.9,-180033.0,9.7,35638.1,430670.3,0.3,0.0,4.9,-0.5,25.0,16.4,14.3,66.7,,-3.88,-1.8,-9.4,103.6,225730.0,-82.6,,168.83,
2006_ES,10.0,1789659.0,177.6,3.1,387.3,9.6,-684030.0,9.4,353046.0,3903603.0,3.1,1.0,1.8,-2.0,17.9,35.0,20.0,71.1,-3.03,-7.6,-4.8,-7.4,38.9,392132.0,-67.9,-9.12,155.21,
2006_FI,3.7,205816.0,119.2,0.7,235.8,8.3,-24582.6,5.7,15407.0,406939.0,-5.6,-2.1,1.9,-0.4,18.7,8.9,12.1,75.2,-37.01,-7.97,-3.1,4.2,38.2,65894.0,-14.2,-1.48,98.27,
2006_FR,4.7,2086482.0,112.9,,519.8,8.9,-89231.0,9.8,170538.0,9606077.0,-0.5,-0.7,3.8,,22.0,9.2,15.3,69.2,-10.79,-14.29,3.2,0.3,64.6,1194106.0,-4.8,-15.23,104.04,
2006_HR,6.0,270127.2,91.8,0.4,169.4,12.8,-216689.0,13.9,53104.9,498246.5,2.7,1.1,6.7,,28.9,18.1,26.3,63.0,10.03,18.81,-5.1,-5.4,38.7,113694.8,-73.7,36.61,130.84,
2006_HU,9.7,20238304.0,83.4,1.4,237.3,6.9,-22965083.0,,3360862.0,57553129.0,1.7,-5.1,3.4,1.0,19.1,13.9,17.9,62.0,-15.75,24.39,5.9,-7.5,64.5,15635158.0,-94.7,37.3,,
2006_IE,10.7,352529.0,190.6,3.2,1555.4,4.7,-47655.5,12.1,75672.0,2877439.0,2.7,0.5,1.4,-0.1,8.8,40.9,21.6,74.9,,-9.62,-0.1,-3.0,23.6,43692.5,-25.8,,153.96,
2006_IT,7.0,1583122.0,102.2,1.1,308.7,7.5,-311083.0,3.1,161784.0,4779539.0,-0.4,-0.5,3.3,-1.7,21.8,10.4,10.4,62.6,-10.79,-12.64,-1.8,-0.9,102.6,1588074.0,-20.1,-13.09,125.23,
2006_LT,24.1,14971.4,62.2,-2.3,110.9,8.3,-11504.7,22.7,4493.1,26698.1,-2.6,-0.3,2.6,-3.4,10.0,18.7,32.8,67.6,,48.19,-14.8,-8.6,17.2,4151.9,-47.8,,125.83,
2006_LU,9.2,63385.5,187.5,2.1,14735.4,4.7,7212.0,8.5,8740.7,4981807.5,3.4,0.5,1.4,0.5,15.5,25.9,16.0,66.7,30.28,17.16,4.3,10.9,7.8,2630.1,21.3,-4.91,79.23,
2006_LV,41.7,16631.5,97.2,2.1,171.3,9.6,-11073.0,41.1,5753.5,29303.5,1.7,2.8,2.4,-2.6,13.6,33.6,47.6,71.0,47.59,73.64,-6.0,-14.7,9.6,1634.5,-64.1,94.49,137.47,
2006_MT,5.8,7681.7,142.6,-0.7,1828.2,7.0,1497.0,16.9,401.4,98471.1,2.8,0.8,2.7,-0.4,15.5,7.5,36.3,57.9,,,-0.9,-6.2,64.5,3472.9,27.8,,82.79,
2006_NL,-0.2,1334453.0,228.3,-1.1,994.6,5.5,-11292.0,1.4,67809.0,5813877.0,-2.1,-0.8,2.1,1.1,10.0,11.6,11.6,75.4,,-5.18,0.1,7.9,45.2,264268.0,-1.9,,123.17,
2006_PL,-1.5,509209.0,47.6,-0.5,128.3,17.0,-480786.0,34.6,98739.0,1372840.0,11.5,1.5,7.8,-3.2,29.8,9.2,24.5,63.4,,50.16,-12.1,-4.0,46.9,502261.0,-44.9,,92.08,
2006_PT,4.3,293441.7,176.5,0.8,427.7,8.5,-131894.0,-1.4,20919.1,711036.5,0.7,0.4,3.9,1.7,21.2,12.6,13.8,73.6,1.93,-4.43,2.6,-9.6,69.2,115002.2,-79.3,-6.47,114.59,
2006_RO,29.2,154284.0,45.0,1.4,90.2,7.4,-125055.0,,52467.6,309342.6,27.9,6.7,4.1,-0.2,20.2,15.3,35.3,63.6,50.6,73.86,1.7,-9.2,12.4,42583.4,-36.5,97.92,,
2006_SE,-0.1,4780647.0,154.1,1.5,421.2,7.4,-304253.0,11.1,319056.0,13067653.0,-3.8,-0.7,1.0,0.0,21.5,10.3,9.5,78.8,6.2,-1.41,4.1,6.7,43.9,1363126.0,-9.8,-3.31,66.5,
2006_SI,6.3,26030.0,82.5,3.8,168.2,6.3,-5289.0,14.2,4276.0,53078.0,-2.9,-0.7,2.9,-0.6,13.9,13.6,13.8,70.9,11.68,21.43,-3.4,-2.1,26.0,8204.4,-16.8,23.76,115.54,
2006_SK,8.0,29127.4,51.8,-1.4,124.1,16.1,-29525.1,,4758.0,69848.0,18.2,5.1,10.2,-1.2,27.0,8.5,-8.2,68.6,,,-6.8,-10.1,31.0,17430.5,-64.8,,89.4,
2006_UK,9.2,2615013.0,178.4,0.4,938.9,5.0,-115278.0,4.8,235190.0,13763028.0,1.7,0.3,1.2,0.1,13.9,16.0,11.0,75.7,11.31,-7.82,1.7,-2.5,40.7,596771.0,-7.9,-15.95,102.96,
2007_AT,3.5,351885.2,123.9,3.1,500.3,5.3,-27606.0,2.1,20588.8,1420781.1,-1.8,0.6,1.3,-0.2,9.4,7.3,11.0,73.5,-1.51,1.57,-1.1,3.1,65.0,184674.5,-9.7,2.72,80.2,
2007_BE,5.1,463676.3,134.5,1.2,666.9,8.1,115871.3,4.8,58578.7,2298836.1,0.2,0.7,3.8,-0.3,18.8,17.0,14.4,67.1,-9.79,-6.74,-2.4,2.0,87.0,299996.7,33.6,-5.89,96.14,
2007_BG,16.7,78338.0,123.4,4.5,196.5,8.7,-48861.2,18.3,26144.0,124696.0,9.8,4.7,4.1,-3.1,14.1,41.2,29.3,66.3,65.9,45.17,-10.2,-17.5,16.3,10359.7,-77.0,36.82,137.06,
2007_CY,8.2,46498.9,265.5,1.3,749.2,4.6,,7.7,5319.8,131195.5,-1.3,-0.7,0.7,-0.6,10.2,30.4,27.2,73.9,,-18.66,0.0,-8.6,54.0,9461.8,-56.5,,133.61,
2007_CZ,2.5,2204534.0,57.4,-0.1,151.3,6.8,-1398170.0,16.0,355365.0,5810385.0,12.4,2.6,2.8,-1.4,10.7,9.3,15.5,69.9,-13.22,58.4,-9.7,-3.1,27.5,1054684.0,-36.4,85.56,100.13,
2007_DE,-2.9,2785933.0,110.9,3.0,517.5,9.9,470902.0,-3.8,53931.0,13005662.0,-1.5,1.3,4.9,-0.6,11.8,2.1,8.2,75.6,1.77,2.75,-1.9,5.7,63.7,1600016.2,18.7,2.89,89.04,
2007_DK,9.8,3624993.0,208.5,0.0,704.0,4.2,-100406.0,0.9,297929.0,12241227.0,-1.3,0.7,0.6,-0.6,7.5,17.1,10.2,80.1,,-5.95,-0.7,3.0,27.3,475504.0,-5.8,,120.33,
2007_EE,31.8,19988.0,123.0,2.7,197.0,6.2,-11579.2,12.0,1992.0,32007.7,6.5,4.5,2.3,-2.9,10.1,12.3,27.7,73.2,17.88,53.94,-13.8,-12.9,3.7,595.2,-71.3,82.09,135.89,
2007_EL,11.0,236187.9,101.5,0.3,226.2,9.1,-218018.0,2.3,37587.9,526433.2,-0.4,0.7,4.2,-1.4,22.7,16.2,22.2,66.5,1.12,9.31,-3.8,-11.8,103.1,239915.0,-93.7,25.25,172.65,
2007_ES,11.3,2069387.0,191.5,2.9,421.8,8.6,-859883.0,6.3,284829.0,4558453.0,2.7,1.6,1.7,-1.8,18.1,26.4,16.8,71.8,-6.5,-4.84,-3.9,-8.7,35.6,384662.0,-79.6,-4.0,164.96,
2007_FI,3.8,230675.0,123.6,1.4,240.4,7.7,-52005.6,3.9,24620.0,448537.0,-5.0,0.2,1.5,-0.6,16.5,13.2,10.2,75.6,-41.21,-4.61,-4.2,3.5,34.0,63425.0,-27.9,4.61,102.09,
2007_FR,5.5,2250037.0,115.9,0.0,558.4,8.6,-172554.0,3.5,217080.0,10840091.0,-1.6,0.6,3.3,-0.4,19.5,11.2,12.8,69.3,-16.22,-16.57,-0.9,0.1,64.5,1252867.0,-8.9,-16.67,107.69,
2007_HR,7.6,326524.5,101.3,2.2,190.9,11.5,-287192.0,8.9,54092.6,615557.4,1.9,0.4,6.0,-1.3,25.4,16.8,23.5,65.7,5.54,12.87,-7.5,-6.4,37.3,120147.9,-89.1,23.94,142.44,
2007_HU,10.0,24082818.0,93.8,1.1,277.1,7.4,-22618244.2,,4091125.0,71150432.0,6.5,10.9,3.5,0.8,18.1,15.9,23.6,61.6,-7.72,28.7,2.6,-7.0,65.5,16813307.0,-88.1,39.16,127.46,
2007_IE,13.8,390568.0,198.1,3.1,1599.8,4.8,-61892.0,4.3,49018.0,3154780.0,3.0,3.1,1.4,-0.1,9.2,24.9,9.6,75.6,25.88,-11.97,0.4,-5.1,23.9,47147.8,-31.4,-25.33,160.56,
2007_IT,6.5,1765535.0,109.7,-0.4,298.7,6.9,-340772.0,2.6,192599.0,4808198.0,-1.2,0.9,2.9,-0.9,20.4,12.0,0.6,62.4,-12.81,-8.86,-3.1,-1.3,99.8,1606203.2,-21.2,-7.87,128.54,
2007_LT,25.0,21571.6,74.3,-1.3,123.4,6.1,-15759.2,19.3,7231.0,35833.2,0.8,3.0,1.4,-4.2,8.4,24.9,34.2,67.9,,30.53,-13.4,-11.2,15.9,4609.7,-54.3,,150.14,
2007_LU,6.8,117662.0,316.5,1.1,15303.8,4.5,-6752.0,4.6,54360.8,5689789.1,2.4,0.9,1.2,0.1,15.6,146.2,14.2,66.9,39.56,25.55,-0.8,10.2,7.7,2868.2,-18.2,-5.25,82.87,
2007_LV,69.7,23189.2,102.6,3.3,177.3,7.7,-15654.0,22.0,6670.4,40065.0,7.6,6.5,1.6,-3.4,10.6,29.5,36.7,72.6,72.12,95.57,-9.4,-17.7,8.0,1817.9,-69.0,112.04,167.69,
2007_MT,4.9,8445.5,146.7,0.6,2463.0,6.7,1234.6,19.6,448.0,141806.5,1.2,1.3,2.7,-0.7,13.5,7.8,44.0,58.8,,,-3.1,-5.6,62.3,3584.6,21.4,,99.01,
2007_NL,1.9,1411639.0,228.0,0.1,1074.5,5.0,-92075.0,2.8,88495.0,6653108.0,-2.1,0.2,1.5,0.0,9.4,14.3,14.4,76.7,,-2.48,-2.0,7.7,43.0,266215.0,-14.9,,126.61,
2007_PL,3.2,645852.0,54.4,-0.8,136.8,13.8,-584533.0,45.4,148020.0,1625229.0,16.3,3.1,4.9,-5.4,21.6,12.5,18.4,63.2,,55.69,-18.0,-4.3,44.2,524400.0,-49.2,,133.91,
2007_PT,5.1,324671.9,185.0,1.2,446.6,8.9,-155813.0,-1.9,31899.3,783594.3,0.6,1.0,3.8,0.8,21.4,18.2,10.2,73.9,5.77,-3.26,1.7,-10.1,68.4,120088.5,-88.8,-6.76,112.38,
2007_RO,29.6,241639.5,56.8,0.0,98.3,6.9,-196051.0,,84879.0,418491.8,36.0,8.3,3.2,-1.6,19.3,19.9,35.3,63.0,25.87,84.17,-1.2,-10.9,12.0,50954.4,-46.1,131.22,,
2007_SE,4.9,5543728.0,167.9,1.9,433.5,7.0,39226.0,10.9,666917.0,14309023.0,-4.1,0.9,0.8,-0.5,19.2,20.2,9.5,79.1,8.96,1.35,-1.2,7.5,39.2,1294142.0,1.2,-0.7,73.75,
2007_SI,5.4,33865.0,96.3,1.5,194.1,5.8,-8950.0,18.7,7547.0,68240.0,-1.2,1.3,2.2,-1.1,10.1,21.5,28.6,71.3,10.45,23.63,-6.0,-2.6,22.8,8025.1,-25.5,26.89,137.17,
2007_SK,5.7,38080.4,60.4,-1.4,139.3,13.7,-31717.9,25.7,6068.4,87819.9,18.0,9.7,8.3,-3.5,20.6,9.6,25.7,68.3,,67.57,-12.8,-8.7,30.1,18979.8,-56.4,,112.39,
2007_UK,9.5,2817685.0,182.8,0.2,1045.2,5.2,-120697.0,7.8,281792.0,16111131.0,-0.4,1.6,1.3,0.3,14.3,18.3,17.1,75.5,7.55,-14.71,2.3,-2.9,41.7,643457.0,-7.8,-25.76,111.02,
2008_AT,6.3,372198.9,126.7,2.5,536.4,4.8,-29364.0,-1.1,15895.6,1575738.2,-0.1,0.3,1.0,-0.4,8.5,5.4,10.9,73.9,-6.11,-4.46,-2.5,3.9,68.7,201809.9,-10.0,-3.75,79.34,
2008_BE,8.9,575941.6,162.7,0.4,620.7,7.6,183527.0,1.1,58544.9,2197637.9,3.4,2.8,3.3,-1.1,18.0,16.5,-4.4,67.1,-1.93,-10.98,-3.5,1.0,92.5,327620.2,51.8,-13.43,97.22,
2008_BG,25.5,95637.0,131.4,5.7,170.0,7.2,-68316.5,17.6,24201.0,123667.0,18.5,8.7,2.9,-3.1,11.9,33.3,-0.8,67.8,49.41,35.08,-9.1,-21.0,13.0,9480.8,-93.9,29.4,161.19,
2008_CY,5.8,54165.5,285.0,1.2,1488.5,4.1,-15041.0,0.9,5665.9,282906.5,2.3,3.2,0.5,-0.8,9.0,29.8,115.6,73.6,,-25.32,-4.9,-11.8,45.6,8658.6,-79.1,,134.77,
2008_CZ,6.8,2568878.0,63.8,-0.7,153.0,5.6,-1533853.0,7.7,375602.0,6157737.0,23.1,15.0,2.2,-2.0,9.9,9.3,6.0,69.7,-0.29,53.06,-9.4,-3.0,28.3,1136819.0,-38.1,70.33,107.81,
2008_DE,-0.1,2809501.0,109.7,2.1,531.0,8.7,464769.0,-0.3,12233.0,13603537.0,0.9,0.6,3.9,-2.0,10.4,0.5,4.6,75.9,-1.72,-4.62,-5.0,6.1,65.2,1669035.0,18.1,-5.17,88.78,
2008_DK,13.2,4004187.0,222.3,0.9,679.2,3.7,-91925.0,-7.9,338717.0,12236022.0,2.2,2.2,0.5,-0.6,8.0,18.8,0.0,80.7,,-4.08,-0.6,2.6,33.3,600127.0,-5.1,,110.83,
2008_EE,48.7,22571.2,136.7,3.5,202.0,5.3,-12457.0,-16.5,1730.6,33370.9,12.6,6.6,1.7,-2.7,12.0,10.5,4.3,74.2,16.17,36.98,-3.1,-12.9,4.5,741.1,-75.4,52.21,113.42,
2008_EL,7.4,273557.6,113.0,0.3,227.1,8.4,-183322.0,-2.5,37569.2,549507.5,2.4,1.6,3.7,-1.5,21.9,15.5,4.4,66.7,-0.56,4.83,-3.9,-13.9,109.4,264775.0,-75.8,15.85,168.28,
2008_ES,13.7,2186891.0,195.9,2.7,424.8,9.3,-895684.0,-4.8,130903.0,4741430.0,5.2,2.5,2.0,-0.2,24.5,11.7,4.0,72.7,-13.99,-14.29,4.9,-9.3,39.5,440621.0,-80.2,-14.29,157.02,
2008_FI,7.5,257005.0,132.7,1.3,270.3,7.0,-8909.9,-2.4,32446.0,523685.0,-0.4,1.6,1.2,-0.9,16.5,16.7,16.8,76.0,-8.82,-4.39,-3.6,3.2,32.7,63254.0,-4.6,-3.36,99.61,
2008_FR,6.3,2439214.0,122.4,0.2,555.4,8.1,-275214.0,-1.9,195357.0,11065312.0,1.5,1.6,2.9,-0.8,19.0,9.8,2.1,69.4,-13.42,-18.47,-2.0,-0.2,68.8,1370326.0,-13.8,-20.19,105.64,
2008_HR,9.9,385143.1,110.8,2.5,162.7,10.0,-256648.0,-2.6,55917.9,565861.2,5.6,4.0,5.3,-2.1,23.6,16.1,-8.1,65.8,-16.01,-5.73,-8.1,-7.6,39.0,135623.3,-73.8,13.84,138.7,
2008_HU,11.4,28561583.0,105.0,-0.1,330.0,7.6,-27667061.0,-3.2,3414277.0,89730583.0,7.9,2.5,3.6,0.4,19.5,12.6,26.1,61.2,-5.65,25.29,0.1,-7.0,71.6,19465604.0,-101.7,33.83,123.34,
2008_IE,17.7,443910.0,236.4,0.9,1788.8,5.5,-178967.5,-8.4,41265.0,3358865.0,7.3,3.6,1.7,0.3,13.5,22.0,6.5,74.8,1.46,-16.72,4.8,-6.0,42.4,79621.0,-95.3,-25.19,147.1,
2008_IT,8.5,1858554.0,113.9,0.4,290.1,6.5,-353485.0,-0.5,107357.0,4735581.0,1.9,1.4,3.0,-0.7,21.2,6.6,-1.5,62.9,-24.79,-15.9,-2.9,-1.9,102.4,1671450.6,-21.7,-13.67,127.93,
2008_LT,28.8,25080.0,76.7,-0.3,114.7,5.3,-16977.5,-1.8,3398.9,37492.7,8.9,6.1,1.3,-3.1,13.3,10.4,4.6,68.4,,43.05,-2.5,-13.3,14.6,4762.1,-51.9,,147.45,
2008_LU,12.6,115416.6,302.7,0.2,13894.6,4.6,6220.0,0.2,-2134.0,5297824.1,3.4,2.0,1.6,0.4,17.3,-5.6,-6.9,66.8,23.48,15.73,2.7,9.1,14.9,5684.6,16.3,-0.78,83.06,
2008_LV,78.3,25439.2,104.5,5.1,179.3,6.9,-18083.0,-10.9,2223.0,43669.8,20.7,10.2,1.9,-2.6,13.6,9.1,9.0,74.2,51.99,76.76,-1.5,-17.9,18.2,4426.8,-74.2,96.47,149.47,
2008_MT,9.5,9398.1,153.3,1.5,2619.6,6.4,256.7,7.1,823.6,160550.1,5.9,3.8,2.6,-0.8,11.7,13.4,13.2,59.1,,10.93,-4.4,-3.7,62.6,3837.0,4.2,,106.01,
2008_NL,5.7,1492922.0,230.7,2.7,1074.0,4.3,-51505.0,0.1,77493.0,6950710.0,-0.1,0.6,1.2,-1.1,8.6,12.0,4.5,77.8,,-6.08,-3.2,7.0,54.7,354022.0,-8.0,,126.75,
2008_PL,10.5,865156.0,67.3,-0.6,134.9,10.2,-714757.0,-4.6,181378.0,1735191.0,13.9,8.8,2.4,-7.9,17.2,14.1,6.8,63.8,,51.37,-19.7,-5.7,46.3,595380.0,-55.6,,127.7,
2008_PT,4.5,350983.0,196.2,0.7,457.6,8.9,-170164.0,0.9,28450.3,818444.7,2.1,0.6,3.6,-0.1,21.6,15.9,4.4,73.9,1.64,-11.14,0.8,-10.8,71.7,128191.4,-95.1,-15.91,113.43,
2008_RO,33.1,343676.4,63.7,0.6,88.4,6.4,-275337.0,,68591.9,476992.4,9.4,-5.4,2.4,-1.6,17.6,12.7,14.0,62.9,28.15,91.92,-1.5,-11.8,12.4,66814.7,-51.0,142.26,211.79,
2008_SE,9.8,6415153.0,189.1,1.1,472.6,6.5,-268691.0,-2.0,640720.0,16028473.0,-2.2,-2.5,0.8,-0.3,20.2,18.9,12.0,79.3,8.65,-6.84,-2.4,8.1,37.7,1279954.0,-7.9,-10.7,72.27,
2008_SI,10.6,40073.0,105.6,1.1,191.7,5.1,-14935.0,1.4,5900.0,72748.0,2.2,1.6,1.9,-1.2,10.4,15.5,6.6,71.8,19.19,16.33,-5.5,-3.8,21.8,8274.5,-39.4,15.62,139.04,
2008_SK,6.0,44418.6,64.9,-0.1,141.7,11.4,-38346.1,12.9,7478.8,97052.4,25.0,8.5,6.6,-5.1,19.3,10.9,10.5,68.8,,31.89,-11.1,-7.3,28.5,19493.7,-58.1,,126.84,
2008_UK,10.0,2995955.0,189.6,0.4,1496.0,5.4,153392.0,-8.2,202249.0,23634014.0,-11.5,-13.1,1.4,0.4,15.0,12.8,46.7,75.8,-12.19,-22.48,2.2,-3.6,49.7,784963.0,9.7,-27.99,101.9,
2009_AT,10.2,380015.9,131.9,1.9,536.0,4.8,-14497.0,3.6,3707.6,1543904.0,2.0,1.1,1.2,-0.3,10.7,1.3,-2.0,74.3,-6.84,-6.08,0.9,3.6,79.9,230014.6,-5.0,-6.93,82.2,
2009_BE,10.0,600003.0,172.0,0.4,632.1,7.5,200552.0,0.0,42214.8,2204691.0,4.0,0.5,3.5,-0.7,21.9,12.1,0.3,66.9,6.54,-9.02,1.4,0.0,99.5,347165.3,57.5,-14.01,97.19,
2009_BG,34.6,97662.0,133.8,2.7,171.6,6.4,-70984.7,-21.0,3410.0,125274.0,18.3,4.0,3.0,-2.0,15.1,4.7,1.3,67.2,31.8,19.01,-3.2,-18.1,13.7,9997.5,-97.3,10.83,127.34,
2009_CY,12.7,57145.5,306.0,0.0,1691.8,4.3,-18734.0,-6.9,2480.0,315923.9,3.6,1.0,0.6,-0.3,13.8,13.3,11.7,73.0,,-9.11,3.8,-11.7,54.3,10139.0,-100.3,,125.53,
2009_CZ,9.0,2589337.0,65.9,-0.2,160.6,5.5,-1725525.0,-4.7,18881.0,6312649.0,13.5,-3.8,2.0,-1.9,16.6,0.5,2.5,70.1,4.36,27.16,-0.9,-2.9,33.6,1319064.0,-43.9,33.44,102.76,
2009_DE,8.1,2780613.0,113.0,1.4,517.8,7.8,614308.0,1.3,-22023.0,12740353.0,2.9,1.1,3.5,-2.2,11.1,-0.9,-6.3,76.3,-3.39,-6.83,-2.5,6.1,72.6,1785684.4,25.0,-6.74,89.92,
2009_DK,16.4,3998847.0,232.2,-0.4,750.5,4.4,14648.0,-13.0,-32086.0,12924706.0,5.5,2.6,0.6,-0.2,11.8,-1.9,5.6,80.2,,-1.12,4.1,2.6,40.2,691988.0,0.9,,96.38,
2009_EE,39.2,21673.3,153.2,1.2,217.4,7.9,-11326.0,-37.1,-847.1,30755.9,13.6,2.0,3.7,0.8,27.4,-6.0,-7.8,74.0,-2.0,16.31,15.3,-7.1,7.0,995.6,-80.1,24.94,71.39,
2009_EL,15.8,276653.6,116.5,0.7,254.7,8.6,-207792.0,-4.7,5335.2,605067.1,4.8,2.4,3.9,-1.0,25.7,2.2,10.1,67.4,-26.56,-10.34,0.7,-14.2,126.7,301062.0,-87.5,8.53,160.4,
2009_ES,11.8,2175461.0,201.6,2.0,456.1,12.5,-1009225.0,-5.8,-13053.0,4921918.0,4.6,0.4,4.3,2.5,37.7,-1.2,3.8,73.1,-13.56,-8.97,19.8,-7.7,52.8,569535.0,-93.5,-8.72,147.92,
2009_FI,15.2,258486.0,142.8,-0.2,311.7,7.2,5723.5,-0.4,1507.0,564326.0,5.0,3.2,1.4,-0.5,21.5,0.8,7.8,75.0,-20.74,-13.31,2.8,2.5,41.7,75482.0,3.2,-11.2,99.22,
2009_FR,8.0,2529293.0,130.6,0.6,568.0,8.2,-287289.0,-4.7,62979.0,10998887.0,2.6,0.4,3.3,-0.5,23.6,3.3,-0.6,69.8,-9.54,-13.62,1.6,-0.4,83.0,1607983.0,-14.8,-16.2,100.67,
2009_HR,15.8,394071.1,118.9,2.6,178.4,9.3,-287671.0,-8.0,8647.2,591108.9,5.9,1.4,5.1,-1.6,25.4,2.6,4.5,65.6,-17.78,-5.18,-3.5,-7.2,48.3,160043.1,-86.8,2.79,127.63,
2009_HU,12.6,30785897.0,116.5,-0.8,346.0,8.4,-30386181.0,-8.9,1602479.0,91421972.0,7.7,-5.3,4.2,0.8,26.4,6.1,1.9,61.2,4.57,12.87,7.3,-4.9,77.8,20569410.0,-115.0,15.35,112.35,
2009_IE,8.7,435608.0,256.1,-1.9,2041.0,8.1,-196732.2,-13.6,-7734.0,3471735.0,5.2,-1.5,3.5,2.1,24.5,-4.5,3.4,73.0,8.5,1.85,15.7,-5.8,61.5,104685.5,-115.7,-4.58,127.06,
2009_IT,11.1,1926934.0,122.5,-0.3,316.4,6.8,-350862.0,-0.2,13312.0,4976946.0,3.6,1.3,3.4,0.1,25.3,0.8,5.1,62.3,-28.38,-17.88,3.5,-2.0,112.5,1770229.8,-22.3,-14.86,127.71,
2009_LT,13.0,22447.4,83.3,2.0,133.2,8.0,-15818.9,-32.8,-2521.3,35877.1,16.7,6.8,3.3,0.7,29.6,-9.4,-4.3,69.6,-4.39,30.83,19.6,-9.2,28.0,7528.5,-58.7,43.39,99.04,
2009_LU,17.6,122821.4,332.2,2.0,15296.9,4.7,-10693.0,-0.6,2725.2,5656241.1,3.8,0.9,1.2,-0.2,16.5,7.4,6.8,68.7,7.32,11.85,1.0,8.2,15.7,5815.7,-28.9,-4.46,82.54,
2009_LV,37.2,23611.0,125.4,2.5,210.7,10.4,-15507.0,-34.9,-1622.9,39659.1,23.5,5.1,4.5,2.1,33.3,-8.6,-9.2,73.5,40.67,52.57,19.7,-8.4,36.3,6830.3,-82.7,54.6,97.35,
2009_MT,11.2,10319.0,168.1,1.5,2729.1,6.5,774.8,-6.1,778.1,167530.7,5.9,0.7,2.9,0.2,14.5,12.7,4.3,59.4,80.92,45.77,-1.0,-4.6,67.6,4152.7,12.6,-24.06,99.52,
2009_NL,11.3,1534523.0,245.6,2.7,1192.5,4.1,8865.0,-3.0,60891.0,7451022.0,2.7,1.9,1.1,-1.0,10.2,9.7,7.2,78.1,-9.65,-5.39,0.2,5.8,56.8,354795.0,1.4,-4.23,122.94,
2009_PL,12.3,920419.0,67.1,1.3,137.8,8.3,-786779.0,-5.4,59718.0,1890637.0,-4.1,-14.5,2.5,-5.3,20.6,4.4,9.0,64.7,33.72,34.41,-9.2,-5.7,49.4,678328.0,-57.3,35.24,120.85,
2009_PT,6.6,358244.0,204.2,-0.2,507.9,9.5,-189309.0,1.0,9310.5,891105.7,1.1,-0.6,4.2,0.3,25.3,5.3,8.9,73.4,-1.0,-8.1,4.1,-10.8,83.6,146691.3,-107.9,-12.85,114.56,
2009_RO,24.6,367188.6,69.2,-0.5,104.2,6.2,-316329.0,-26.5,-8581.6,553326.4,-4.9,-7.2,2.2,-1.9,20.0,-1.6,16.0,63.1,-5.98,69.37,-0.2,-9.9,21.9,116225.3,-59.6,122.92,155.57,
2009_SE,15.9,6635086.0,201.6,0.1,503.7,6.9,-237940.0,0.8,193631.0,16582888.0,-8.5,-7.1,1.1,0.1,25.0,5.9,3.5,78.9,-4.26,-15.89,3.5,7.3,41.3,1361160.0,-7.2,-19.62,72.84,
2009_SI,18.5,41057.0,113.5,0.9,216.6,5.1,-14712.1,-10.2,1043.0,78338.0,5.2,2.3,1.8,-1.1,13.6,2.9,7.7,71.8,9.43,9.88,-0.3,-3.5,34.6,12527.1,-40.7,10.13,124.8,
2009_SK,10.9,44319.3,69.2,-0.2,144.5,11.0,-42555.0,-12.7,1945.0,92500.3,27.1,6.8,6.5,-3.7,27.6,3.0,-4.7,68.4,-26.81,9.5,0.6,-5.3,36.3,23236.8,-66.5,17.69,110.67,
2009_UK,11.0,2934961.0,190.9,0.0,1276.2,6.2,-241799.0,-9.7,-60486.0,19617738.0,-19.9,-9.3,1.9,0.7,19.1,-3.9,-17.0,75.7,-16.45,-19.55,5.2,-3.8,63.7,979797.0,-15.7,-24.95,92.01,
2010_AT,9.0,391499.1,132.3,0.9,511.9,4.7,-15288.0,4.4,924.2,1514665.3,-2.0,-3.4,1.2,-0.1,9.5,0.3,-1.9,74.4,-15.68,-12.62,0.1,3.3,82.7,244696.8,-5.2,-11.87,85.81,
2010_BE,7.3,617703.3,169.2,0.6,593.9,7.7,238021.0,1.4,6132.1,2168326.6,0.5,-2.6,4.0,0.2,22.4,1.7,-1.6,67.7,10.19,-11.41,3.6,-0.1,99.7,364078.1,65.2,-17.34,98.52,
2010_BG,29.5,99083.0,132.5,0.4,158.4,7.6,-68751.4,-12.3,2757.0,118468.0,9.7,-3.0,4.7,0.6,21.9,3.7,-5.4,66.7,-1.26,7.97,7.8,-10.7,15.3,11453.4,-91.9,11.05,111.73,
2010_CY,11.1,60900.5,315.6,-0.3,1774.7,5.1,-21456.0,-7.8,2911.8,342510.7,0.0,-4.1,1.3,0.6,16.6,15.1,8.4,73.6,,-15.78,6.4,-11.5,56.8,10953.7,-111.2,,115.68,
2010_CZ,6.4,2690158.0,67.9,0.3,164.4,6.1,-1822768.0,-2.2,103513.0,6516094.0,12.1,1.3,3.0,0.2,18.3,2.6,3.2,70.2,13.04,11.7,7.6,-2.6,37.4,1480165.0,-46.0,11.74,100.53,
2010_DE,7.5,2753156.0,106.7,1.1,488.6,7.3,661713.0,-0.9,450.0,12604990.0,-3.8,-5.3,3.3,-1.6,9.8,0.0,-1.1,76.7,-6.05,-8.11,-2.0,5.7,81.8,2110668.5,25.6,-8.24,89.07,
2010_DK,9.5,3995537.0,220.6,-0.7,783.0,5.6,232256.0,0.3,-52872.0,14179420.0,0.2,-4.4,1.5,0.9,13.9,-2.9,9.7,79.4,-6.99,-10.63,6.4,4.3,42.6,771235.0,12.8,-13.74,96.65,
2010_EE,13.8,20665.8,140.4,0.7,190.3,11.9,-10479.0,2.2,-1125.1,28010.3,4.6,-3.8,7.6,5.3,32.9,-7.6,-8.9,73.9,-9.85,9.36,22.8,-1.5,6.6,964.4,-71.2,19.97,72.95,
2010_EL,14.0,289539.7,128.1,1.3,290.3,10.0,-223693.0,-8.0,5323.3,656118.6,2.9,-1.2,5.7,1.5,33.0,2.4,8.4,67.8,-26.2,-14.27,10.3,-12.9,146.2,330570.0,-99.0,2.92,147.61,
2010_ES,5.7,2168273.0,200.6,1.7,446.4,16.4,-957338.0,-3.6,9911.0,4825306.0,-0.3,-3.2,7.3,5.6,41.5,0.9,-2.0,73.5,-18.73,-11.66,23.4,-5.8,60.1,650079.0,-88.6,-8.95,142.53,
2010_FI,13.2,278518.0,148.9,-1.1,361.7,7.7,30959.8,4.8,13630.0,676740.0,-1.3,-5.8,2.0,0.5,21.4,7.3,19.9,74.5,-24.19,-19.65,4.9,1.6,47.1,88160.0,16.5,-18.42,103.96,
2010_FR,7.4,2633056.0,132.0,0.5,570.8,8.6,-185244.0,3.6,91006.0,11388577.0,-2.2,-4.2,3.9,0.6,23.3,4.6,3.5,69.8,-11.71,-17.18,3.8,-0.6,85.3,1701122.0,-9.3,-19.6,104.29,
2010_HR,11.7,412036.6,125.2,-0.6,185.9,9.9,-309267.0,-7.7,16023.0,611994.7,1.8,-3.4,6.6,0.6,32.3,4.9,3.5,65.1,-23.99,-13.15,6.9,-5.2,57.3,188756.6,-94.0,-1.49,117.77,
2010_HU,7.0,31346252.0,115.1,0.3,335.0,9.7,-29472309.0,-5.9,-1104664.0,91213427.0,-1.3,1.6,5.5,2.0,26.4,-4.1,-0.2,61.9,1.66,3.35,8.3,-2.5,80.2,21847404.0,-108.3,3.85,105.71,
2010_IE,-4.8,431092.0,257.0,-4.0,2201.1,11.3,-190410.2,-11.7,3729.0,3691722.0,-5.4,-7.3,6.9,5.5,28.1,2.2,6.3,71.6,7.92,-6.27,18.9,-4.0,86.0,144229.9,-113.5,-14.81,112.25,
2010_IT,8.9,1978151.0,123.3,-0.4,323.1,7.6,-323755.0,-0.7,80432.0,5184784.0,-1.9,-4.6,4.0,1.1,27.9,5.0,4.2,62.0,-27.35,-19.01,7.5,-2.7,115.4,1851813.0,-20.2,-16.82,126.85,
2010_LT,0.3,20885.5,74.5,2.3,128.1,12.5,-15748.1,-8.6,-1659.1,35895.2,7.2,-5.4,7.4,6.0,35.7,-5.9,0.1,70.2,-1.23,18.98,27.3,-4.5,36.2,10150.4,-56.2,24.69,90.54,
2010_LU,16.0,114173.3,284.2,1.3,15921.4,4.9,-8200.0,4.2,-9045.5,6396879.5,1.2,-1.7,1.3,0.1,15.8,-22.5,13.1,68.2,2.27,3.23,0.2,7.1,19.8,7951.0,-20.4,-4.62,85.99,
2010_LV,-2.2,24038.7,134.0,0.4,220.4,14.9,-14747.0,-8.7,451.9,39536.4,6.7,-8.0,8.8,7.2,36.2,2.5,-0.3,73.0,8.28,21.65,25.6,-0.8,47.3,8493.1,-82.9,27.55,88.88,
2010_MT,9.2,10716.0,162.4,1.6,2853.6,6.6,800.2,-1.0,494.3,188323.8,-0.7,-5.0,3.1,0.4,13.2,7.5,12.4,60.4,60.45,37.83,-0.3,-5.7,67.5,4452.1,12.1,-8.57,98.53,
2010_NL,7.7,1561939.0,244.4,1.2,1228.4,4.4,70506.0,-3.3,17817.0,7851644.0,-1.5,-3.9,1.3,-0.2,11.1,2.8,5.4,77.9,-9.42,-8.15,1.7,5.8,59.3,378789.0,11.0,-7.85,118.89,
2010_PL,11.3,1007578.0,69.7,2.1,148.8,8.3,-940600.0,-6.0,61077.0,2150054.0,-1.3,6.1,3.0,-1.9,23.7,4.2,13.7,65.3,29.0,24.68,2.1,-5.3,53.1,767844.0,-65.1,23.93,113.56,
2010_PT,4.2,362473.1,201.5,-0.2,552.3,10.5,-187735.0,-1.0,9583.1,993723.8,-3.1,-3.1,5.7,1.9,28.2,5.3,11.5,73.7,-0.12,-6.93,6.8,-10.9,96.2,173062.5,-104.3,-10.35,113.37,
2010_RO,36.9,394383.6,74.7,1.9,110.0,6.4,-338476.0,-12.7,4628.6,581084.6,-10.9,1.5,2.4,-0.8,22.1,0.9,5.0,64.9,-29.01,53.31,2.8,-7.1,29.8,157410.4,-64.1,108.58,135.84,
2010_SE,8.3,6665110.0,189.1,0.0,483.2,7.7,-195903.0,6.4,186972.0,17027972.0,-3.3,6.7,1.6,0.8,24.8,5.3,2.7,79.1,-6.22,-12.77,5.6,6.6,38.6,1360305.0,-5.6,-14.83,77.51,
2010_SI,16.1,41743.0,115.1,0.2,208.8,5.9,-15664.8,-1.3,689.0,75678.0,1.2,-2.6,3.2,1.0,14.7,1.9,-3.4,71.5,1.05,-1.37,4.6,-2.4,38.4,13907.4,-43.2,-1.93,123.12,
2010_SK,9.5,45579.6,67.4,0.4,139.1,12.1,-41863.0,-4.9,1991.7,93992.1,11.0,-4.3,9.2,0.9,33.9,2.9,1.6,68.7,-33.66,3.83,13.3,-4.9,41.2,27842.3,-61.9,10.67,105.2,
2010_UK,8.7,2923060.0,184.1,-0.1,1326.5,7.0,-121337.0,4.0,-12718.0,21058516.0,-20.4,1.1,2.5,1.2,19.9,-0.8,7.3,75.4,-22.11,-23.64,5.6,-3.7,75.2,1194338.0,-7.6,-25.76,95.66,
2011_AT,5.8,401390.3,129.4,0.7,495.6,4.9,-5936.0,3.0,9182.0,1537010.7,-1.8,0.5,1.2,0.2,8.9,3.0,1.5,74.6,-14.66,-12.46,0.4,2.4,82.4,255683.8,-1.9,-11.83,88.41,0
2011_BE,5.3,687974.2,181.5,-0.4,602.9,7.8,230869.0,1.0,82136.7,2285631.7,-1.5,0.6,3.5,0.2,18.7,21.7,5.4,66.7,11.0,-7.63,0.7,-0.1,102.6,388934.9,60.9,-12.43,99.49,2
2011_BG,17.7,100314.0,124.2,-1.9,154.7,9.5,-66836.9,-8.7,1108.0,124924.0,1.9,1.0,6.3,3.4,25.0,1.4,5.4,65.9,,11.28,13.1,-3.2,15.2,12290.7,-82.8,,102.02,2
2011_CY,9.6,63457.8,321.6,-0.1,1629.9,6.5,-25627.0,-4.3,2557.3,321597.2,-3.0,0.2,1.6,1.1,22.4,13.0,-6.1,73.5,,-11.42,13.4,-7.7,66.2,13057.9,-129.9,,110.65,2
2011_CZ,3.4,2756980.0,68.3,0.8,168.4,6.9,-1822751.0,-1.7,83417.0,6794617.0,-0.5,2.0,2.7,0.5,18.1,2.1,4.3,70.5,5.57,7.43,8.2,-2.6,39.8,1606492.0,-45.2,7.88,98.86,0
2011_DE,5.7,2771693.0,102.5,1.4,479.8,6.8,627095.0,1.4,42263.0,12968900.0,-4.9,-0.6,2.8,-1.1,8.5,1.6,2.9,77.3,-8.72,-9.31,-1.9,5.9,79.4,2147549.3,23.2,-9.32,90.32,0
2011_DK,3.6,4081505.0,221.0,-1.4,780.2,7.0,512523.0,-4.0,82069.0,14409675.0,-2.5,-0.6,1.8,1.3,14.2,4.4,1.6,79.3,-16.55,-13.74,6.2,5.5,46.1,850862.0,27.8,-12.54,92.83,2
2011_EE,-2.6,20073.4,120.4,0.5,167.8,14.2,-9127.0,2.6,-180.6,27965.7,-0.8,1.1,7.1,5.4,22.4,-1.1,-0.2,74.7,-3.19,24.3,10.4,1.9,6.1,1011.1,-54.8,39.04,74.86,0
2011_EL,6.8,269587.2,130.2,0.6,305.3,13.4,-183862.0,-7.5,-13429.3,631959.1,1.8,0.6,8.8,5.1,44.7,-6.5,-3.7,67.3,-26.63,-15.83,22.8,-11.2,172.1,356235.0,-88.8,0.0,136.51,4
2011_ES,-1.0,2102416.0,196.4,1.2,459.8,19.7,-984142.0,-9.8,-40078.0,4921677.0,-2.5,0.3,8.9,6.9,46.2,-3.7,2.0,73.9,-16.81,-8.56,21.7,-3.8,69.5,744323.0,-91.9,-4.81,128.51,2
2011_FI,9.4,286195.0,145.4,-1.1,442.7,8.1,29724.3,0.0,6990.0,871477.0,-2.8,0.0,1.7,0.5,20.1,3.6,28.8,74.9,35.57,-23.46,3.6,0.3,48.5,95490.0,15.1,-32.0,103.94,2
2011_FR,5.4,2785447.0,135.3,0.3,591.7,9.2,-178415.0,4.0,131283.0,12179133.0,-4.4,-0.6,4.0,1.1,22.6,6.4,6.9,69.7,-6.25,-15.41,3.6,-0.7,87.8,1807957.0,-8.7,-18.85,108.42,2
2011_HR,6.3,409278.1,122.7,-1.7,187.2,11.6,-305007.0,-2.1,-7765.7,624070.2,-4.7,-2.7,8.4,3.1,36.6,-2.3,2.0,64.1,-22.61,-16.04,13.0,-2.4,63.9,212974.0,-91.5,-9.09,115.27,
2011_HU,4.3,32414710.0,114.5,1.2,342.3,10.7,-29926540.0,-6.9,-1250061.0,96883194.0,-4.2,-0.5,5.2,1.6,26.0,-4.4,6.2,62.4,8.25,-2.38,6.5,0.1,80.5,22780457.0,-105.7,-4.4,98.42,2
2011_IE,-13.7,468846.0,274.5,-3.6,2107.9,14.2,-237975.9,-17.8,28108.0,3607447.0,-9.6,-1.0,8.8,7.1,29.6,16.5,-2.3,71.2,5.82,-10.25,16.1,-2.5,110.9,189726.8,-139.1,-19.99,92.29,4
2011_IT,5.3,2009627.0,122.7,-0.8,332.9,8.2,-298999.0,-1.5,51187.0,5450460.0,-3.2,0.1,4.3,1.3,29.2,3.1,5.1,62.1,-29.05,-19.27,8.0,-2.8,116.5,1907996.3,-18.3,-16.79,124.95,2
2011_LT,-7.8,20219.8,64.7,3.0,117.0,15.7,-16486.1,2.4,-686.5,36598.5,1.7,0.6,8.0,6.7,32.6,-2.2,2.0,71.4,1.83,29.55,19.3,-1.5,37.2,11629.2,-52.7,37.24,92.74,0
2011_LU,8.8,122696.2,284.3,1.1,16439.0,4.8,12477.0,0.7,9233.7,7095835.3,0.1,0.8,1.4,-0.2,16.4,21.4,10.9,67.9,-4.52,-3.78,-0.9,6.6,18.7,8074.5,28.9,-5.78,86.55,0
2011_LV,-21.0,23411.0,115.3,-1.4,186.7,17.7,-15036.0,4.1,-412.6,37903.6,-2.4,0.8,8.8,6.9,31.0,-2.0,-4.1,72.8,4.78,26.58,17.4,2.2,43.1,8754.4,-74.4,37.98,92.52,0
2011_MT,11.1,10926.9,159.9,2.7,3055.8,6.7,428.4,-3.5,368.8,209016.7,-5.0,-0.7,3.0,0.4,13.3,5.4,11.0,61.8,41.91,17.67,1.6,-5.6,70.2,4796.6,6.3,-22.6,95.13,0
2011_NL,5.3,1607956.0,247.2,0.3,1331.8,4.8,130891.0,-4.0,53398.0,8661486.0,-2.4,-0.3,1.6,0.4,10.0,8.2,10.3,78.1,-5.95,-8.31,1.4,7.0,61.7,401269.0,20.1,-8.87,114.1,0
2011_PL,4.2,1158155.0,73.9,1.9,143.7,9.2,-977907.0,-4.6,103793.0,2251923.0,-11.4,-2.3,3.6,1.2,25.8,6.6,4.7,65.7,19.26,15.18,8.6,-4.8,54.1,847708.0,-62.4,14.37,108.3,0
2011_PT,-0.6,359605.9,204.1,-0.3,538.6,11.9,-177446.0,-6.4,-1629.7,948903.5,-3.0,0.7,6.2,2.6,30.2,-0.9,-4.5,73.6,-3.71,-8.6,8.6,-8.9,111.4,196231.4,-100.7,-10.92,106.12,4
2011_RO,2.2,411897.8,73.7,1.2,108.6,6.9,-369585.0,-15.6,15605.6,607584.9,-3.2,2.9,2.9,0.5,23.9,2.8,4.6,64.1,-35.14,49.98,6.3,-4.9,34.2,191035.3,-66.1,108.08,114.69,4
2011_SE,5.6,7005184.0,191.3,0.6,478.0,8.2,-310017.0,0.8,251521.0,17500967.0,3.2,4.1,1.5,0.7,22.8,6.9,2.8,79.9,-1.21,-12.17,2.6,5.8,37.8,1384883.0,-8.5,-15.34,78.14,2
2011_SI,8.3,41691.0,113.0,-1.5,202.6,7.1,-14736.5,0.9,152.0,74747.0,-1.1,-0.7,3.6,1.7,15.7,0.4,-1.2,70.3,0.1,-5.59,5.3,-0.9,46.6,17203.6,-39.9,-6.81,124.24,2
2011_SK,6.1,49593.2,70.2,-0.1,133.5,13.4,-45512.3,-5.2,2111.5,94316.6,3.4,1.1,9.2,2.6,33.7,3.0,0.3,68.7,-35.2,-2.74,14.4,-4.4,43.7,30846.9,-64.4,2.3,99.72,0
2011_UK,6.7,2934711.0,178.5,-0.3,1414.1,7.8,-186523.0,-5.0,26538.0,23256276.0,-7.8,0.5,2.7,1.3,21.3,1.6,10.4,75.5,-23.45,-25.7,6.3,-3.0,80.8,1328779.0,-11.3,-27.51,90.84,2
2012_AT,3.8,408450.0,128.2,0.8,484.3,4.8,-10154.0,4.8,3781.5,1543115.1,-4.7,-1.8,1.2,0.0,9.4,1.2,0.4,75.1,-17.45,-21.7,-1.3,2.0,81.9,261040.8,-3.2,-22.96,92.67,0
2012_BE,5.4,733416.9,189.3,0.0,559.8,7.7,200554.0,0.3,51332.6,2169220.9,-4.3,-2.3,3.4,-0.1,19.8,13.2,-5.1,66.9,7.48,-15.53,-2.1,0.2,104.3,404289.4,51.8,-21.45,99.74,2
2012_BG,12.2,102533.0,125.0,-0.1,167.8,11.3,-63898.6,-5.3,2468.0,137672.0,-4.0,-2.1,6.8,3.8,28.1,3.0,10.2,67.1,-29.74,-0.99,13.0,-0.7,16.7,13700.3,-77.9,13.29,96.62,2
2012_CY,2.9,63941.3,328.1,0.5,1755.4,8.7,-25156.0,-5.2,3220.5,342130.1,-5.9,-2.1,3.6,3.0,27.7,16.5,6.4,73.5,,-21.67,13.9,-7.1,80.1,15618.4,-129.1,,104.87,4
2012_CZ,3.8,2869270.0,70.7,1.5,176.1,7.0,-1864093.0,-3.6,118076.0,7147743.0,0.5,-2.8,3.0,1.0,19.5,2.9,5.2,71.6,-0.31,-4.45,2.9,-2.4,44.5,1805429.0,-45.9,-5.34,95.33,0
2012_DE,2.7,2806950.0,101.8,0.9,485.7,6.1,787230.0,2.0,35005.0,13398237.0,-9.0,-3.3,2.4,-1.1,8.0,1.3,3.3,77.2,-7.02,-16.73,-3.1,6.3,80.7,2225203.8,28.5,-18.49,92.1,0
2012_DK,-0.2,4244903.0,224.0,-1.6,779.7,7.5,684239.0,-4.9,150302.0,14775965.0,-7.8,-2.9,2.1,1.5,14.1,7.9,2.5,78.6,-17.0,-17.7,2.3,6.5,44.9,850746.0,36.1,-17.41,88.3,2
2012_EE,0.0,21135.3,117.8,0.8,172.3,13.0,-9170.1,3.2,1227.7,30896.6,-3.6,-0.9,5.5,1.8,20.9,6.8,10.5,74.8,-0.7,6.79,-6.5,0.4,9.7,1745.5,-51.1,11.07,77.23,0
2012_EL,-2.3,251431.1,131.5,0.1,322.5,18.4,-221569.0,-12.1,-11186.9,616701.1,-5.0,-4.5,14.5,10.6,55.3,-5.9,-2.4,67.5,-36.09,-25.26,29.6,-8.4,159.6,305085.0,-115.9,-6.99,120.03,4
2012_ES,-5.1,1955123.0,188.0,1.2,474.8,22.0,-934535.0,-16.8,-116938.0,4936620.0,-5.3,-2.4,11.0,6.7,52.9,-11.2,0.3,74.3,-20.43,-18.22,15.2,-2.4,85.7,891502.0,-89.9,-16.84,106.97,3
2012_FI,6.0,296886.0,148.6,0.2,430.3,8.0,23406.2,-0.5,14266.0,859641.0,-8.3,-2.6,1.6,0.2,19.0,7.1,-1.4,75.2,36.81,-31.67,-2.5,-1.0,53.9,107708.0,11.7,-41.26,103.45,2
2012_FR,4.1,2889072.0,138.3,0.5,591.4,9.4,-267763.0,-2.0,88584.0,12353518.0,-7.8,-3.2,4.1,0.8,24.4,4.2,1.4,70.3,-6.42,-18.28,0.8,-0.8,90.6,1892540.0,-12.8,-22.33,106.3,2
2012_HR,-1.5,397084.5,120.0,-1.7,191.0,13.8,-299896.0,-4.6,-9993.2,631807.9,-8.4,-2.5,10.2,5.1,42.2,-3.0,1.2,63.9,-25.97,-24.06,16.8,-0.7,69.5,229879.4,-90.7,-19.98,109.92,
2012_HU,5.0,29288794.0,101.8,2.5,317.0,11.1,-26953287.0,-9.3,-1755701.0,91222943.0,-0.8,-1.9,5.0,0.8,28.2,-6.1,-5.8,63.7,-5.8,-21.31,1.8,0.9,78.4,22556631.0,-93.6,-24.3,89.24,2
2012_IE,-9.9,489941.0,279.8,-1.9,2021.9,15.2,-241241.0,-14.8,-1027.0,3542735.0,-12.2,-4.4,9.2,5.7,30.8,-0.6,-1.8,71.1,-0.67,-18.32,6.3,-2.1,119.9,210022.3,-137.7,-27.86,78.63,4
2012_IT,2.1,2018718.0,125.1,1.2,362.4,9.2,-358220.0,-5.1,-13396.0,5846061.0,-6.2,-1.9,5.6,2.2,35.3,-0.8,7.3,63.5,-27.55,-25.63,10.0,-2.2,123.4,1990140.4,-22.2,-25.21,118.6,2
2012_LT,-4.2,20367.4,61.1,2.2,108.9,15.5,-17878.2,-3.2,124.8,36328.4,-6.7,-2.0,6.6,3.3,26.7,0.4,-0.7,71.8,13.01,32.33,-2.9,-2.4,39.8,13264.1,-53.6,37.39,89.74,0
2012_LU,5.9,133971.4,303.7,0.7,18530.4,4.8,22472.0,2.1,11408.6,8174150.8,-2.4,-1.6,1.6,0.4,18.0,25.9,15.2,69.4,-5.59,-6.2,1.5,6.1,22.0,9699.7,50.9,-1.29,88.35,0
2012_LV,-6.9,21428.8,97.9,0.9,182.2,16.9,-14834.0,-0.4,-454.5,39875.6,-8.6,-1.5,7.8,3.3,28.5,-2.1,5.2,74.4,-13.65,7.94,-4.8,-1.6,41.6,9111.6,-67.2,20.5,92.19,0
2012_MT,8.6,10981.4,153.2,4.5,3092.9,6.5,1404.6,0.4,-47.9,221699.1,-7.6,-2.0,3.0,0.1,13.8,-0.7,6.1,63.9,30.81,12.21,-0.7,-2.9,67.7,4855.1,19.6,-15.99,95.5,2
2012_NL,2.6,1646204.0,252.1,0.9,1405.6,5.3,174288.0,-7.9,40136.0,9177810.0,-6.0,-1.8,1.9,0.8,11.7,6.1,6.0,79.0,-8.98,-12.8,1.5,8.6,66.2,432428.0,26.7,-13.71,105.12,2
2012_PL,5.3,1196643.0,73.4,1.8,153.0,9.8,-1064732.0,-6.6,77865.0,2492477.0,1.4,-2.2,4.1,1.6,26.5,4.8,10.7,66.5,0.68,1.42,5.9,-4.8,53.7,875260.0,-65.3,1.54,101.1,0
2012_PT,-6.3,354222.3,210.3,0.0,546.8,13.6,-196233.0,-8.8,-6528.8,920876.4,-4.0,-1.6,7.7,3.5,38.0,-3.9,-3.0,73.4,-13.46,-16.62,12.7,-6.0,126.2,212556.0,-116.5,-17.6,96.81,4
2012_RO,6.8,427985.1,72.1,1.7,106.8,7.0,-401364.0,-9.1,1792.4,634292.4,-2.0,-6.1,3.0,0.8,22.6,0.3,4.4,64.8,-24.84,12.33,2.6,-5.0,37.0,219761.5,-67.6,28.56,104.31,4
2012_SE,4.0,7121403.0,193.1,1.4,500.3,8.1,-580404.0,0.7,91402.0,18456564.0,10.3,-0.7,1.5,0.4,23.7,2.5,5.5,80.3,-6.06,-19.49,-1.3,5.7,38.1,1403632.0,-15.7,-23.27,78.66,2
2012_SI,0.6,40512.0,112.3,-1.4,205.7,8.1,-15958.3,-8.4,-1041.0,74212.0,-4.5,-1.2,4.3,2.5,20.6,-2.9,-0.7,70.4,-10.54,-20.83,7.0,-0.1,53.8,19404.0,-44.2,-23.05,113.8,3
2012_SK,0.8,52204.5,71.8,1.0,130.7,14.1,-44671.1,-6.0,2236.3,95021.6,-3.2,0.0,9.4,2.9,34.0,3.1,0.7,69.4,-30.32,-10.27,6.4,-2.9,52.2,37925.7,-61.4,-7.86,93.78,0
2012_UK,3.0,3023073.0,178.4,0.4,1324.0,7.9,-482037.0,-1.7,28975.0,22434412.0,6.0,4.4,2.7,0.8,21.2,1.7,-3.5,76.1,-21.4,-20.95,2.1,-3.0,84.1,1424798.0,-28.4,-19.75,89.29,2
2013_AT,6.4,411587.2,127.1,1.1,461.1,5.0,4189.0,3.0,3120.0,1493546.2,0.7,2.1,1.3,0.1,9.7,1.0,-3.2,75.5,-16.29,-18.44,0.2,1.7,81.3,263229.5,1.3,-19.48,95.44,0
2013_BE,8.3,663715.7,169.2,-0.2,557.8,7.7,203800.0,0.4,32127.4,2188507.7,-0.2,1.5,3.9,-0.1,23.7,8.2,0.9,67.5,-4.53,-13.06,1.3,-0.5,105.5,413730.2,51.9,-15.91,100.1,2
2013_BG,16.0,108339.0,132.3,1.7,175.3,12.2,-60244.7,0.4,5947.0,143539.0,-0.9,0.1,7.4,2.7,28.4,7.3,4.3,68.4,-33.86,-0.17,6.5,0.3,17.1,13978.1,-73.6,15.63,96.99,2
2013_CY,-2.6,61692.6,340.1,0.0,1598.0,11.9,-25167.0,-3.9,-2407.8,289887.7,-0.8,1.1,6.1,4.8,38.9,-13.3,-15.3,73.6,-18.92,-15.27,22.3,-5.0,103.1,18706.4,-138.7,-9.43,100.77,4
2013_CZ,4.2,3019209.0,73.7,2.7,194.3,6.9,-1695149.0,-0.8,179733.0,7963007.0,-3.1,-2.2,3.0,0.0,18.9,4.4,11.4,72.9,-17.34,-9.79,0.6,-1.4,44.9,1840412.0,-41.4,-8.19,94.56,0
2013_DE,5.9,2903443.0,102.7,0.9,444.5,5.5,974741.0,2.1,57116.0,12561910.0,-1.8,2.2,2.3,-1.0,7.8,2.0,-6.2,77.6,-7.51,-13.01,-2.0,6.6,78.2,2210738.9,34.5,-13.84,94.01,2
2013_DK,1.5,4170603.0,216.1,-1.3,779.4,7.4,718686.0,3.1,-58540.0,15040150.0,-2.5,1.0,1.8,0.3,13.0,-3.0,1.8,78.1,-21.25,-17.82,-0.9,6.9,44.0,849938.0,37.2,-16.37,91.0,1
2013_EE,9.1,21935.1,115.9,1.2,180.2,10.3,-9478.7,7.5,669.4,34121.1,3.1,2.9,3.8,-3.8,18.7,3.5,10.4,75.1,-4.66,9.68,-14.2,0.0,10.2,1923.7,-50.1,16.88,83.04,0
2013_EL,-10.0,235418.0,130.3,-0.3,281.3,23.3,-235606.0,-9.1,-8665.5,508214.0,-4.4,-0.6,18.5,12.8,58.3,-4.8,-17.6,67.5,-39.22,-25.7,25.3,-5.3,177.4,320498.0,-130.4,-6.4,109.06,4
2013_ES,-4.1,1817396.0,177.2,0.8,436.4,24.1,-976711.0,-10.0,-105621.0,4476135.0,-0.3,1.9,13.0,5.7,55.5,-10.3,-9.3,74.3,-21.5,-11.23,14.0,-0.6,95.5,979031.0,-95.2,-6.77,96.24,2
2013_FI,9.1,300393.0,147.7,0.7,373.8,7.9,7833.6,-1.2,5657.0,760129.0,0.2,2.9,1.7,-0.3,19.9,2.8,-11.6,75.2,-7.56,-31.44,-1.5,-2.1,56.5,114801.0,3.9,-36.86,102.19,2
2013_FR,4.6,2909122.0,137.4,0.9,586.3,9.8,-350487.0,-2.6,44167.0,12413707.0,-2.2,1.6,4.4,0.5,24.9,2.1,0.5,70.7,-4.8,-14.24,1.6,-0.8,93.4,1977734.0,-16.6,-18.25,103.54,2
2013_HR,-4.0,390627.9,117.7,-1.4,196.1,15.6,-293119.0,-5.8,-2038.4,650613.2,-3.9,1.2,11.0,4.4,49.9,-0.6,3.0,63.7,-31.18,-23.33,17.6,0.0,80.4,266752.8,-88.3,-14.63,103.59,3
2013_HU,6.2,28786841.0,95.2,2.8,297.6,10.7,-25145514.6,-4.3,-283508.0,90020693.0,-3.8,-1.4,4.9,-0.6,26.6,-0.9,-1.3,64.7,-9.73,-22.81,0.2,2.1,77.2,23345323.0,-83.1,-25.32,85.38,2
2013_IE,-0.7,481665.0,268.1,0.2,2007.4,14.9,-239757.0,-0.5,-2542.0,3611739.0,-3.8,1.6,8.0,1.1,26.7,-1.4,1.9,71.8,4.83,-10.59,-1.4,-1.2,119.7,215337.8,-133.3,-21.67,78.24,2
2013_IT,2.9,1951908.0,121.6,1.4,354.4,10.4,-363506.0,-7.5,-47669.0,5686570.0,0.1,1.9,6.9,2.9,40.0,-3.0,-2.7,63.4,-21.01,-20.2,12.1,-0.8,129.0,2070269.9,-22.7,-19.96,109.65,3
2013_LT,6.2,19693.3,56.3,2.2,102.5,13.5,-16448.5,0.2,-146.7,35824.4,-0.6,0.9,5.1,-2.3,21.9,-0.4,-1.4,72.4,15.75,19.27,-13.8,-1.7,38.8,13550.6,-47.1,20.16,89.93,0
2013_LU,7.6,145701.5,313.3,1.7,19395.8,5.3,25081.0,3.3,12935.4,9018954.4,0.8,1.6,1.8,0.5,16.9,27.8,10.3,69.9,8.02,7.4,1.1,5.7,23.7,11009.6,53.9,-1.64,91.26,1
2013_LV,8.1,21103.0,92.6,1.0,184.1,14.4,-15156.0,6.5,194.2,41956.1,-1.7,-1.0,5.7,-3.1,23.2,0.9,5.2,74.0,-21.12,5.87,-13.0,-3.2,39.4,8984.3,-66.4,21.49,98.21,0
2013_MT,9.8,10994.9,143.8,5.9,2946.2,6.2,2060.3,-1.4,209.1,225138.5,-1.2,1.5,2.8,-0.3,12.7,2.7,1.6,66.3,1.6,-0.64,-0.5,-0.8,68.4,5226.6,27.0,-12.81,94.14,1
2013_NL,4.8,1702342.0,257.7,1.5,1367.4,6.0,202572.0,-7.9,63992.0,9031495.0,0.5,2.7,2.5,1.2,13.2,9.7,-1.6,79.4,-11.21,-11.36,2.1,9.5,67.7,446944.0,30.7,-11.39,96.81,2
2013_PL,3.1,1249382.0,75.4,1.7,161.6,10.0,-1142247.0,-4.8,54108.0,2676757.0,-4.3,0.2,4.4,1.4,27.3,3.3,7.4,67.0,-4.66,-0.28,3.6,-3.4,55.7,922755.0,-68.9,0.81,96.29,0
2013_PT,-3.4,344546.1,202.4,-0.7,511.9,15.0,-197970.0,-2.7,-2644.1,871566.7,-0.6,0.3,9.3,3.6,38.1,-1.6,-5.4,73.0,-7.38,-7.47,9.9,-2.1,129.0,219714.8,-116.3,-7.99,94.22,4
2013_RO,-4.7,424457.4,66.8,0.0,100.6,7.0,-398917.0,-2.8,-9162.3,639179.4,0.5,4.0,3.2,0.8,23.7,-1.4,0.8,64.9,-10.75,13.74,1.6,-3.6,37.6,238882.3,-62.8,23.67,101.39,4
2013_SE,8.6,7372698.0,195.4,2.0,533.7,7.9,-605549.0,4.7,171241.0,20141197.0,5.1,1.7,1.4,-0.2,23.6,4.5,9.1,81.1,1.81,-17.21,-1.2,5.5,40.7,1535220.0,-16.0,-23.28,82.38,2
2013_SI,0.5,38860.0,107.2,-1.0,183.7,9.1,-14344.1,-7.2,-1454.0,66581.0,-0.6,1.4,5.2,2.0,21.6,-4.0,-10.3,70.5,-21.49,-18.22,6.9,1.3,70.4,25504.9,-39.6,-17.38,105.58,3
2013_SK,2.2,56999.6,76.9,1.2,130.3,14.0,-46212.1,-0.4,3807.9,96677.4,2.1,1.0,10.0,0.8,33.7,5.1,1.7,69.9,-20.39,-4.1,-0.2,-0.7,54.7,40600.0,-62.3,-1.58,93.4,0
2013_UK,3.3,3043409.0,172.8,1.0,1175.9,7.8,-317483.0,0.3,122455.0,20712536.0,3.4,-1.5,2.7,0.2,20.7,7.0,-7.7,76.4,-9.0,-11.96,0.8,-3.6,85.2,1499789.0,-18.0,-14.93,89.52,2
2014_AT,7.9,415800.6,124.8,0.8,444.7,5.3,11285.0,1.4,2938.7,1481380.6,1.9,1.7,1.5,0.3,10.3,0.9,-0.8,75.4,-12.89,-15.74,1.4,2.0,84.0,280001.0,3.4,-16.51,96.78,0
2014_BE,5.6,667416.0,166.8,1.0,565.0,8.2,180562.0,-1.1,-8216.5,2260373.4,-0.6,0.2,4.3,0.8,23.2,-2.1,3.3,67.7,-6.89,-13.41,4.5,-0.4,107.5,430185.6,45.1,-15.51,99.04,2
2014_BG,17.8,103395.0,123.4,3.1,181.0,12.2,-60544.8,1.5,-909.0,151616.0,-2.8,-0.8,6.9,0.6,23.8,-1.1,5.6,69.0,-25.51,5.59,-1.2,0.6,27.1,22723.6,-72.3,23.17,98.47,3
2014_CY,-8.0,62054.8,352.4,0.8,1586.2,14.6,-25885.0,-1.0,-57.7,279329.4,-1.7,-0.8,7.7,6.1,36.0,-0.3,-3.6,74.3,-20.24,-24.15,13.6,-5.1,108.0,19013.8,-147.0,-27.97,99.77,4
2014_CZ,4.0,3085841.0,71.5,3.0,194.1,6.7,-1577079.0,1.8,71558.0,8374722.0,-10.0,-5.2,2.7,0.0,15.9,1.7,5.2,73.5,-16.16,-6.24,-2.2,-0.6,42.2,1819098.0,-36.6,-4.57,96.3,0
2014_DE,6.7,2898735.0,98.6,0.4,447.1,5.2,1193745.0,2.2,2356.0,13137296.0,-0.4,0.8,2.2,-0.6,7.7,0.1,4.6,77.7,-7.87,-9.53,-0.8,6.9,75.3,2212280.4,40.6,-10.1,96.08,2
2014_DK,2.3,4239375.0,214.0,-1.2,814.7,7.0,858461.0,3.2,-5108.0,16140443.0,-1.2,0.8,1.7,-0.1,12.6,-0.3,7.3,78.1,-11.88,-15.89,-1.6,7.7,44.3,877067.0,43.3,-17.29,93.87,0
2014_EE,14.1,23287.2,116.1,0.5,192.5,8.7,-9425.5,12.6,1129.8,38608.6,4.8,2.8,3.3,-3.8,15.0,5.6,13.2,75.2,6.57,20.49,-7.4,-0.2,10.5,2108.4,-47.0,30.2,93.49,0
2014_EL,-10.4,230866.9,129.2,0.1,261.2,26.2,-235734.0,-5.1,-4918.6,466659.9,-5.6,-0.6,19.5,10.7,52.4,-2.8,-8.2,67.4,-25.02,-18.49,7.7,-2.5,178.9,319629.0,-131.9,-5.48,103.49,4
2014_ES,-3.4,1723724.0,166.1,0.3,432.5,25.1,-1016562.0,0.1,-70233.0,4488681.0,-1.0,-0.5,12.9,4.0,53.2,-6.8,0.3,74.2,-18.59,-12.29,7.0,0.8,100.4,1041624.0,-98.0,-8.71,96.35,2
2014_FI,7.8,307866.0,149.8,0.5,404.1,8.2,-6534.5,-1.7,3587.0,830335.0,2.7,2.5,1.9,0.2,20.5,1.7,9.2,75.4,-9.56,-26.39,0.4,-2.1,60.2,123696.0,-3.2,-30.87,100.5,2
2014_FR,4.4,3041653.0,141.5,1.3,609.5,10.1,-335699.0,-1.7,69792.0,13103562.0,-1.3,0.3,4.5,0.5,24.2,3.2,5.6,71.0,-2.49,-14.53,1.6,-0.8,94.9,2039884.0,-15.6,-19.05,101.8,3
2014_HR,-6.5,391307.3,118.0,2.0,197.4,16.8,-282784.0,-1.1,282.4,654554.1,-0.8,0.5,10.1,1.7,44.9,0.1,0.6,66.1,-25.47,-20.27,8.3,0.9,84.0,278493.5,-85.3,-10.56,102.47,3
2014_HU,5.7,29768869.0,91.4,4.6,299.5,9.6,-26159066.2,3.4,-28081.0,97579858.0,-6.8,-3.6,3.7,-1.5,20.4,-0.1,8.4,67.0,-7.85,-16.69,-5.6,2.3,76.7,24989251.0,-80.3,-18.82,88.25,2
2014_IE,-3.7,543540.0,279.0,0.6,2210.9,13.7,-320867.0,15.1,4958.0,4317763.0,-3.6,-0.8,6.6,-2.2,23.4,2.5,19.5,71.8,6.58,-14.64,-6.2,-0.3,104.1,203364.5,-164.3,-26.42,90.08,2
2014_IT,2.3,1930418.0,119.0,1.8,352.7,11.8,-341018.0,-5.0,-7693.0,5720573.0,0.2,0.3,7.7,3.4,42.7,-0.5,0.6,63.9,-19.25,-15.29,13.5,0.9,131.8,2137333.2,-21.0,-14.49,104.21,3
2014_LT,8.7,19717.4,53.9,2.3,113.8,12.0,-16492.1,6.3,96.7,41613.6,1.7,3.0,4.8,-3.2,19.3,0.3,16.2,73.7,30.46,33.64,-13.3,0.9,40.5,14827.1,-45.1,34.34,95.61,0
2014_LU,7.1,166750.1,334.7,2.9,19834.0,5.7,24296.0,3.9,14720.3,9882172.8,0.5,0.5,1.6,0.2,22.3,29.5,9.6,70.8,22.93,14.89,5.9,5.4,22.7,11330.5,48.8,1.55,94.79,0
2014_LV,16.3,22732.3,96.2,1.8,196.1,12.6,-15607.0,4.3,-2795.1,46314.6,0.4,2.9,4.6,-4.2,19.6,-11.8,10.4,74.6,-14.81,10.97,-11.4,-2.7,40.9,9668.5,-66.1,27.77,102.46,0
2014_MT,2.8,11491.1,135.1,6.0,2828.9,6.0,3659.9,2.1,327.3,239535.2,0.1,0.6,2.7,-0.3,11.7,3.8,6.4,67.8,-7.06,-12.48,-1.6,1.8,63.4,5390.0,43.0,-21.03,96.14,0
2014_NL,3.7,1794154.0,267.2,0.9,1452.9,6.8,322619.0,-0.1,28618.0,9756933.0,0.7,-0.1,2.9,1.3,12.7,4.3,8.0,79.0,-10.21,-11.35,2.7,9.5,67.9,455706.0,48.0,-11.67,96.72,2
2014_PL,2.9,1343117.0,78.1,2.2,156.7,9.8,-1188192.0,1.2,79412.0,2696016.0,-1.0,1.0,3.8,0.2,23.9,4.6,0.7,67.9,6.95,4.69,-1.9,-2.4,50.4,867345.0,-69.1,3.99,97.43,0
2014_PT,-2.7,329643.3,190.5,-0.4,465.7,15.4,-205329.0,3.9,-9784.4,805980.9,-1.8,-0.5,8.4,2.2,34.7,-5.7,-7.5,73.2,-5.2,-6.14,4.5,0.0,130.6,226040.5,-118.6,-5.87,97.92,3
2014_RO,6.7,414862.4,62.1,1.6,96.9,6.9,-383117.0,-3.1,-15786.5,647769.3,-1.0,1.4,2.8,-0.1,24.0,-2.4,1.3,65.7,16.59,20.13,0.1,-2.2,39.2,262195.3,-57.3,21.58,98.2,2
2014_SE,6.9,7674548.0,194.7,1.6,577.5,8.0,-90607.0,8.3,192109.0,22758209.0,-3.7,-4.6,1.4,-0.1,22.9,4.9,13.0,81.5,5.0,-9.63,0.1,5.1,45.5,1791624.0,-2.3,-14.49,89.2,2
2014_SI,0.0,36614.0,97.4,0.6,176.7,9.6,-14448.8,-6.6,-1767.0,66457.0,1.2,1.1,5.3,1.7,20.2,-4.7,-0.2,70.9,-16.38,-12.73,4.5,3.3,80.4,30219.9,-38.4,-11.82,98.61,2
2014_SK,1.8,62759.3,82.5,1.6,138.1,13.8,-48385.8,1.5,4356.4,105042.2,1.2,0.2,9.3,0.1,29.7,5.7,8.7,70.3,-4.84,1.88,-4.0,1.3,53.5,40725.0,-63.6,2.1,94.82,0
2014_UK,3.4,3062163.0,166.0,1.2,1177.4,7.2,-407147.0,6.0,124388.0,21714700.0,10.1,7.1,2.2,-0.5,17.0,6.7,4.8,76.7,-5.91,-9.63,-4.3,-4.6,87.0,1604788.0,-22.1,-10.87,94.85,2
2015_AT,6.2,427704.1,124.2,0.4,429.8,5.6,7610.0,3.3,7430.5,1479500.8,1.3,-2.4,1.7,0.5,10.6,2.2,-0.1,75.5,-12.28,-9.17,1.2,2.0,84.7,291687.7,2.2,-9.19,100.0,1
2015_BE,1.3,743623.8,180.9,0.7,564.4,8.5,188511.0,1.0,50927.2,2320408.9,-1.7,-3.4,4.4,1.0,22.1,12.4,2.7,67.6,-10.03,-11.9,2.3,-0.7,106.4,437176.1,45.9,-14.01,100.0,1
2015_BG,14.9,97835.0,110.5,2.2,181.8,11.2,-55822.8,1.6,-290.0,161054.0,-4.3,-3.6,5.6,-1.2,21.6,-0.3,6.2,69.3,-9.07,11.78,-6.5,0.8,26.2,23217.2,-63.0,18.93,100.0,3
2015_CY,-10.9,62724.3,353.5,0.4,1748.0,15.7,-25734.0,0.2,732.2,310203.8,-6.2,-6.5,6.8,3.2,32.8,4.1,11.1,73.9,-20.01,-12.25,5.1,-3.6,108.0,19164.0,-145.0,-17.53,100.0,3
2015_CZ,0.1,3131193.0,68.1,2.4,196.9,6.1,-1512936.0,3.8,15250.0,9051264.0,-8.2,-0.9,2.4,-0.6,12.6,0.3,8.1,74.0,-18.74,-2.19,-6.9,0.0,40.0,1836255.0,-32.9,2.44,100.0,0
2015_DE,5.4,2995297.0,98.2,0.4,443.5,4.9,1413508.0,4.1,98872.0,13520236.0,-1.5,-4.4,2.0,-0.4,7.2,3.2,2.9,77.6,-5.12,-3.2,-0.8,7.4,71.6,2181971.9,46.4,-1.87,100.0,2
2015_DK,2.2,4305784.0,211.4,-0.1,785.1,6.6,699441.0,6.5,58704.0,15986470.0,-1.7,-3.4,1.7,-0.4,10.8,2.9,-1.0,78.5,-18.38,-8.52,-3.3,8.3,39.8,809934.4,34.3,-5.99,100.0,0
2015_EE,13.2,23434.9,113.5,1.9,203.1,7.4,-8300.3,7.0,561.3,41945.2,5.8,0.1,2.4,-3.1,13.1,2.7,8.6,76.7,-3.14,7.38,-7.8,1.1,9.9,2034.9,-40.2,9.96,100.0,1
2015_EL,-9.7,224664.8,126.7,0.3,305.3,26.3,-240013.0,-3.4,-5009.8,538248.3,-5.6,-4.5,18.2,3.7,49.8,-2.8,15.3,67.8,-27.5,-15.41,-5.5,-1.5,175.9,311729.0,-135.4,-9.22,100.0,4
2015_ES,-0.3,1675888.0,155.0,0.0,407.9,24.2,-967287.0,3.8,-19013.0,4410576.0,-3.2,-4.5,11.4,0.4,48.3,-1.8,-1.7,74.3,-18.52,-4.06,-4.6,1.3,99.3,1073934.0,-89.5,0.97,100.0,2
2015_FI,3.4,320439.0,152.6,0.6,401.0,8.8,3252.0,-0.5,14518.0,841962.0,2.1,-3.2,2.3,0.7,22.4,6.9,1.4,75.8,-3.73,-21.62,3.4,-1.6,63.4,133206.0,1.5,-27.67,100.0,2
2015_FR,2.3,3139180.0,142.8,1.0,609.0,10.3,-284191.0,-1.8,100628.0,13388907.0,-2.9,-4.7,4.6,0.5,24.7,4.6,2.2,71.3,-4.37,-3.7,0.3,-0.6,95.6,2101255.0,-12.9,-5.47,100.0,3
2015_HR,-6.3,383695.8,113.0,3.0,196.5,16.9,-259360.0,-2.4,-4605.3,667472.9,0.1,-1.5,10.2,0.0,42.3,-1.4,2.0,66.9,-17.57,-6.16,0.1,2.4,83.7,284372.9,-76.4,-2.54,100.0,3
2015_HU,-0.6,29068619.0,84.6,4.9,285.0,8.2,-23222645.2,13.3,-874240.0,97985924.0,-7.2,-2.4,3.1,-1.9,17.3,-2.5,0.4,68.6,-9.7,-9.24,-10.9,2.7,76.7,26366346.0,-67.5,-8.67,100.0,1
2015_IE,-18.6,803116.0,305.6,1.0,1803.0,11.9,-521499.0,11.0,-6139.0,4732176.0,-6.4,-7.2,5.3,-3.9,20.2,-2.3,9.6,72.1,13.05,37.8,-10.6,2.3,76.8,201635.1,-198.7,49.33,100.0,2
2015_IT,1.6,1902225.0,115.1,0.5,350.7,12.2,-322858.0,-4.0,-23245.0,5795409.0,-2.4,-4.5,6.9,1.3,40.3,-1.4,1.3,64.0,-24.27,-9.31,5.0,1.4,131.6,2173428.0,-19.5,-4.91,100.0,3
2015_LT,11.8,20510.2,54.8,2.3,119.0,10.5,-16254.2,4.6,888.0,44530.1,4.2,0.3,3.9,-2.7,16.3,2.4,7.0,74.1,14.82,14.87,-10.4,0.6,42.6,15940.2,-43.4,15.32,100.0,0
2015_LU,2.6,178168.6,345.4,1.5,27943.8,6.1,16039.0,5.5,11846.4,14413123.9,-0.7,-2.7,1.9,0.3,16.6,23.0,45.8,70.9,23.08,28.69,-1.4,5.2,22.2,11446.9,31.1,-3.2,100.0,0
2015_LV,17.5,21626.0,88.9,1.3,213.6,10.9,-15453.0,-2.4,180.0,51959.0,2.5,0.6,4.5,-3.3,16.3,0.7,12.2,75.7,-6.62,12.46,-12.2,-1.6,36.8,8953.3,-63.5,19.56,100.0,0
2015_MT,-1.4,11667.6,120.8,4.9,2548.4,5.7,3607.4,4.0,261.8,242725.2,-2.8,-4.8,2.4,-0.6,11.6,2.7,1.3,68.8,4.77,9.06,-2.2,2.9,57.9,5586.2,37.4,-18.03,100.0,0
2015_NL,-0.4,1813098.0,262.8,0.6,1470.8,7.2,337602.0,3.4,74.0,10148934.0,-0.9,-3.4,3.0,1.1,11.3,0.0,4.0,79.6,5.6,-6.77,-0.4,8.2,64.6,446058.0,48.9,-10.62,100.0,2
2015_PL,0.2,1420410.0,78.9,1.6,153.4,8.9,-1117822.0,2.6,62502.0,2761319.0,-1.4,-2.6,3.0,-1.1,20.8,3.5,2.4,68.1,-0.62,9.15,-5.7,-1.3,51.3,923259.0,-62.1,12.22,100.0,0
2015_PT,0.5,322513.7,179.4,0.0,440.9,14.4,-203520.0,2.1,-3440.9,792830.4,-3.1,-2.9,7.2,-0.5,32.0,-1.9,-1.6,73.4,-4.52,1.63,-6.0,0.6,128.8,231512.6,-113.2,2.0,100.0,3
2015_RO,0.6,421374.6,59.1,1.3,94.6,6.9,-389169.0,1.8,1303.7,674188.0,2.7,-2.6,3.0,0.0,21.7,0.2,4.1,66.1,38.94,20.46,-0.9,-1.0,37.8,269151.3,-54.6,15.55,100.0,1
2015_SE,2.5,7913467.0,188.3,1.4,554.8,7.8,-167082.0,12.1,312544.0,23309138.0,-8.3,-5.5,1.5,0.0,20.4,7.4,2.4,81.7,5.1,-9.34,-3.3,4.6,44.2,1856324.0,-4.0,-15.74,100.0,2
2015_SI,-0.4,33711.0,86.7,1.4,164.7,9.6,-12115.4,1.4,-1939.0,64008.0,0.3,-2.1,4.7,0.4,16.3,-5.0,-3.7,71.8,-17.73,-4.64,-4.3,4.1,82.6,32087.4,-31.2,-0.69,100.0,2
2015_SK,2.1,65934.6,83.3,1.5,147.1,13.0,-50984.0,5.5,6481.1,116429.4,-1.2,-2.4,7.6,-1.8,26.5,8.2,10.8,70.9,-0.98,4.14,-7.5,0.4,52.2,41295.0,-64.4,7.01,100.0,0
2015_UK,2.4,3123700.0,164.8,0.8,1047.6,6.3,-381025.0,5.4,62698.0,19860412.0,10.7,4.9,1.6,-1.1,14.6,3.3,-8.5,76.9,-0.12,1.98,-6.6,-5.0,87.9,1665979.0,-20.1,-2.37,100.0,1
2016_AT,5.3,442226.5,124.1,0.7,404.3,5.8,13033.0,7.0,12231.5,1440426.2,0.9,1.7,1.9,0.6,11.2,3.4,-2.6,76.2,-8.47,-3.36,1.5,2.2,83.0,295611.9,3.7,-3.41,107.03,0
2016_BE,-0.4,844398.1,198.9,0.1,559.3,8.3,242154.0,0.9,97557.2,2374675.9,-0.4,2.9,4.0,0.1,20.1,23.0,2.3,67.6,-4.67,-2.45,-3.6,-0.8,106.1,450544.7,57.0,-3.36,100.92,0
2016_BG,9.1,98673.0,104.8,0.3,190.2,9.4,-46281.6,7.1,3895.0,179022.0,-4.7,-0.4,4.5,-2.9,17.2,4.1,11.2,68.7,1.27,8.12,-11.2,1.3,29.6,27858.2,-49.2,9.71,107.13,3
2016_CY,-6.9,62459.6,337.8,-0.2,1708.7,14.7,-22746.0,1.7,1801.1,315935.4,-7.4,-0.2,5.8,-0.3,29.1,9.7,1.8,73.4,-11.76,-2.16,-9.8,-3.6,105.5,19509.2,-123.0,-22.3,101.69,3
2016_CZ,2.7,3276106.0,68.7,2.1,220.7,5.1,-1283097.0,6.7,207088.0,10524787.0,-3.7,2.5,1.7,-1.3,10.5,4.3,16.3,75.0,-14.24,2.39,-8.4,0.7,36.8,1754883.0,-26.9,7.8,106.67,0
2016_DE,4.7,3111864.0,98.5,0.3,449.6,4.6,1605467.0,6.8,115871.0,14204845.0,-2.1,1.6,1.7,-0.6,7.1,3.7,5.1,77.9,0.54,1.96,-0.7,8.0,68.5,2165891.1,50.8,3.85,106.75,2
2016_DK,2.1,4400465.0,209.5,1.9,800.4,6.3,1145888.0,4.7,58477.0,16809268.0,-1.7,1.0,1.4,-0.4,12.0,2.8,5.1,80.0,-17.94,-2.96,-1.0,8.4,37.2,781229.7,54.6,0.67,104.7,0
2016_EE,12.0,24330.7,112.2,2.4,206.8,6.8,-8430.4,3.8,1307.6,44834.4,4.4,1.5,2.1,-1.7,13.4,6.0,6.9,77.5,-4.0,-0.11,-5.3,1.5,9.2,1986.8,-38.9,-1.54,103.82,0
2016_EL,-3.3,218799.4,124.0,0.7,257.7,25.0,-243271.0,-1.7,-3687.1,448993.5,-4.0,1.1,17.0,-1.5,47.3,-2.1,-16.6,68.2,-27.05,-11.22,-11.0,-1.4,178.5,315010.0,-137.8,-6.55,98.35,4
2016_ES,-0.5,1644224.0,147.0,-0.1,395.8,22.1,-954546.0,4.6,-13278.0,4427896.0,-4.3,0.7,9.5,-3.5,44.4,-1.2,0.4,74.2,-14.58,2.58,-11.1,1.5,99.0,1107220.0,-85.3,7.65,104.62,2
2016_FI,0.7,320960.0,148.5,0.7,404.8,9.0,18579.0,0.0,2958.0,874720.0,0.4,1.2,2.3,0.6,20.1,1.4,3.9,75.9,-2.29,-13.91,0.2,-1.1,63.0,136150.0,8.6,-19.26,100.04,1
2016_FR,1.7,3267751.0,146.3,0.7,627.8,10.3,-290561.0,0.8,155156.0,13990973.0,-3.2,1.3,4.6,0.2,24.6,6.9,4.5,71.4,-6.34,1.1,-0.3,-0.6,98.0,2188481.0,-13.0,1.05,100.81,3
2016_HR,-5.1,368877.5,105.0,1.9,196.3,15.6,-245661.0,2.1,-213.8,689537.7,0.0,1.1,6.6,-4.4,31.8,-0.1,3.3,65.6,-8.28,7.68,-18.1,3.0,80.5,282766.0,-69.9,8.92,102.12,3
2016_HU,3.8,27634740.0,77.9,5.4,329.8,6.5,-20840215.0,13.6,-1074411.0,116977633.0,-5.2,0.8,2.4,-2.5,12.9,-3.0,19.4,70.1,-3.27,-0.35,-13.7,3.4,76.0,26967177.0,-58.7,0.99,113.61,0
2016_IE,-17.7,774043.0,284.9,0.9,1758.7,10.1,-466388.0,6.6,-42697.0,4805403.0,-7.1,0.9,4.2,-3.8,16.8,-15.7,1.5,72.7,23.42,58.52,-9.9,0.4,73.5,200710.5,-170.7,73.87,106.61,2
2016_IT,1.6,1888670.0,111.8,1.5,356.3,12.1,-172705.0,0.1,-858.0,5988952.0,-3.4,0.8,6.7,-0.2,37.8,-0.1,3.3,64.9,-19.84,-3.26,-2.2,1.9,131.4,2220369.6,-10.2,2.01,100.1,3
2016_LT,15.3,21791.7,56.1,3.1,133.7,9.2,-16606.0,4.5,1716.0,51937.4,5.3,1.9,3.0,-2.1,14.5,4.4,16.6,75.5,18.99,5.02,-7.4,0.0,40.0,15524.5,-42.7,2.18,104.46,0
2016_LU,3.6,183762.2,344.8,0.1,28328.8,6.3,24997.0,5.6,12553.0,15100080.3,-1.5,0.7,2.2,0.4,19.1,23.6,4.8,70.0,18.66,31.37,2.2,5.1,20.7,11024.4,46.9,-5.14,105.59,0
2016_LV,16.9,22022.0,88.0,2.3,219.6,10.1,-14634.0,7.3,63.0,54982.0,4.8,1.2,4.0,-1.7,17.3,0.3,5.8,76.3,-6.96,9.24,-5.9,-0.2,40.3,10091.6,-58.4,13.56,107.31,0
2016_MT,-1.1,12569.1,121.5,4.3,2475.1,5.3,3661.5,4.8,1151.0,251967.4,-2.9,1.4,1.9,-0.9,10.7,11.1,3.8,70.6,13.06,22.47,-2.0,4.1,55.5,5739.9,35.4,-17.79,104.82,0
2016_NL,-0.3,1836736.0,259.3,0.3,1528.1,6.8,434580.0,4.4,27649.0,10824310.0,-2.3,1.2,2.5,0.0,10.8,3.9,6.7,79.7,1.31,-3.0,-2.4,7.6,61.9,438418.0,61.4,-4.44,104.39,2
2016_PL,2.5,1517931.0,81.6,1.8,161.8,7.6,-1145969.0,2.3,95604.0,3011205.0,-5.1,-3.5,2.2,-2.2,17.7,5.1,9.0,68.8,7.26,17.68,-9.6,-1.1,54.2,1009257.0,-61.6,21.29,102.27,0
2016_PT,0.1,315659.9,169.3,0.7,423.8,12.6,-196761.0,6.1,-3878.3,790304.6,-1.8,1.6,6.2,-3.1,28.2,-2.1,-0.3,73.7,-2.91,5.42,-9.9,0.3,129.2,240962.6,-105.5,5.1,106.06,3
2016_RO,9.5,425065.1,55.6,0.7,94.2,6.5,-375018.0,5.2,4430.2,720457.0,-2.6,-1.3,3.0,-0.2,20.6,0.6,6.9,65.6,45.32,23.16,-3.1,-1.3,37.3,285553.1,-49.0,17.77,105.21,0
2016_SE,2.5,8265986.0,188.5,1.0,581.2,7.4,4278.0,7.6,352473.0,25488179.0,-9.2,0.8,1.3,-0.1,18.9,8.0,9.3,82.1,-1.58,-7.59,-4.7,4.2,42.4,1857761.0,0.1,-12.04,107.55,2
2016_SI,0.9,32513.0,80.6,1.1,163.7,8.9,-11646.3,3.8,-318.0,66072.0,-0.6,0.5,4.3,-0.9,15.2,-0.8,3.2,71.6,-8.34,3.66,-6.4,4.6,78.7,31753.4,-28.9,7.52,103.77,2
2016_SK,3.1,73493.9,90.5,2.0,155.5,11.5,-54112.4,7.0,7727.6,126278.2,-1.6,0.5,5.8,-4.2,22.2,9.5,8.5,71.9,11.98,7.95,-11.5,-0.9,51.8,42053.2,-66.6,11.21,107.02,0
2016_UK,3.0,3347685.0,170.0,0.9,1126.8,5.4,-47452.0,5.4,226509.0,22192968.0,0.2,-10.9,1.3,-1.4,13.0,11.5,11.7,77.3,-2.71,0.91,-7.7,-5.0,87.9,1731392.0,-2.4,-5.57,105.4,0
2017_AT,3.7,453222.8,122.5,1.0,396.5,5.7,13792.0,3.5,15768.4,1466702.4,0.1,0.9,1.8,0.3,9.8,4.3,1.8,76.4,-3.09,2.04,-0.5,2.1,78.2,289253.2,3.7,2.1,110.82,0
2017_BE,1.1,822325.5,187.2,0.3,544.5,7.8,230059.0,1.7,-5632.5,2391240.1,0.9,1.5,3.5,-0.8,19.3,-1.3,0.7,68.0,-5.34,3.56,-3.9,-0.3,103.4,454112.2,52.4,5.34,102.67,0
2017_BG,13.6,101100.0,100.1,2.3,179.1,7.7,-45176.7,6.2,6253.0,180951.0,-3.3,0.6,3.4,-3.5,12.9,6.2,1.1,71.3,-1.08,18.96,-10.9,1.9,25.6,25904.2,-44.7,25.19,113.8,2
2017_CY,-2.5,61908.5,315.1,-0.4,1577.5,13.0,-23785.0,1.3,1693.7,308731.6,-6.6,0.1,4.5,-3.2,24.7,8.6,-2.3,73.9,1.11,6.63,-11.3,-5.0,95.8,18814.1,-121.1,-21.35,103.04,3
2017_CZ,5.9,3395808.0,67.3,2.4,256.3,4.0,-1263684.0,9.1,209634.0,12934068.0,5.3,3.6,1.0,-1.7,7.9,4.2,22.9,75.9,-5.52,8.66,-8.0,1.2,34.7,1749532.0,-25.0,13.22,116.33,0
2017_DE,5.1,3279545.0,100.1,0.5,450.8,4.2,1783108.0,4.5,160691.0,14774825.0,-2.0,0.9,1.6,-0.6,6.8,4.9,4.0,78.2,4.3,5.83,-0.9,8.3,64.5,2115396.7,54.4,7.41,111.53,2
2017_DK,2.4,4392337.0,201.7,0.7,808.6,6.0,1207796.0,3.3,2372.0,17612379.0,-2.2,0.3,1.3,-0.4,11.0,0.1,4.8,78.8,-16.66,0.21,-1.6,8.0,35.5,772862.0,55.5,5.98,108.16,0
2017_EE,12.4,25123.3,106.4,3.6,208.2,6.3,-7416.9,1.8,842.9,49167.9,2.9,1.3,1.9,-1.4,12.1,3.6,9.7,78.8,-4.43,2.28,-2.9,2.3,9.2,2176.7,-31.4,2.22,105.65,0
2017_EL,-1.0,209714.9,116.4,0.9,220.0,23.3,-253231.0,-1.6,-1400.4,391003.5,-2.9,0.6,15.6,-3.9,43.6,-0.8,-12.9,68.3,-9.92,-1.58,-8.8,-1.4,176.2,317485.0,-140.5,-5.6,96.77,4
2017_ES,0.0,1620707.0,139.0,-0.3,394.8,19.6,-973976.0,4.5,5605.0,4604427.0,-2.6,1.3,7.7,-5.2,38.6,0.5,4.0,73.9,-4.95,9.46,-14.6,1.8,98.1,1144425.0,-83.5,13.32,109.35,2
2017_FI,-3.5,326475.0,145.8,1.3,375.4,8.9,3070.0,1.0,16142.0,840398.0,-2.7,-0.6,2.1,0.2,20.1,7.2,-3.9,76.7,2.4,-4.61,-0.4,-0.7,61.3,137278.0,1.4,-8.73,101.0,0
2017_FR,1.5,3396939.0,148.0,0.5,636.7,10.0,-380863.0,2.2,160200.0,14591497.0,-3.0,0.5,4.2,-0.3,22.3,7.0,4.3,71.5,-6.59,2.5,-1.9,-0.5,98.4,2258656.0,-16.6,3.7,103.03,2
2017_HR,-4.3,358940.3,98.2,0.3,195.9,13.5,-228267.0,2.8,4411.9,716464.1,-0.1,0.3,4.6,-5.5,27.2,1.2,3.9,66.4,2.42,19.6,-17.7,3.6,77.8,284315.7,-62.4,23.43,104.96,3
2017_HU,6.7,27459172.0,71.6,4.2,280.7,5.4,-20336927.0,3.3,379775.0,107657971.0,0.0,1.7,1.7,-2.0,10.7,1.0,-8.0,71.2,9.61,11.05,-9.7,3.9,73.4,28158019.0,-53.0,11.83,117.31,0
2017_IE,-15.4,716596.0,241.2,0.9,1704.3,8.4,-496850.0,9.5,-22106.0,5012561.0,-6.2,0.1,3.0,-3.6,14.4,-7.4,4.3,72.7,47.11,71.49,-9.0,0.2,68.5,201367.8,-168.9,77.49,116.73,2
2017_IT,1.1,1905307.0,110.3,1.5,363.7,11.6,-109898.0,-2.3,36386.0,6244714.0,-3.2,0.5,6.5,-1.2,34.7,2.1,4.3,65.4,-14.25,1.75,-8.0,2.2,131.4,2269009.9,-6.4,6.65,97.83,3
2017_LT,16.0,23653.8,56.1,2.2,140.4,8.0,-15127.3,5.4,1558.3,59227.6,2.3,0.0,2.7,-2.1,13.3,3.7,14.0,75.9,29.35,9.41,-6.0,-0.7,39.4,16625.1,-35.9,4.83,110.07,0
2017_LU,7.1,174965.2,316.4,-0.6,26862.0,6.1,23829.0,3.9,-8278.8,14854547.9,-1.0,1.0,2.1,0.5,15.5,-15.0,-1.6,70.2,12.27,19.8,-6.8,5.1,23.0,12697.1,43.1,-16.42,109.76,0
2017_LV,14.7,22572.0,83.5,2.4,215.7,9.4,-15210.0,5.5,90.0,58313.0,1.6,-0.2,3.3,-1.3,17.0,0.3,6.1,77.0,-2.65,7.45,-2.6,0.6,40.0,10806.8,-56.3,9.38,113.25,0
2017_MT,1.3,13391.8,118.5,4.4,2368.7,4.7,7289.8,4.1,319.7,263863.1,-2.4,1.1,1.6,-1.1,10.6,2.8,4.7,72.2,19.35,25.21,-1.1,5.7,50.2,5682.6,64.5,-14.22,109.17,0
2017_NL,-0.1,1838463.0,249.1,0.7,1465.4,5.9,438408.0,6.1,27561.0,10816959.0,-1.8,0.5,1.9,-1.0,8.9,3.7,-0.1,79.7,10.61,1.61,-3.8,8.4,57.0,419778.0,59.4,-1.0,110.72,2
2017_PL,4.2,1519181.0,76.4,1.7,160.8,6.2,-1213112.0,2.2,55863.0,3199533.0,-3.5,2.7,1.5,-2.3,14.8,2.8,6.3,69.6,19.79,28.06,-9.1,-0.3,50.6,1005722.0,-61.0,30.89,104.53,0
2017_PT,3.5,317196.8,163.0,1.5,413.9,10.9,-204069.0,7.9,3963.5,805411.5,-0.8,0.6,4.5,-3.9,23.8,2.0,1.9,74.7,11.29,14.29,-10.9,0.4,124.8,242804.8,-104.9,11.46,114.39,2
2017_RO,13.5,436528.4,51.0,1.6,90.9,5.9,-409448.0,3.3,14307.3,778658.5,-5.6,-1.8,2.0,-0.8,18.3,1.7,8.1,67.3,54.66,36.63,-5.7,-2.2,35.2,301158.3,-47.8,31.08,108.67,0
2017_SE,3.8,8954765.0,195.6,1.0,594.3,7.0,202254.0,4.6,598558.0,27213894.0,-5.5,-0.7,1.2,-0.2,17.8,13.1,6.8,82.5,-3.75,-4.47,-5.1,3.6,40.8,1869076.0,4.4,-6.72,112.54,2
2017_SI,3.4,32506.0,75.6,3.3,161.5,7.9,-10421.4,6.2,364.0,69443.0,-2.1,-0.4,3.1,-2.2,11.2,0.8,5.1,74.2,4.36,18.19,-9.0,4.9,74.1,31859.1,-24.2,22.45,110.24,1
2017_SK,6.9,81568.5,96.1,1.8,175.5,9.8,-55630.9,4.4,5020.0,148886.9,-2.1,-0.2,5.1,-4.2,18.9,5.9,17.9,72.1,12.35,6.35,-10.8,-2.0,50.9,43231.1,-65.6,8.6,111.76,0
2017_UK,5.3,3516120.0,171.5,0.9,1064.7,4.8,-165555.0,2.4,167227.0,21822784.0,-10.8,-4.6,1.1,-1.1,12.1,8.2,-1.7,77.6,-7.48,-1.27,-4.9,-4.5,87.1,1786069.0,-8.1,-4.31,107.92,0
2018_AT,3.8,,,1.3,,5.5,14804.0,2.6,,,4.9,2.2,1.4,-0.3,9.4,,,76.8,-4.55,4.01,-1.2,2.3,73.8,284758.3,3.8,6.04,113.73,
2018_BE,3.5,832400.1,184.8,1.0,516.4,7.0,197579.0,1.1,22092.9,2326562.9,6.9,2.4,2.9,-1.5,15.8,4.9,-2.7,68.6,-9.16,2.8,-6.3,-0.4,102.0,459650.6,43.9,6.41,103.81,
2018_BG,13.5,,,2.2,,6.3,-39742.8,3.9,,,4.1,3.9,3.0,-2.6,12.7,,,71.5,6.74,10.48,-8.9,3.4,22.6,24429.9,-36.8,11.4,118.28,
2018_CY,-0.5,,,1.1,,10.8,-23774.0,0.6,,,1.5,1.6,2.7,-4.1,20.2,,,75.0,-7.21,5.62,-12.6,-6.8,102.5,21258.1,-114.7,11.29,103.66,
2018_CZ,13.5,3766627.0,70.7,2.6,261.8,3.0,-1251037.0,6.1,280813.0,13886923.0,11.0,4.5,0.7,-1.7,6.7,5.3,7.4,76.6,5.36,12.13,-5.9,1.2,32.7,1735076.0,-23.5,14.77,123.46,
2018_DE,6.1,,,1.0,,3.8,2065377.0,5.2,,,5.3,2.7,1.4,-0.6,6.2,,,78.6,3.04,3.32,-1.0,7.9,60.9,2063171.5,61.0,4.27,117.36,
2018_DK,4.0,4432830.0,199.4,0.9,754.8,5.6,1402774.0,3.5,53100.0,16779847.0,2.5,1.2,1.1,-0.6,9.3,2.4,-4.7,79.4,-18.77,-4.35,-1.5,7.2,34.1,757441.4,63.1,1.38,111.9,
2018_EE,14.3,,,2.4,,6.0,-7223.7,2.6,,,7.6,4.7,1.3,-1.1,11.9,,,79.1,-2.75,1.27,-1.2,2.3,8.4,2151.9,-28.2,0.69,108.4,
2018_EL,1.4,,,0.4,,21.5,-255677.0,1.3,,,3.9,2.2,13.6,-4.6,39.9,,,68.2,-2.2,5.68,-9.9,-2.1,181.1,334573.0,-138.4,4.03,98.02,
2018_ES,0.3,1608471.0,133.1,-0.6,371.7,17.4,-931071.0,5.1,4951.0,4491326.0,4.1,2.1,6.4,-5.0,34.3,0.4,-2.5,73.7,-1.25,4.48,-14.0,1.7,97.1,1173107.0,-77.1,5.11,114.9,
2018_FI,-2.1,329648.0,142.0,2.1,435.2,8.3,-898.0,-0.1,4735.0,1016370.0,2.9,2.4,1.6,-0.7,17.0,2.0,20.9,77.9,3.85,-3.85,-5.4,-1.0,58.9,137545.0,-0.4,-7.87,100.86,
2018_FR,2.4,,,0.6,,9.5,-384950.0,1.5,,,4.5,2.7,3.8,-0.8,20.7,,,71.9,-8.83,0.04,-4.0,-0.6,98.4,2315298.0,-16.4,2.06,104.6,
2018_HR,,,,-0.6,,10.9,-206597.0,4.8,,,4.1,2.7,3.4,-6.8,23.7,,,66.3,7.88,18.45,-18.6,3.0,74.6,284694.2,-54.1,18.51,110.04,
2018_HU,16.8,29782322.0,70.8,3.3,223.2,4.3,-19691184.3,6.2,1822687.0,93886211.0,2.0,-0.5,1.4,-1.7,10.2,4.3,-12.8,71.9,8.53,9.23,-7.1,3.1,70.8,29806589.0,-46.8,9.66,124.64,
2018_IE,-2.8,,,0.8,,7.0,-534781.0,8.3,,,2.3,1.3,2.1,-3.2,13.8,,,72.9,51.89,77.72,-6.4,2.4,64.8,206214.4,-167.9,89.35,126.42,
2018_IT,2.4,,,1.6,,11.2,-69014.0,-1.7,,,3.4,2.0,6.2,-0.7,32.2,,,65.6,-9.65,0.63,-8.1,2.5,132.2,2321956.9,-3.9,3.79,96.2,
2018_LT,16.4,,,3.2,,7.1,-13299.3,4.8,,,6.2,4.2,2.0,-1.9,11.1,,,77.3,35.12,6.03,-5.2,0.6,34.2,15416.6,-29.5,-1.14,115.34,
2018_LU,10.3,,,0.2,,5.8,26845.0,5.2,,,3.3,1.6,1.4,-0.5,13.8,,,71.1,6.44,10.38,-2.8,4.9,21.4,12586.6,45.6,-20.36,115.47,
2018_LV,13.0,,,2.0,,8.6,-14496.0,6.6,,,4.9,3.8,3.1,-1.4,12.2,,,77.7,0.16,5.87,-4.1,0.5,35.9,10608.0,-49.1,6.51,120.73,
2018_MT,3.0,,,5.4,,4.1,7797.5,5.0,,,4.8,2.2,1.1,-1.3,9.2,,,74.2,19.3,24.1,-2.4,8.0,46.0,5664.7,63.3,-7.73,114.65,
2018_NL,3.0,1870364.0,241.6,0.7,1351.4,4.9,547313.0,7.4,34834.0,10460629.0,3.2,1.5,1.4,-1.6,7.2,4.5,-3.3,80.3,13.88,1.88,-4.1,9.9,52.4,405428.0,70.7,-1.6,118.86,
2018_PL,7.8,1609352.0,76.1,2.0,155.7,5.0,-1189970.0,4.8,70343.0,3293646.0,0.1,1.1,1.0,-2.0,11.7,3.3,2.9,70.1,30.05,25.4,-9.1,-0.3,48.9,1034358.0,-56.2,24.72,109.56,
2018_PT,5.8,314556.2,156.0,1.7,402.4,9.1,-203214.0,9.0,-266.0,811211.5,3.2,0.9,3.1,-4.1,20.3,-0.1,0.7,75.1,7.66,8.59,-11.7,0.1,121.5,244905.7,-100.8,5.9,124.67,
2018_RO,33.5,454186.4,48.1,1.7,84.6,5.0,-420641.0,1.8,23297.5,798695.6,-0.6,2.5,1.8,-1.2,16.2,2.5,2.6,67.8,24.43,23.06,-5.5,-3.3,35.0,330046.9,-44.5,21.76,110.65,
2018_SE,7.0,9456904.0,197.4,1.2,554.2,6.6,384064.0,-3.3,428843.0,26543042.0,-3.9,-4.0,1.2,-0.3,16.8,9.0,-2.5,82.9,-16.67,-6.1,-3.6,2.8,38.8,1859090.0,8.0,-2.98,108.84,
2018_SI,5.6,32846.0,71.5,3.2,157.4,6.6,-8669.6,7.2,502.0,72306.0,2.0,2.0,2.2,-2.5,8.8,1.1,4.1,75.0,9.5,20.65,-7.5,5.5,70.1,32231.8,-18.9,24.04,118.2,
2018_SK,9.1,,,1.5,,8.1,-60683.4,5.0,,,2.4,2.1,4.0,-3.6,14.9,,,72.4,4.12,3.8,-11.6,-2.2,48.9,44144.5,-67.3,5.82,117.33,
2018_UK,7.4,3618879.0,170.9,1.0,1025.6,4.4,-142836.0,1.0,112824.0,21688568.0,-13.0,2.3,1.1,-0.5,11.3,5.3,-0.6,77.9,-9.99,-2.91,-3.3,-4.1,86.8,1837530.0,-6.7,-3.15,108.99,
