,tipslm10-NULC_PER-PCH_3Y,tipspd20-CO-S11_S14_S15-LIAB-F3_F4-MIO_NAC,tipspd20-CO-S11_S14_S15-LIAB-F3_F4-PC_GDP,tipslm60-T-PPCH_3Y,tipsfs10-F-NCO-S12-LIAB-PC_GDP,tipsun10-TOTAL-AVG_3Y-T,tipsii10-NSA-FA-S1-S1-N_LE-WRL_REST-MIO_NAC,tipsho10-RCH_A_AVG,tipspc20-CO-S11_S14_S15-LIAB-F3_F4-MIO_NAC,tipsfs10-F-NCO-S12-LIAB-MIO_NAC,tipser10-PCH_3Y,tipser10-PCH_1Y,tipslm70-PC_ACT-T,tipslm70-PPCH_3Y-T,tipslm80-Y_LT25-T-PC_ACT,tipspc20-CO-S11_S14_S15-LIAB-F3_F4-PC_GDP,tipsfs10-F-NCO-S12-LIAB-PCH_PRE,tipslm60-T-PC_POP,tipsex10-PCH_WRL_5Y-S-CRE-WRL_REST,tipsex10-PCH_WRL_5Y-GS-CRE-WRL_REST,tipslm80-Y_LT25-T-PPCH_3Y,tipsbp10-PC_GDP_3Y-NSA-CA-BAL-WRL_REST,tipsgo10-GD-S13-PC_GDP,tipsgo10-GD-S13-MIO_NAC,tipsii10-NSA-FA-S1-S1-N_LE-WRL_REST-PC_GDP,tipsex10-PCH_WRL_5Y-G-CRE-WRL_REST,tipsho10-INX_A_AVG,label
2011_AT,5.8,401390.3,129.4,0.7,495.6,4.9,-5936.0,3.0,9182.0,1537010.7,-1.8,0.5,1.2,0.2,8.9,3.0,1.5,74.6,-14.66,-12.46,0.4,2.4,82.4,255683.8,-1.9,-11.83,88.41,0
2011_BE,5.3,687974.2,181.5,-0.4,602.9,7.8,230869.0,1.0,82136.7,2285631.7,-1.5,0.6,3.5,0.2,18.7,21.7,5.4,66.7,11.0,-7.63,0.7,-0.1,102.6,388934.9,60.9,-12.43,99.49,2
2011_CZ,3.4,2756980.0,68.3,0.8,168.4,6.9,-1822751.0,-1.7,83417.0,6794617.0,-0.5,2.0,2.7,0.5,18.1,2.1,4.3,70.5,5.57,7.43,8.2,-2.6,39.8,1606492.0,-45.2,7.88,98.86,0
2011_DE,5.7,2771693.0,102.5,1.4,479.8,6.8,627095.0,1.4,42263.0,12968900.0,-4.9,-0.6,2.8,-1.1,8.5,1.6,2.9,77.3,-8.72,-9.31,-1.9,5.9,79.4,2147549.3,23.2,-9.32,90.32,0
2011_DK,3.6,4081505.0,221.0,-1.4,780.2,7.0,512523.0,-4.0,82069.0,14409675.0,-2.5,-0.6,1.8,1.3,14.2,4.4,1.6,79.3,-16.55,-13.74,6.2,5.5,46.1,850862.0,27.8,-12.54,92.83,2
2011_EE,-2.6,20073.4,120.4,0.5,167.8,14.2,-9127.0,2.6,-180.6,27965.7,-0.8,1.1,7.1,5.4,22.4,-1.1,-0.2,74.7,-3.19,24.3,10.4,1.9,6.1,1011.1,-54.8,39.04,74.86,0
2011_EL,6.8,269587.2,130.2,0.6,305.3,13.4,-183862.0,-7.5,-13429.3,631959.1,1.8,0.6,8.8,5.1,44.7,-6.5,-3.7,67.3,-26.63,-15.83,22.8,-11.2,172.1,356235.0,-88.8,0.0,136.51,4
2011_ES,-1.0,2102416.0,196.4,1.2,459.8,19.7,-984142.0,-9.8,-40078.0,4921677.0,-2.5,0.3,8.9,6.9,46.2,-3.7,2.0,73.9,-16.81,-8.56,21.7,-3.8,69.5,744323.0,-91.9,-4.81,128.51,2
2011_FI,9.4,286195.0,145.4,-1.1,442.7,8.1,29724.3,0.0,6990.0,871477.0,-2.8,0.0,1.7,0.5,20.1,3.6,28.8,74.9,35.57,-23.46,3.6,0.3,48.5,95490.0,15.1,-32.0,103.94,2
2011_FR,5.4,2785447.0,135.3,0.3,591.7,9.2,-178415.0,4.0,131283.0,12179133.0,-4.4,-0.6,4.0,1.1,22.6,6.4,6.9,69.7,-6.25,-15.41,3.6,-0.7,87.8,1807957.0,-8.7,-18.85,108.42,2
2011_HU,4.3,32414710.0,114.5,1.2,342.3,10.7,-29926540.0,-6.9,-1250061.0,96883194.0,-4.2,-0.5,5.2,1.6,26.0,-4.4,6.2,62.4,8.25,-2.38,6.5,0.1,80.5,22780457.0,-105.7,-4.4,98.42,2
2011_IE,-13.7,468846.0,274.5,-3.6,2107.9,14.2,-237975.9,-17.8,28108.0,3607447.0,-9.6,-1.0,8.8,7.1,29.6,16.5,-2.3,71.2,5.82,-10.25,16.1,-2.5,110.9,189726.8,-139.1,-19.99,92.29,4
2011_IT,5.3,2009627.0,122.7,-0.8,332.9,8.2,-298999.0,-1.5,51187.0,5450460.0,-3.2,0.1,4.3,1.3,29.2,3.1,5.1,62.1,-29.05,-19.27,8.0,-2.8,116.5,1907996.3,-18.3,-16.79,124.95,2
2011_LT,-7.8,20219.8,64.7,3.0,117.0,15.7,-16486.1,2.4,-686.5,36598.5,1.7,0.6,8.0,6.7,32.6,-2.2,2.0,71.4,1.83,29.55,19.3,-1.5,37.2,11629.2,-52.7,37.24,92.74,0
2011_LU,8.8,122696.2,284.3,1.1,16439.0,4.8,12477.0,0.7,9233.7,7095835.3,0.1,0.8,1.4,-0.2,16.4,21.4,10.9,67.9,-4.52,-3.78,-0.9,6.6,18.7,8074.5,28.9,-5.78,86.55,0
2011_LV,-21.0,23411.0,115.3,-1.4,186.7,17.7,-15036.0,4.1,-412.6,37903.6,-2.4,0.8,8.8,6.9,31.0,-2.0,-4.1,72.8,4.78,26.58,17.4,2.2,43.1,8754.4,-74.4,37.98,92.52,0
2011_MT,11.1,10926.9,159.9,2.7,3055.8,6.7,428.4,-3.5,368.8,209016.7,-5.0,-0.7,3.0,0.4,13.3,5.4,11.0,61.8,41.91,17.67,1.6,-5.6,70.2,4796.6,6.3,-22.6,95.13,0
2011_NL,5.3,1607956.0,247.2,0.3,1331.8,4.8,130891.0,-4.0,53398.0,8661486.0,-2.4,-0.3,1.6,0.4,10.0,8.2,10.3,78.1,-5.95,-8.31,1.4,7.0,61.7,401269.0,20.1,-8.87,114.1,0
2011_PL,4.2,1158155.0,73.9,1.9,143.7,9.2,-977907.0,-4.6,103793.0,2251923.0,-11.4,-2.3,3.6,1.2,25.8,6.6,4.7,65.7,19.26,15.18,8.6,-4.8,54.1,847708.0,-62.4,14.37,108.3,0
2011_PT,-0.6,359605.9,204.1,-0.3,538.6,11.9,-177446.0,-6.4,-1629.7,948903.5,-3.0,0.7,6.2,2.6,30.2,-0.9,-4.5,73.6,-3.71,-8.6,8.6,-8.9,111.4,196231.4,-100.7,-10.92,106.12,4
2011_RO,2.2,411897.8,73.7,1.2,108.6,6.9,-369585.0,-15.6,15605.6,607584.9,-3.2,2.9,2.9,0.5,23.9,2.8,4.6,64.1,-35.14,49.98,6.3,-4.9,34.2,191035.3,-66.1,108.08,114.69,4
2011_SE,5.6,7005184.0,191.3,0.6,478.0,8.2,-310017.0,0.8,251521.0,17500967.0,3.2,4.1,1.5,0.7,22.8,6.9,2.8,79.9,-1.21,-12.17,2.6,5.8,37.8,1384883.0,-8.5,-15.34,78.14,2
2011_SI,8.3,41691.0,113.0,-1.5,202.6,7.1,-14736.5,0.9,152.0,74747.0,-1.1,-0.7,3.6,1.7,15.7,0.4,-1.2,70.3,0.1,-5.59,5.3,-0.9,46.6,17203.6,-39.9,-6.81,124.24,2
2011_SK,6.1,49593.2,70.2,-0.1,133.5,13.4,-45512.3,-5.2,2111.5,94316.6,3.4,1.1,9.2,2.6,33.7,3.0,0.3,68.7,-35.2,-2.74,14.4,-4.4,43.7,30846.9,-64.4,2.3,99.72,0
2011_UK,6.7,2934711.0,178.5,-0.3,1414.1,7.8,-186523.0,-5.0,26538.0,23256276.0,-7.8,0.5,2.7,1.3,21.3,1.6,10.4,75.5,-23.45,-25.7,6.3,-3.0,80.8,1328779.0,-11.3,-27.51,90.84,2
2012_AT,3.8,408450.0,128.2,0.8,484.3,4.8,-10154.0,4.8,3781.5,1543115.1,-4.7,-1.8,1.2,0.0,9.4,1.2,0.4,75.1,-17.45,-21.7,-1.3,2.0,81.9,261040.8,-3.2,-22.96,92.67,0
2012_BE,5.4,733416.9,189.3,0.0,559.8,7.7,200554.0,0.3,51332.6,2169220.9,-4.3,-2.3,3.4,-0.1,19.8,13.2,-5.1,66.9,7.48,-15.53,-2.1,0.2,104.3,404289.4,51.8,-21.45,99.74,2
2012_BG,12.2,102533.0,125.0,-0.1,167.8,11.3,-63898.6,-5.3,2468.0,137672.0,-4.0,-2.1,6.8,3.8,28.1,3.0,10.2,67.1,-29.74,-0.99,13.0,-0.7,16.7,13700.3,-77.9,13.29,96.62,2
2012_CZ,3.8,2869270.0,70.7,1.5,176.1,7.0,-1864093.0,-3.6,118076.0,7147743.0,0.5,-2.8,3.0,1.0,19.5,2.9,5.2,71.6,-0.31,-4.45,2.9,-2.4,44.5,1805429.0,-45.9,-5.34,95.33,0
2012_DE,2.7,2806950.0,101.8,0.9,485.7,6.1,787230.0,2.0,35005.0,13398237.0,-9.0,-3.3,2.4,-1.1,8.0,1.3,3.3,77.2,-7.02,-16.73,-3.1,6.3,80.7,2225203.8,28.5,-18.49,92.1,0
2012_DK,-0.2,4244903.0,224.0,-1.6,779.7,7.5,684239.0,-4.9,150302.0,14775965.0,-7.8,-2.9,2.1,1.5,14.1,7.9,2.5,78.6,-17.0,-17.7,2.3,6.5,44.9,850746.0,36.1,-17.41,88.3,2
2012_EE,0.0,21135.3,117.8,0.8,172.3,13.0,-9170.1,3.2,1227.7,30896.6,-3.6,-0.9,5.5,1.8,20.9,6.8,10.5,74.8,-0.7,6.79,-6.5,0.4,9.7,1745.5,-51.1,11.07,77.23,0
2012_EL,-2.3,251431.1,131.5,0.1,322.5,18.4,-221569.0,-12.1,-11186.9,616701.1,-5.0,-4.5,14.5,10.6,55.3,-5.9,-2.4,67.5,-36.09,-25.26,29.6,-8.4,159.6,305085.0,-115.9,-6.99,120.03,4
2012_ES,-5.1,1955123.0,188.0,1.2,474.8,22.0,-934535.0,-16.8,-116938.0,4936620.0,-5.3,-2.4,11.0,6.7,52.9,-11.2,0.3,74.3,-20.43,-18.22,15.2,-2.4,85.7,891502.0,-89.9,-16.84,106.97,3
2012_FI,6.0,296886.0,148.6,0.2,430.3,8.0,23406.2,-0.5,14266.0,859641.0,-8.3,-2.6,1.6,0.2,19.0,7.1,-1.4,75.2,36.81,-31.67,-2.5,-1.0,53.9,107708.0,11.7,-41.26,103.45,2
2012_FR,4.1,2889072.0,138.3,0.5,591.4,9.4,-267763.0,-2.0,88584.0,12353518.0,-7.8,-3.2,4.1,0.8,24.4,4.2,1.4,70.3,-6.42,-18.28,0.8,-0.8,90.6,1892540.0,-12.8,-22.33,106.3,2
2012_HU,5.0,29288794.0,101.8,2.5,317.0,11.1,-26953287.0,-9.3,-1755701.0,91222943.0,-0.8,-1.9,5.0,0.8,28.2,-6.1,-5.8,63.7,-5.8,-21.31,1.8,0.9,78.4,22556631.0,-93.6,-24.3,89.24,2
2012_IE,-9.9,489941.0,279.8,-1.9,2021.9,15.2,-241241.0,-14.8,-1027.0,3542735.0,-12.2,-4.4,9.2,5.7,30.8,-0.6,-1.8,71.1,-0.67,-18.32,6.3,-2.1,119.9,210022.3,-137.7,-27.86,78.63,4
2012_IT,2.1,2018718.0,125.1,1.2,362.4,9.2,-358220.0,-5.1,-13396.0,5846061.0,-6.2,-1.9,5.6,2.2,35.3,-0.8,7.3,63.5,-27.55,-25.63,10.0,-2.2,123.4,1990140.4,-22.2,-25.21,118.6,2
2012_LT,-4.2,20367.4,61.1,2.2,108.9,15.5,-17878.2,-3.2,124.8,36328.4,-6.7,-2.0,6.6,3.3,26.7,0.4,-0.7,71.8,13.01,32.33,-2.9,-2.4,39.8,13264.1,-53.6,37.39,89.74,0
2012_LU,5.9,133971.4,303.7,0.7,18530.4,4.8,22472.0,2.1,11408.6,8174150.8,-2.4,-1.6,1.6,0.4,18.0,25.9,15.2,69.4,-5.59,-6.2,1.5,6.1,22.0,9699.7,50.9,-1.29,88.35,0
2012_LV,-6.9,21428.8,97.9,0.9,182.2,16.9,-14834.0,-0.4,-454.5,39875.6,-8.6,-1.5,7.8,3.3,28.5,-2.1,5.2,74.4,-13.65,7.94,-4.8,-1.6,41.6,9111.6,-67.2,20.5,92.19,0
2012_MT,8.6,10981.4,153.2,4.5,3092.9,6.5,1404.6,0.4,-47.9,221699.1,-7.6,-2.0,3.0,0.1,13.8,-0.7,6.1,63.9,30.81,12.21,-0.7,-2.9,67.7,4855.1,19.6,-15.99,95.5,2
2012_NL,2.6,1646204.0,252.1,0.9,1405.6,5.3,174288.0,-7.9,40136.0,9177810.0,-6.0,-1.8,1.9,0.8,11.7,6.1,6.0,79.0,-8.98,-12.8,1.5,8.6,66.2,432428.0,26.7,-13.71,105.12,2
2012_PL,5.3,1196643.0,73.4,1.8,153.0,9.8,-1064732.0,-6.6,77865.0,2492477.0,1.4,-2.2,4.1,1.6,26.5,4.8,10.7,66.5,0.68,1.42,5.9,-4.8,53.7,875260.0,-65.3,1.54,101.1,0
2012_PT,-6.3,354222.3,210.3,0.0,546.8,13.6,-196233.0,-8.8,-6528.8,920876.4,-4.0,-1.6,7.7,3.5,38.0,-3.9,-3.0,73.4,-13.46,-16.62,12.7,-6.0,126.2,212556.0,-116.5,-17.6,96.81,4
2012_RO,6.8,427985.1,72.1,1.7,106.8,7.0,-401364.0,-9.1,1792.4,634292.4,-2.0,-6.1,3.0,0.8,22.6,0.3,4.4,64.8,-24.84,12.33,2.6,-5.0,37.0,219761.5,-67.6,28.56,104.31,4
2012_SE,4.0,7121403.0,193.1,1.4,500.3,8.1,-580404.0,0.7,91402.0,18456564.0,10.3,-0.7,1.5,0.4,23.7,2.5,5.5,80.3,-6.06,-19.49,-1.3,5.7,38.1,1403632.0,-15.7,-23.27,78.66,2
2012_SI,0.6,40512.0,112.3,-1.4,205.7,8.1,-15958.3,-8.4,-1041.0,74212.0,-4.5,-1.2,4.3,2.5,20.6,-2.9,-0.7,70.4,-10.54,-20.83,7.0,-0.1,53.8,19404.0,-44.2,-23.05,113.8,3
2012_SK,0.8,52204.5,71.8,1.0,130.7,14.1,-44671.1,-6.0,2236.3,95021.6,-3.2,0.0,9.4,2.9,34.0,3.1,0.7,69.4,-30.32,-10.27,6.4,-2.9,52.2,37925.7,-61.4,-7.86,93.78,0
2012_UK,3.0,3023073.0,178.4,0.4,1324.0,7.9,-482037.0,-1.7,28975.0,22434412.0,6.0,4.4,2.7,0.8,21.2,1.7,-3.5,76.1,-21.4,-20.95,2.1,-3.0,84.1,1424798.0,-28.4,-19.75,89.29,2
2013_AT,6.4,411587.2,127.1,1.1,461.1,5.0,4189.0,3.0,3120.0,1493546.2,0.7,2.1,1.3,0.1,9.7,1.0,-3.2,75.5,-16.29,-18.44,0.2,1.7,81.3,263229.5,1.3,-19.48,95.44,0
2013_BE,8.3,663715.7,169.2,-0.2,557.8,7.7,203800.0,0.4,32127.4,2188507.7,-0.2,1.5,3.9,-0.1,23.7,8.2,0.9,67.5,-4.53,-13.06,1.3,-0.5,105.5,413730.2,51.9,-15.91,100.1,2
2013_BG,16.0,108339.0,132.3,1.7,175.3,12.2,-60244.7,0.4,5947.0,143539.0,-0.9,0.1,7.4,2.7,28.4,7.3,4.3,68.4,-33.86,-0.17,6.5,0.3,17.1,13978.1,-73.6,15.63,96.99,2
2013_CY,-2.6,61692.6,340.1,0.0,1598.0,11.9,-25167.0,-3.9,-2407.8,289887.7,-0.8,1.1,6.1,4.8,38.9,-13.3,-15.3,73.6,-18.92,-15.27,22.3,-5.0,103.1,18706.4,-138.7,-9.43,100.77,4
2013_CZ,4.2,3019209.0,73.7,2.7,194.3,6.9,-1695149.0,-0.8,179733.0,7963007.0,-3.1,-2.2,3.0,0.0,18.9,4.4,11.4,72.9,-17.34,-9.79,0.6,-1.4,44.9,1840412.0,-41.4,-8.19,94.56,0
2013_DE,5.9,2903443.0,102.7,0.9,444.5,5.5,974741.0,2.1,57116.0,12561910.0,-1.8,2.2,2.3,-1.0,7.8,2.0,-6.2,77.6,-7.51,-13.01,-2.0,6.6,78.2,2210738.9,34.5,-13.84,94.01,2
2013_DK,1.5,4170603.0,216.1,-1.3,779.4,7.4,718686.0,3.1,-58540.0,15040150.0,-2.5,1.0,1.8,0.3,13.0,-3.0,1.8,78.1,-21.25,-17.82,-0.9,6.9,44.0,849938.0,37.2,-16.37,91.0,1
2013_EE,9.1,21935.1,115.9,1.2,180.2,10.3,-9478.7,7.5,669.4,34121.1,3.1,2.9,3.8,-3.8,18.7,3.5,10.4,75.1,-4.66,9.68,-14.2,0.0,10.2,1923.7,-50.1,16.88,83.04,0
2013_EL,-10.0,235418.0,130.3,-0.3,281.3,23.3,-235606.0,-9.1,-8665.5,508214.0,-4.4,-0.6,18.5,12.8,58.3,-4.8,-17.6,67.5,-39.22,-25.7,25.3,-5.3,177.4,320498.0,-130.4,-6.4,109.06,4
2013_ES,-4.1,1817396.0,177.2,0.8,436.4,24.1,-976711.0,-10.0,-105621.0,4476135.0,-0.3,1.9,13.0,5.7,55.5,-10.3,-9.3,74.3,-21.5,-11.23,14.0,-0.6,95.5,979031.0,-95.2,-6.77,96.24,2
2013_FI,9.1,300393.0,147.7,0.7,373.8,7.9,7833.6,-1.2,5657.0,760129.0,0.2,2.9,1.7,-0.3,19.9,2.8,-11.6,75.2,-7.56,-31.44,-1.5,-2.1,56.5,114801.0,3.9,-36.86,102.19,2
2013_FR,4.6,2909122.0,137.4,0.9,586.3,9.8,-350487.0,-2.6,44167.0,12413707.0,-2.2,1.6,4.4,0.5,24.9,2.1,0.5,70.7,-4.8,-14.24,1.6,-0.8,93.4,1977734.0,-16.6,-18.25,103.54,2
2013_HR,-4.0,390627.9,117.7,-1.4,196.1,15.6,-293119.0,-5.8,-2038.4,650613.2,-3.9,1.2,11.0,4.4,49.9,-0.6,3.0,63.7,-31.18,-23.33,17.6,0.0,80.4,266752.8,-88.3,-14.63,103.59,3
2013_HU,6.2,28786841.0,95.2,2.8,297.6,10.7,-25145514.6,-4.3,-283508.0,90020693.0,-3.8,-1.4,4.9,-0.6,26.6,-0.9,-1.3,64.7,-9.73,-22.81,0.2,2.1,77.2,23345323.0,-83.1,-25.32,85.38,2
2013_IE,-0.7,481665.0,268.1,0.2,2007.4,14.9,-239757.0,-0.5,-2542.0,3611739.0,-3.8,1.6,8.0,1.1,26.7,-1.4,1.9,71.8,4.83,-10.59,-1.4,-1.2,119.7,215337.8,-133.3,-21.67,78.24,2
2013_IT,2.9,1951908.0,121.6,1.4,354.4,10.4,-363506.0,-7.5,-47669.0,5686570.0,0.1,1.9,6.9,2.9,40.0,-3.0,-2.7,63.4,-21.01,-20.2,12.1,-0.8,129.0,2070269.9,-22.7,-19.96,109.65,3
2013_LT,6.2,19693.3,56.3,2.2,102.5,13.5,-16448.5,0.2,-146.7,35824.4,-0.6,0.9,5.1,-2.3,21.9,-0.4,-1.4,72.4,15.75,19.27,-13.8,-1.7,38.8,13550.6,-47.1,20.16,89.93,0
2013_LU,7.6,145701.5,313.3,1.7,19395.8,5.3,25081.0,3.3,12935.4,9018954.4,0.8,1.6,1.8,0.5,16.9,27.8,10.3,69.9,8.02,7.4,1.1,5.7,23.7,11009.6,53.9,-1.64,91.26,1
2013_LV,8.1,21103.0,92.6,1.0,184.1,14.4,-15156.0,6.5,194.2,41956.1,-1.7,-1.0,5.7,-3.1,23.2,0.9,5.2,74.0,-21.12,5.87,-13.0,-3.2,39.4,8984.3,-66.4,21.49,98.21,0
2013_MT,9.8,10994.9,143.8,5.9,2946.2,6.2,2060.3,-1.4,209.1,225138.5,-1.2,1.5,2.8,-0.3,12.7,2.7,1.6,66.3,1.6,-0.64,-0.5,-0.8,68.4,5226.6,27.0,-12.81,94.14,1
2013_NL,4.8,1702342.0,257.7,1.5,1367.4,6.0,202572.0,-7.9,63992.0,9031495.0,0.5,2.7,2.5,1.2,13.2,9.7,-1.6,79.4,-11.21,-11.36,2.1,9.5,67.7,446944.0,30.7,-11.39,96.81,2
2013_PL,3.1,1249382.0,75.4,1.7,161.6,10.0,-1142247.0,-4.8,54108.0,2676757.0,-4.3,0.2,4.4,1.4,27.3,3.3,7.4,67.0,-4.66,-0.28,3.6,-3.4,55.7,922755.0,-68.9,0.81,96.29,0
2013_PT,-3.4,344546.1,202.4,-0.7,511.9,15.0,-197970.0,-2.7,-2644.1,871566.7,-0.6,0.3,9.3,3.6,38.1,-1.6,-5.4,73.0,-7.38,-7.47,9.9,-2.1,129.0,219714.8,-116.3,-7.99,94.22,4
2013_RO,-4.7,424457.4,66.8,0.0,100.6,7.0,-398917.0,-2.8,-9162.3,639179.4,0.5,4.0,3.2,0.8,23.7,-1.4,0.8,64.9,-10.75,13.74,1.6,-3.6,37.6,238882.3,-62.8,23.67,101.39,4
2013_SE,8.6,7372698.0,195.4,2.0,533.7,7.9,-605549.0,4.7,171241.0,20141197.0,5.1,1.7,1.4,-0.2,23.6,4.5,9.1,81.1,1.81,-17.21,-1.2,5.5,40.7,1535220.0,-16.0,-23.28,82.38,2
2013_SI,0.5,38860.0,107.2,-1.0,183.7,9.1,-14344.1,-7.2,-1454.0,66581.0,-0.6,1.4,5.2,2.0,21.6,-4.0,-10.3,70.5,-21.49,-18.22,6.9,1.3,70.4,25504.9,-39.6,-17.38,105.58,3
2013_SK,2.2,56999.6,76.9,1.2,130.3,14.0,-46212.1,-0.4,3807.9,96677.4,2.1,1.0,10.0,0.8,33.7,5.1,1.7,69.9,-20.39,-4.1,-0.2,-0.7,54.7,40600.0,-62.3,-1.58,93.4,0
2013_UK,3.3,3043409.0,172.8,1.0,1175.9,7.8,-317483.0,0.3,122455.0,20712536.0,3.4,-1.5,2.7,0.2,20.7,7.0,-7.7,76.4,-9.0,-11.96,0.8,-3.6,85.2,1499789.0,-18.0,-14.93,89.52,2
2014_AT,7.9,415800.6,124.8,0.8,444.7,5.3,11285.0,1.4,2938.7,1481380.6,1.9,1.7,1.5,0.3,10.3,0.9,-0.8,75.4,-12.89,-15.74,1.4,2.0,84.0,280001.0,3.4,-16.51,96.78,0
2014_BE,5.6,667416.0,166.8,1.0,565.0,8.2,180562.0,-1.1,-8216.5,2260373.4,-0.6,0.2,4.3,0.8,23.2,-2.1,3.3,67.7,-6.89,-13.41,4.5,-0.4,107.5,430185.6,45.1,-15.51,99.04,2
2014_BG,17.8,103395.0,123.4,3.1,181.0,12.2,-60544.8,1.5,-909.0,151616.0,-2.8,-0.8,6.9,0.6,23.8,-1.1,5.6,69.0,-25.51,5.59,-1.2,0.6,27.1,22723.6,-72.3,23.17,98.47,3
2014_CY,-8.0,62054.8,352.4,0.8,1586.2,14.6,-25885.0,-1.0,-57.7,279329.4,-1.7,-0.8,7.7,6.1,36.0,-0.3,-3.6,74.3,-20.24,-24.15,13.6,-5.1,108.0,19013.8,-147.0,-27.97,99.77,4
2014_CZ,4.0,3085841.0,71.5,3.0,194.1,6.7,-1577079.0,1.8,71558.0,8374722.0,-10.0,-5.2,2.7,0.0,15.9,1.7,5.2,73.5,-16.16,-6.24,-2.2,-0.6,42.2,1819098.0,-36.6,-4.57,96.3,0
2014_DE,6.7,2898735.0,98.6,0.4,447.1,5.2,1193745.0,2.2,2356.0,13137296.0,-0.4,0.8,2.2,-0.6,7.7,0.1,4.6,77.7,-7.87,-9.53,-0.8,6.9,75.3,2212280.4,40.6,-10.1,96.08,2
2014_DK,2.3,4239375.0,214.0,-1.2,814.7,7.0,858461.0,3.2,-5108.0,16140443.0,-1.2,0.8,1.7,-0.1,12.6,-0.3,7.3,78.1,-11.88,-15.89,-1.6,7.7,44.3,877067.0,43.3,-17.29,93.87,0
2014_EE,14.1,23287.2,116.1,0.5,192.5,8.7,-9425.5,12.6,1129.8,38608.6,4.8,2.8,3.3,-3.8,15.0,5.6,13.2,75.2,6.57,20.49,-7.4,-0.2,10.5,2108.4,-47.0,30.2,93.49,0
2014_EL,-10.4,230866.9,129.2,0.1,261.2,26.2,-235734.0,-5.1,-4918.6,466659.9,-5.6,-0.6,19.5,10.7,52.4,-2.8,-8.2,67.4,-25.02,-18.49,7.7,-2.5,178.9,319629.0,-131.9,-5.48,103.49,4
2014_ES,-3.4,1723724.0,166.1,0.3,432.5,25.1,-1016562.0,0.1,-70233.0,4488681.0,-1.0,-0.5,12.9,4.0,53.2,-6.8,0.3,74.2,-18.59,-12.29,7.0,0.8,100.4,1041624.0,-98.0,-8.71,96.35,2
2014_FI,7.8,307866.0,149.8,0.5,404.1,8.2,-6534.5,-1.7,3587.0,830335.0,2.7,2.5,1.9,0.2,20.5,1.7,9.2,75.4,-9.56,-26.39,0.4,-2.1,60.2,123696.0,-3.2,-30.87,100.5,2
2014_FR,4.4,3041653.0,141.5,1.3,609.5,10.1,-335699.0,-1.7,69792.0,13103562.0,-1.3,0.3,4.5,0.5,24.2,3.2,5.6,71.0,-2.49,-14.53,1.6,-0.8,94.9,2039884.0,-15.6,-19.05,101.8,3
2014_HR,-6.5,391307.3,118.0,2.0,197.4,16.8,-282784.0,-1.1,282.4,654554.1,-0.8,0.5,10.1,1.7,44.9,0.1,0.6,66.1,-25.47,-20.27,8.3,0.9,84.0,278493.5,-85.3,-10.56,102.47,3
2014_HU,5.7,29768869.0,91.4,4.6,299.5,9.6,-26159066.2,3.4,-28081.0,97579858.0,-6.8,-3.6,3.7,-1.5,20.4,-0.1,8.4,67.0,-7.85,-16.69,-5.6,2.3,76.7,24989251.0,-80.3,-18.82,88.25,2
2014_IE,-3.7,543540.0,279.0,0.6,2210.9,13.7,-320867.0,15.1,4958.0,4317763.0,-3.6,-0.8,6.6,-2.2,23.4,2.5,19.5,71.8,6.58,-14.64,-6.2,-0.3,104.1,203364.5,-164.3,-26.42,90.08,2
2014_IT,2.3,1930418.0,119.0,1.8,352.7,11.8,-341018.0,-5.0,-7693.0,5720573.0,0.2,0.3,7.7,3.4,42.7,-0.5,0.6,63.9,-19.25,-15.29,13.5,0.9,131.8,2137333.2,-21.0,-14.49,104.21,3
2014_LT,8.7,19717.4,53.9,2.3,113.8,12.0,-16492.1,6.3,96.7,41613.6,1.7,3.0,4.8,-3.2,19.3,0.3,16.2,73.7,30.46,33.64,-13.3,0.9,40.5,14827.1,-45.1,34.34,95.61,0
2014_LU,7.1,166750.1,334.7,2.9,19834.0,5.7,24296.0,3.9,14720.3,9882172.8,0.5,0.5,1.6,0.2,22.3,29.5,9.6,70.8,22.93,14.89,5.9,5.4,22.7,11330.5,48.8,1.55,94.79,0
2014_LV,16.3,22732.3,96.2,1.8,196.1,12.6,-15607.0,4.3,-2795.1,46314.6,0.4,2.9,4.6,-4.2,19.6,-11.8,10.4,74.6,-14.81,10.97,-11.4,-2.7,40.9,9668.5,-66.1,27.77,102.46,0
2014_MT,2.8,11491.1,135.1,6.0,2828.9,6.0,3659.9,2.1,327.3,239535.2,0.1,0.6,2.7,-0.3,11.7,3.8,6.4,67.8,-7.06,-12.48,-1.6,1.8,63.4,5390.0,43.0,-21.03,96.14,0
2014_NL,3.7,1794154.0,267.2,0.9,1452.9,6.8,322619.0,-0.1,28618.0,9756933.0,0.7,-0.1,2.9,1.3,12.7,4.3,8.0,79.0,-10.21,-11.35,2.7,9.5,67.9,455706.0,48.0,-11.67,96.72,2
2014_PL,2.9,1343117.0,78.1,2.2,156.7,9.8,-1188192.0,1.2,79412.0,2696016.0,-1.0,1.0,3.8,0.2,23.9,4.6,0.7,67.9,6.95,4.69,-1.9,-2.4,50.4,867345.0,-69.1,3.99,97.43,0
2014_PT,-2.7,329643.3,190.5,-0.4,465.7,15.4,-205329.0,3.9,-9784.4,805980.9,-1.8,-0.5,8.4,2.2,34.7,-5.7,-7.5,73.2,-5.2,-6.14,4.5,0.0,130.6,226040.5,-118.6,-5.87,97.92,3
2014_RO,6.7,414862.4,62.1,1.6,96.9,6.9,-383117.0,-3.1,-15786.5,647769.3,-1.0,1.4,2.8,-0.1,24.0,-2.4,1.3,65.7,16.59,20.13,0.1,-2.2,39.2,262195.3,-57.3,21.58,98.2,2
2014_SE,6.9,7674548.0,194.7,1.6,577.5,8.0,-90607.0,8.3,192109.0,22758209.0,-3.7,-4.6,1.4,-0.1,22.9,4.9,13.0,81.5,5.0,-9.63,0.1,5.1,45.5,1791624.0,-2.3,-14.49,89.2,2
2014_SI,0.0,36614.0,97.4,0.6,176.7,9.6,-14448.8,-6.6,-1767.0,66457.0,1.2,1.1,5.3,1.7,20.2,-4.7,-0.2,70.9,-16.38,-12.73,4.5,3.3,80.4,30219.9,-38.4,-11.82,98.61,2
2014_SK,1.8,62759.3,82.5,1.6,138.1,13.8,-48385.8,1.5,4356.4,105042.2,1.2,0.2,9.3,0.1,29.7,5.7,8.7,70.3,-4.84,1.88,-4.0,1.3,53.5,40725.0,-63.6,2.1,94.82,0
2014_UK,3.4,3062163.0,166.0,1.2,1177.4,7.2,-407147.0,6.0,124388.0,21714700.0,10.1,7.1,2.2,-0.5,17.0,6.7,4.8,76.7,-5.91,-9.63,-4.3,-4.6,87.0,1604788.0,-22.1,-10.87,94.85,2
2015_AT,6.2,427704.1,124.2,0.4,429.8,5.6,7610.0,3.3,7430.5,1479500.8,1.3,-2.4,1.7,0.5,10.6,2.2,-0.1,75.5,-12.28,-9.17,1.2,2.0,84.7,291687.7,2.2,-9.19,100.0,1
2015_BE,1.3,743623.8,180.9,0.7,564.4,8.5,188511.0,1.0,50927.2,2320408.9,-1.7,-3.4,4.4,1.0,22.1,12.4,2.7,67.6,-10.03,-11.9,2.3,-0.7,106.4,437176.1,45.9,-14.01,100.0,1
2015_BG,14.9,97835.0,110.5,2.2,181.8,11.2,-55822.8,1.6,-290.0,161054.0,-4.3,-3.6,5.6,-1.2,21.6,-0.3,6.2,69.3,-9.07,11.78,-6.5,0.8,26.2,23217.2,-63.0,18.93,100.0,3
2015_CY,-10.9,62724.3,353.5,0.4,1748.0,15.7,-25734.0,0.2,732.2,310203.8,-6.2,-6.5,6.8,3.2,32.8,4.1,11.1,73.9,-20.01,-12.25,5.1,-3.6,108.0,19164.0,-145.0,-17.53,100.0,3
2015_CZ,0.1,3131193.0,68.1,2.4,196.9,6.1,-1512936.0,3.8,15250.0,9051264.0,-8.2,-0.9,2.4,-0.6,12.6,0.3,8.1,74.0,-18.74,-2.19,-6.9,0.0,40.0,1836255.0,-32.9,2.44,100.0,0
2015_DE,5.4,2995297.0,98.2,0.4,443.5,4.9,1413508.0,4.1,98872.0,13520236.0,-1.5,-4.4,2.0,-0.4,7.2,3.2,2.9,77.6,-5.12,-3.2,-0.8,7.4,71.6,2181971.9,46.4,-1.87,100.0,2
2015_DK,2.2,4305784.0,211.4,-0.1,785.1,6.6,699441.0,6.5,58704.0,15986470.0,-1.7,-3.4,1.7,-0.4,10.8,2.9,-1.0,78.5,-18.38,-8.52,-3.3,8.3,39.8,809934.4,34.3,-5.99,100.0,0
2015_EE,13.2,23434.9,113.5,1.9,203.1,7.4,-8300.3,7.0,561.3,41945.2,5.8,0.1,2.4,-3.1,13.1,2.7,8.6,76.7,-3.14,7.38,-7.8,1.1,9.9,2034.9,-40.2,9.96,100.0,1
2015_EL,-9.7,224664.8,126.7,0.3,305.3,26.3,-240013.0,-3.4,-5009.8,538248.3,-5.6,-4.5,18.2,3.7,49.8,-2.8,15.3,67.8,-27.5,-15.41,-5.5,-1.5,175.9,311729.0,-135.4,-9.22,100.0,4
2015_ES,-0.3,1675888.0,155.0,0.0,407.9,24.2,-967287.0,3.8,-19013.0,4410576.0,-3.2,-4.5,11.4,0.4,48.3,-1.8,-1.7,74.3,-18.52,-4.06,-4.6,1.3,99.3,1073934.0,-89.5,0.97,100.0,2
2015_FI,3.4,320439.0,152.6,0.6,401.0,8.8,3252.0,-0.5,14518.0,841962.0,2.1,-3.2,2.3,0.7,22.4,6.9,1.4,75.8,-3.73,-21.62,3.4,-1.6,63.4,133206.0,1.5,-27.67,100.0,2
2015_FR,2.3,3139180.0,142.8,1.0,609.0,10.3,-284191.0,-1.8,100628.0,13388907.0,-2.9,-4.7,4.6,0.5,24.7,4.6,2.2,71.3,-4.37,-3.7,0.3,-0.6,95.6,2101255.0,-12.9,-5.47,100.0,3
2015_HR,-6.3,383695.8,113.0,3.0,196.5,16.9,-259360.0,-2.4,-4605.3,667472.9,0.1,-1.5,10.2,0.0,42.3,-1.4,2.0,66.9,-17.57,-6.16,0.1,2.4,83.7,284372.9,-76.4,-2.54,100.0,3
2015_HU,-0.6,29068619.0,84.6,4.9,285.0,8.2,-23222645.2,13.3,-874240.0,97985924.0,-7.2,-2.4,3.1,-1.9,17.3,-2.5,0.4,68.6,-9.7,-9.24,-10.9,2.7,76.7,26366346.0,-67.5,-8.67,100.0,1
2015_IE,-18.6,803116.0,305.6,1.0,1803.0,11.9,-521499.0,11.0,-6139.0,4732176.0,-6.4,-7.2,5.3,-3.9,20.2,-2.3,9.6,72.1,13.05,37.8,-10.6,2.3,76.8,201635.1,-198.7,49.33,100.0,2
2015_IT,1.6,1902225.0,115.1,0.5,350.7,12.2,-322858.0,-4.0,-23245.0,5795409.0,-2.4,-4.5,6.9,1.3,40.3,-1.4,1.3,64.0,-24.27,-9.31,5.0,1.4,131.6,2173428.0,-19.5,-4.91,100.0,3
2015_LT,11.8,20510.2,54.8,2.3,119.0,10.5,-16254.2,4.6,888.0,44530.1,4.2,0.3,3.9,-2.7,16.3,2.4,7.0,74.1,14.82,14.87,-10.4,0.6,42.6,15940.2,-43.4,15.32,100.0,0
2015_LU,2.6,178168.6,345.4,1.5,27943.8,6.1,16039.0,5.5,11846.4,14413123.9,-0.7,-2.7,1.9,0.3,16.6,23.0,45.8,70.9,23.08,28.69,-1.4,5.2,22.2,11446.9,31.1,-3.2,100.0,0
2015_LV,17.5,21626.0,88.9,1.3,213.6,10.9,-15453.0,-2.4,180.0,51959.0,2.5,0.6,4.5,-3.3,16.3,0.7,12.2,75.7,-6.62,12.46,-12.2,-1.6,36.8,8953.3,-63.5,19.56,100.0,0
2015_MT,-1.4,11667.6,120.8,4.9,2548.4,5.7,3607.4,4.0,261.8,242725.2,-2.8,-4.8,2.4,-0.6,11.6,2.7,1.3,68.8,4.77,9.06,-2.2,2.9,57.9,5586.2,37.4,-18.03,100.0,0
2015_NL,-0.4,1813098.0,262.8,0.6,1470.8,7.2,337602.0,3.4,74.0,10148934.0,-0.9,-3.4,3.0,1.1,11.3,0.0,4.0,79.6,5.6,-6.77,-0.4,8.2,64.6,446058.0,48.9,-10.62,100.0,2
2015_PL,0.2,1420410.0,78.9,1.6,153.4,8.9,-1117822.0,2.6,62502.0,2761319.0,-1.4,-2.6,3.0,-1.1,20.8,3.5,2.4,68.1,-0.62,9.15,-5.7,-1.3,51.3,923259.0,-62.1,12.22,100.0,0
2015_PT,0.5,322513.7,179.4,0.0,440.9,14.4,-203520.0,2.1,-3440.9,792830.4,-3.1,-2.9,7.2,-0.5,32.0,-1.9,-1.6,73.4,-4.52,1.63,-6.0,0.6,128.8,231512.6,-113.2,2.0,100.0,3
2015_RO,0.6,421374.6,59.1,1.3,94.6,6.9,-389169.0,1.8,1303.7,674188.0,2.7,-2.6,3.0,0.0,21.7,0.2,4.1,66.1,38.94,20.46,-0.9,-1.0,37.8,269151.3,-54.6,15.55,100.0,1
2015_SE,2.5,7913467.0,188.3,1.4,554.8,7.8,-167082.0,12.1,312544.0,23309138.0,-8.3,-5.5,1.5,0.0,20.4,7.4,2.4,81.7,5.1,-9.34,-3.3,4.6,44.2,1856324.0,-4.0,-15.74,100.0,2
2015_SI,-0.4,33711.0,86.7,1.4,164.7,9.6,-12115.4,1.4,-1939.0,64008.0,0.3,-2.1,4.7,0.4,16.3,-5.0,-3.7,71.8,-17.73,-4.64,-4.3,4.1,82.6,32087.4,-31.2,-0.69,100.0,2
2015_SK,2.1,65934.6,83.3,1.5,147.1,13.0,-50984.0,5.5,6481.1,116429.4,-1.2,-2.4,7.6,-1.8,26.5,8.2,10.8,70.9,-0.98,4.14,-7.5,0.4,52.2,41295.0,-64.4,7.01,100.0,0
2015_UK,2.4,3123700.0,164.8,0.8,1047.6,6.3,-381025.0,5.4,62698.0,19860412.0,10.7,4.9,1.6,-1.1,14.6,3.3,-8.5,76.9,-0.12,1.98,-6.6,-5.0,87.9,1665979.0,-20.1,-2.37,100.0,1
2016_AT,5.3,442226.5,124.1,0.7,404.3,5.8,13033.0,7.0,12231.5,1440426.2,0.9,1.7,1.9,0.6,11.2,3.4,-2.6,76.2,-8.47,-3.36,1.5,2.2,83.0,295611.9,3.7,-3.41,107.03,0
2016_BE,-0.4,844398.1,198.9,0.1,559.3,8.3,242154.0,0.9,97557.2,2374675.9,-0.4,2.9,4.0,0.1,20.1,23.0,2.3,67.6,-4.67,-2.45,-3.6,-0.8,106.1,450544.7,57.0,-3.36,100.92,0
2016_BG,9.1,98673.0,104.8,0.3,190.2,9.4,-46281.6,7.1,3895.0,179022.0,-4.7,-0.4,4.5,-2.9,17.2,4.1,11.2,68.7,1.27,8.12,-11.2,1.3,29.6,27858.2,-49.2,9.71,107.13,3
2016_CY,-6.9,62459.6,337.8,-0.2,1708.7,14.7,-22746.0,1.7,1801.1,315935.4,-7.4,-0.2,5.8,-0.3,29.1,9.7,1.8,73.4,-11.76,-2.16,-9.8,-3.6,105.5,19509.2,-123.0,-22.3,101.69,3
2016_CZ,2.7,3276106.0,68.7,2.1,220.7,5.1,-1283097.0,6.7,207088.0,10524787.0,-3.7,2.5,1.7,-1.3,10.5,4.3,16.3,75.0,-14.24,2.39,-8.4,0.7,36.8,1754883.0,-26.9,7.8,106.67,0
2016_DE,4.7,3111864.0,98.5,0.3,449.6,4.6,1605467.0,6.8,115871.0,14204845.0,-2.1,1.6,1.7,-0.6,7.1,3.7,5.1,77.9,0.54,1.96,-0.7,8.0,68.5,2165891.1,50.8,3.85,106.75,2
2016_DK,2.1,4400465.0,209.5,1.9,800.4,6.3,1145888.0,4.7,58477.0,16809268.0,-1.7,1.0,1.4,-0.4,12.0,2.8,5.1,80.0,-17.94,-2.96,-1.0,8.4,37.2,781229.7,54.6,0.67,104.7,0
2016_EE,12.0,24330.7,112.2,2.4,206.8,6.8,-8430.4,3.8,1307.6,44834.4,4.4,1.5,2.1,-1.7,13.4,6.0,6.9,77.5,-4.0,-0.11,-5.3,1.5,9.2,1986.8,-38.9,-1.54,103.82,0
2016_EL,-3.3,218799.4,124.0,0.7,257.7,25.0,-243271.0,-1.7,-3687.1,448993.5,-4.0,1.1,17.0,-1.5,47.3,-2.1,-16.6,68.2,-27.05,-11.22,-11.0,-1.4,178.5,315010.0,-137.8,-6.55,98.35,4
2016_ES,-0.5,1644224.0,147.0,-0.1,395.8,22.1,-954546.0,4.6,-13278.0,4427896.0,-4.3,0.7,9.5,-3.5,44.4,-1.2,0.4,74.2,-14.58,2.58,-11.1,1.5,99.0,1107220.0,-85.3,7.65,104.62,2
2016_FI,0.7,320960.0,148.5,0.7,404.8,9.0,18579.0,0.0,2958.0,874720.0,0.4,1.2,2.3,0.6,20.1,1.4,3.9,75.9,-2.29,-13.91,0.2,-1.1,63.0,136150.0,8.6,-19.26,100.04,1
2016_FR,1.7,3267751.0,146.3,0.7,627.8,10.3,-290561.0,0.8,155156.0,13990973.0,-3.2,1.3,4.6,0.2,24.6,6.9,4.5,71.4,-6.34,1.1,-0.3,-0.6,98.0,2188481.0,-13.0,1.05,100.81,3
2016_HR,-5.1,368877.5,105.0,1.9,196.3,15.6,-245661.0,2.1,-213.8,689537.7,0.0,1.1,6.6,-4.4,31.8,-0.1,3.3,65.6,-8.28,7.68,-18.1,3.0,80.5,282766.0,-69.9,8.92,102.12,3
2016_HU,3.8,27634740.0,77.9,5.4,329.8,6.5,-20840215.0,13.6,-1074411.0,116977633.0,-5.2,0.8,2.4,-2.5,12.9,-3.0,19.4,70.1,-3.27,-0.35,-13.7,3.4,76.0,26967177.0,-58.7,0.99,113.61,0
2016_IE,-17.7,774043.0,284.9,0.9,1758.7,10.1,-466388.0,6.6,-42697.0,4805403.0,-7.1,0.9,4.2,-3.8,16.8,-15.7,1.5,72.7,23.42,58.52,-9.9,0.4,73.5,200710.5,-170.7,73.87,106.61,2
2016_IT,1.6,1888670.0,111.8,1.5,356.3,12.1,-172705.0,0.1,-858.0,5988952.0,-3.4,0.8,6.7,-0.2,37.8,-0.1,3.3,64.9,-19.84,-3.26,-2.2,1.9,131.4,2220369.6,-10.2,2.01,100.1,3
2016_LT,15.3,21791.7,56.1,3.1,133.7,9.2,-16606.0,4.5,1716.0,51937.4,5.3,1.9,3.0,-2.1,14.5,4.4,16.6,75.5,18.99,5.02,-7.4,0.0,40.0,15524.5,-42.7,2.18,104.46,0
2016_LU,3.6,183762.2,344.8,0.1,28328.8,6.3,24997.0,5.6,12553.0,15100080.3,-1.5,0.7,2.2,0.4,19.1,23.6,4.8,70.0,18.66,31.37,2.2,5.1,20.7,11024.4,46.9,-5.14,105.59,0
2016_LV,16.9,22022.0,88.0,2.3,219.6,10.1,-14634.0,7.3,63.0,54982.0,4.8,1.2,4.0,-1.7,17.3,0.3,5.8,76.3,-6.96,9.24,-5.9,-0.2,40.3,10091.6,-58.4,13.56,107.31,0
2016_MT,-1.1,12569.1,121.5,4.3,2475.1,5.3,3661.5,4.8,1151.0,251967.4,-2.9,1.4,1.9,-0.9,10.7,11.1,3.8,70.6,13.06,22.47,-2.0,4.1,55.5,5739.9,35.4,-17.79,104.82,0
2016_NL,-0.3,1836736.0,259.3,0.3,1528.1,6.8,434580.0,4.4,27649.0,10824310.0,-2.3,1.2,2.5,0.0,10.8,3.9,6.7,79.7,1.31,-3.0,-2.4,7.6,61.9,438418.0,61.4,-4.44,104.39,2
2016_PL,2.5,1517931.0,81.6,1.8,161.8,7.6,-1145969.0,2.3,95604.0,3011205.0,-5.1,-3.5,2.2,-2.2,17.7,5.1,9.0,68.8,7.26,17.68,-9.6,-1.1,54.2,1009257.0,-61.6,21.29,102.27,0
2016_PT,0.1,315659.9,169.3,0.7,423.8,12.6,-196761.0,6.1,-3878.3,790304.6,-1.8,1.6,6.2,-3.1,28.2,-2.1,-0.3,73.7,-2.91,5.42,-9.9,0.3,129.2,240962.6,-105.5,5.1,106.06,3
2016_RO,9.5,425065.1,55.6,0.7,94.2,6.5,-375018.0,5.2,4430.2,720457.0,-2.6,-1.3,3.0,-0.2,20.6,0.6,6.9,65.6,45.32,23.16,-3.1,-1.3,37.3,285553.1,-49.0,17.77,105.21,0
2016_SE,2.5,8265986.0,188.5,1.0,581.2,7.4,4278.0,7.6,352473.0,25488179.0,-9.2,0.8,1.3,-0.1,18.9,8.0,9.3,82.1,-1.58,-7.59,-4.7,4.2,42.4,1857761.0,0.1,-12.04,107.55,2
2016_SI,0.9,32513.0,80.6,1.1,163.7,8.9,-11646.3,3.8,-318.0,66072.0,-0.6,0.5,4.3,-0.9,15.2,-0.8,3.2,71.6,-8.34,3.66,-6.4,4.6,78.7,31753.4,-28.9,7.52,103.77,2
2016_SK,3.1,73493.9,90.5,2.0,155.5,11.5,-54112.4,7.0,7727.6,126278.2,-1.6,0.5,5.8,-4.2,22.2,9.5,8.5,71.9,11.98,7.95,-11.5,-0.9,51.8,42053.2,-66.6,11.21,107.02,0
2016_UK,3.0,3347685.0,170.0,0.9,1126.8,5.4,-47452.0,5.4,226509.0,22192968.0,0.2,-10.9,1.3,-1.4,13.0,11.5,11.7,77.3,-2.71,0.91,-7.7,-5.0,87.9,1731392.0,-2.4,-5.57,105.4,0
2017_AT,3.7,453222.8,122.5,1.0,396.5,5.7,13792.0,3.5,15768.4,1466702.4,0.1,0.9,1.8,0.3,9.8,4.3,1.8,76.4,-3.09,2.04,-0.5,2.1,78.2,289253.2,3.7,2.1,110.82,0
2017_BE,1.1,822325.5,187.2,0.3,544.5,7.8,230059.0,1.7,-5632.5,2391240.1,0.9,1.5,3.5,-0.8,19.3,-1.3,0.7,68.0,-5.34,3.56,-3.9,-0.3,103.4,454112.2,52.4,5.34,102.67,0
2017_BG,13.6,101100.0,100.1,2.3,179.1,7.7,-45176.7,6.2,6253.0,180951.0,-3.3,0.6,3.4,-3.5,12.9,6.2,1.1,71.3,-1.08,18.96,-10.9,1.9,25.6,25904.2,-44.7,25.19,113.8,2
2017_CY,-2.5,61908.5,315.1,-0.4,1577.5,13.0,-23785.0,1.3,1693.7,308731.6,-6.6,0.1,4.5,-3.2,24.7,8.6,-2.3,73.9,1.11,6.63,-11.3,-5.0,95.8,18814.1,-121.1,-21.35,103.04,3
2017_CZ,5.9,3395808.0,67.3,2.4,256.3,4.0,-1263684.0,9.1,209634.0,12934068.0,5.3,3.6,1.0,-1.7,7.9,4.2,22.9,75.9,-5.52,8.66,-8.0,1.2,34.7,1749532.0,-25.0,13.22,116.33,0
2017_DE,5.1,3279545.0,100.1,0.5,450.8,4.2,1783108.0,4.5,160691.0,14774825.0,-2.0,0.9,1.6,-0.6,6.8,4.9,4.0,78.2,4.3,5.83,-0.9,8.3,64.5,2115396.7,54.4,7.41,111.53,2
2017_DK,2.4,4392337.0,201.7,0.7,808.6,6.0,1207796.0,3.3,2372.0,17612379.0,-2.2,0.3,1.3,-0.4,11.0,0.1,4.8,78.8,-16.66,0.21,-1.6,8.0,35.5,772862.0,55.5,5.98,108.16,0
2017_EE,12.4,25123.3,106.4,3.6,208.2,6.3,-7416.9,1.8,842.9,49167.9,2.9,1.3,1.9,-1.4,12.1,3.6,9.7,78.8,-4.43,2.28,-2.9,2.3,9.2,2176.7,-31.4,2.22,105.65,0
2017_EL,-1.0,209714.9,116.4,0.9,220.0,23.3,-253231.0,-1.6,-1400.4,391003.5,-2.9,0.6,15.6,-3.9,43.6,-0.8,-12.9,68.3,-9.92,-1.58,-8.8,-1.4,176.2,317485.0,-140.5,-5.6,96.77,4
2017_ES,0.0,1620707.0,139.0,-0.3,394.8,19.6,-973976.0,4.5,5605.0,4604427.0,-2.6,1.3,7.7,-5.2,38.6,0.5,4.0,73.9,-4.95,9.46,-14.6,1.8,98.1,1144425.0,-83.5,13.32,109.35,2
2017_FI,-3.5,326475.0,145.8,1.3,375.4,8.9,3070.0,1.0,16142.0,840398.0,-2.7,-0.6,2.1,0.2,20.1,7.2,-3.9,76.7,2.4,-4.61,-0.4,-0.7,61.3,137278.0,1.4,-8.73,101.0,0
2017_FR,1.5,3396939.0,148.0,0.5,636.7,10.0,-380863.0,2.2,160200.0,14591497.0,-3.0,0.5,4.2,-0.3,22.3,7.0,4.3,71.5,-6.59,2.5,-1.9,-0.5,98.4,2258656.0,-16.6,3.7,103.03,2
2017_HR,-4.3,358940.3,98.2,0.3,195.9,13.5,-228267.0,2.8,4411.9,716464.1,-0.1,0.3,4.6,-5.5,27.2,1.2,3.9,66.4,2.42,19.6,-17.7,3.6,77.8,284315.7,-62.4,23.43,104.96,3
2017_HU,6.7,27459172.0,71.6,4.2,280.7,5.4,-20336927.0,3.3,379775.0,107657971.0,0.0,1.7,1.7,-2.0,10.7,1.0,-8.0,71.2,9.61,11.05,-9.7,3.9,73.4,28158019.0,-53.0,11.83,117.31,0
2017_IE,-15.4,716596.0,241.2,0.9,1704.3,8.4,-496850.0,9.5,-22106.0,5012561.0,-6.2,0.1,3.0,-3.6,14.4,-7.4,4.3,72.7,47.11,71.49,-9.0,0.2,68.5,201367.8,-168.9,77.49,116.73,2
2017_IT,1.1,1905307.0,110.3,1.5,363.7,11.6,-109898.0,-2.3,36386.0,6244714.0,-3.2,0.5,6.5,-1.2,34.7,2.1,4.3,65.4,-14.25,1.75,-8.0,2.2,131.4,2269009.9,-6.4,6.65,97.83,3
2017_LT,16.0,23653.8,56.1,2.2,140.4,8.0,-15127.3,5.4,1558.3,59227.6,2.3,0.0,2.7,-2.1,13.3,3.7,14.0,75.9,29.35,9.41,-6.0,-0.7,39.4,16625.1,-35.9,4.83,110.07,0
2017_LU,7.1,174965.2,316.4,-0.6,26862.0,6.1,23829.0,3.9,-8278.8,14854547.9,-1.0,1.0,2.1,0.5,15.5,-15.0,-1.6,70.2,12.27,19.8,-6.8,5.1,23.0,12697.1,43.1,-16.42,109.76,0
2017_LV,14.7,22572.0,83.5,2.4,215.7,9.4,-15210.0,5.5,90.0,58313.0,1.6,-0.2,3.3,-1.3,17.0,0.3,6.1,77.0,-2.65,7.45,-2.6,0.6,40.0,10806.8,-56.3,9.38,113.25,0
2017_MT,1.3,13391.8,118.5,4.4,2368.7,4.7,7289.8,4.1,319.7,263863.1,-2.4,1.1,1.6,-1.1,10.6,2.8,4.7,72.2,19.35,25.21,-1.1,5.7,50.2,5682.6,64.5,-14.22,109.17,0
2017_NL,-0.1,1838463.0,249.1,0.7,1465.4,5.9,438408.0,6.1,27561.0,10816959.0,-1.8,0.5,1.9,-1.0,8.9,3.7,-0.1,79.7,10.61,1.61,-3.8,8.4,57.0,419778.0,59.4,-1.0,110.72,2
2017_PL,4.2,1519181.0,76.4,1.7,160.8,6.2,-1213112.0,2.2,55863.0,3199533.0,-3.5,2.7,1.5,-2.3,14.8,2.8,6.3,69.6,19.79,28.06,-9.1,-0.3,50.6,1005722.0,-61.0,30.89,104.53,0
2017_PT,3.5,317196.8,163.0,1.5,413.9,10.9,-204069.0,7.9,3963.5,805411.5,-0.8,0.6,4.5,-3.9,23.8,2.0,1.9,74.7,11.29,14.29,-10.9,0.4,124.8,242804.8,-104.9,11.46,114.39,2
2017_RO,13.5,436528.4,51.0,1.6,90.9,5.9,-409448.0,3.3,14307.3,778658.5,-5.6,-1.8,2.0,-0.8,18.3,1.7,8.1,67.3,54.66,36.63,-5.7,-2.2,35.2,301158.3,-47.8,31.08,108.67,0
2017_SE,3.8,8954765.0,195.6,1.0,594.3,7.0,202254.0,4.6,598558.0,27213894.0,-5.5,-0.7,1.2,-0.2,17.8,13.1,6.8,82.5,-3.75,-4.47,-5.1,3.6,40.8,1869076.0,4.4,-6.72,112.54,2
2017_SI,3.4,32506.0,75.6,3.3,161.5,7.9,-10421.4,6.2,364.0,69443.0,-2.1,-0.4,3.1,-2.2,11.2,0.8,5.1,74.2,4.36,18.19,-9.0,4.9,74.1,31859.1,-24.2,22.45,110.24,1
2017_SK,6.9,81568.5,96.1,1.8,175.5,9.8,-55630.9,4.4,5020.0,148886.9,-2.1,-0.2,5.1,-4.2,18.9,5.9,17.9,72.1,12.35,6.35,-10.8,-2.0,50.9,43231.1,-65.6,8.6,111.76,0
2017_UK,5.3,3516120.0,171.5,0.9,1064.7,4.8,-165555.0,2.4,167227.0,21822784.0,-10.8,-4.6,1.1,-1.1,12.1,8.2,-1.7,77.6,-7.48,-1.27,-4.9,-4.5,87.1,1786069.0,-8.1,-4.31,107.92,0
