age,sex,unit,geo,date,value
Y_LT25,T,PC_ACT,AT,1995-01-01,5.9
Y_LT25,T,PC_ACT,AT,1996-01-01,6.3
Y_LT25,T,PC_ACT,AT,1997-01-01,6.7
Y_LT25,T,PC_ACT,AT,1998-01-01,6.2
Y_LT25,T,PC_ACT,AT,1999-01-01,5.4
Y_LT25,T,PC_ACT,AT,2000-01-01,5.6
Y_LT25,T,PC_ACT,AT,2001-01-01,6.2
Y_LT25,T,PC_ACT,AT,2002-01-01,6.7
Y_LT25,T,PC_ACT,AT,2003-01-01,7.6
Y_LT25,T,PC_ACT,AT,2004-01-01,10.5
Y_LT25,T,PC_ACT,AT,2005-01-01,11.0
Y_LT25,T,PC_ACT,AT,2006-01-01,9.8
Y_LT25,T,PC_ACT,AT,2007-01-01,9.4
Y_LT25,T,PC_ACT,AT,2008-01-01,8.5
Y_LT25,T,PC_ACT,AT,2009-01-01,10.7
Y_LT25,T,PC_ACT,AT,2010-01-01,9.5
Y_LT25,T,PC_ACT,AT,2011-01-01,8.9
Y_LT25,T,PC_ACT,AT,2012-01-01,9.4
Y_LT25,T,PC_ACT,AT,2013-01-01,9.7
Y_LT25,T,PC_ACT,AT,2014-01-01,10.3
Y_LT25,T,PC_ACT,AT,2015-01-01,10.6
Y_LT25,T,PC_ACT,AT,2016-01-01,11.2
Y_LT25,T,PC_ACT,AT,2017-01-01,9.8
Y_LT25,T,PC_ACT,AT,2018-01-01,9.4
Y_LT25,T,PC_ACT,BE,1995-01-01,22.9
Y_LT25,T,PC_ACT,BE,1996-01-01,22.1
Y_LT25,T,PC_ACT,BE,1997-01-01,22.0
Y_LT25,T,PC_ACT,BE,1998-01-01,22.1
Y_LT25,T,PC_ACT,BE,1999-01-01,20.3
Y_LT25,T,PC_ACT,BE,2000-01-01,16.7
Y_LT25,T,PC_ACT,BE,2001-01-01,16.8
Y_LT25,T,PC_ACT,BE,2002-01-01,17.7
Y_LT25,T,PC_ACT,BE,2003-01-01,21.8
Y_LT25,T,PC_ACT,BE,2004-01-01,21.2
Y_LT25,T,PC_ACT,BE,2005-01-01,21.5
Y_LT25,T,PC_ACT,BE,2006-01-01,20.5
Y_LT25,T,PC_ACT,BE,2007-01-01,18.8
Y_LT25,T,PC_ACT,BE,2008-01-01,18.0
Y_LT25,T,PC_ACT,BE,2009-01-01,21.9
Y_LT25,T,PC_ACT,BE,2010-01-01,22.4
Y_LT25,T,PC_ACT,BE,2011-01-01,18.7
Y_LT25,T,PC_ACT,BE,2012-01-01,19.8
Y_LT25,T,PC_ACT,BE,2013-01-01,23.7
Y_LT25,T,PC_ACT,BE,2014-01-01,23.2
Y_LT25,T,PC_ACT,BE,2015-01-01,22.1
Y_LT25,T,PC_ACT,BE,2016-01-01,20.1
Y_LT25,T,PC_ACT,BE,2017-01-01,19.3
Y_LT25,T,PC_ACT,BE,2018-01-01,15.8
Y_LT25,T,PC_ACT,BG,1995-01-01,
Y_LT25,T,PC_ACT,BG,1996-01-01,
Y_LT25,T,PC_ACT,BG,1997-01-01,
Y_LT25,T,PC_ACT,BG,1998-01-01,
Y_LT25,T,PC_ACT,BG,1999-01-01,
Y_LT25,T,PC_ACT,BG,2000-01-01,33.7
Y_LT25,T,PC_ACT,BG,2001-01-01,38.2
Y_LT25,T,PC_ACT,BG,2002-01-01,35.4
Y_LT25,T,PC_ACT,BG,2003-01-01,26.6
Y_LT25,T,PC_ACT,BG,2004-01-01,24.3
Y_LT25,T,PC_ACT,BG,2005-01-01,21.0
Y_LT25,T,PC_ACT,BG,2006-01-01,18.3
Y_LT25,T,PC_ACT,BG,2007-01-01,14.1
Y_LT25,T,PC_ACT,BG,2008-01-01,11.9
Y_LT25,T,PC_ACT,BG,2009-01-01,15.1
Y_LT25,T,PC_ACT,BG,2010-01-01,21.9
Y_LT25,T,PC_ACT,BG,2011-01-01,25.0
Y_LT25,T,PC_ACT,BG,2012-01-01,28.1
Y_LT25,T,PC_ACT,BG,2013-01-01,28.4
Y_LT25,T,PC_ACT,BG,2014-01-01,23.8
Y_LT25,T,PC_ACT,BG,2015-01-01,21.6
Y_LT25,T,PC_ACT,BG,2016-01-01,17.2
Y_LT25,T,PC_ACT,BG,2017-01-01,12.9
Y_LT25,T,PC_ACT,BG,2018-01-01,12.7
Y_LT25,T,PC_ACT,CY,1995-01-01,
Y_LT25,T,PC_ACT,CY,1996-01-01,
Y_LT25,T,PC_ACT,CY,1997-01-01,
Y_LT25,T,PC_ACT,CY,1998-01-01,
Y_LT25,T,PC_ACT,CY,1999-01-01,
Y_LT25,T,PC_ACT,CY,2000-01-01,9.9
Y_LT25,T,PC_ACT,CY,2001-01-01,8.2
Y_LT25,T,PC_ACT,CY,2002-01-01,8.0
Y_LT25,T,PC_ACT,CY,2003-01-01,8.8
Y_LT25,T,PC_ACT,CY,2004-01-01,10.2
Y_LT25,T,PC_ACT,CY,2005-01-01,13.9
Y_LT25,T,PC_ACT,CY,2006-01-01,10.0
Y_LT25,T,PC_ACT,CY,2007-01-01,10.2
Y_LT25,T,PC_ACT,CY,2008-01-01,9.0
Y_LT25,T,PC_ACT,CY,2009-01-01,13.8
Y_LT25,T,PC_ACT,CY,2010-01-01,16.6
Y_LT25,T,PC_ACT,CY,2011-01-01,22.4
Y_LT25,T,PC_ACT,CY,2012-01-01,27.7
Y_LT25,T,PC_ACT,CY,2013-01-01,38.9
Y_LT25,T,PC_ACT,CY,2014-01-01,36.0
Y_LT25,T,PC_ACT,CY,2015-01-01,32.8
Y_LT25,T,PC_ACT,CY,2016-01-01,29.1
Y_LT25,T,PC_ACT,CY,2017-01-01,24.7
Y_LT25,T,PC_ACT,CY,2018-01-01,20.2
Y_LT25,T,PC_ACT,CZ,1995-01-01,7.8
Y_LT25,T,PC_ACT,CZ,1996-01-01,7.2
Y_LT25,T,PC_ACT,CZ,1997-01-01,8.6
Y_LT25,T,PC_ACT,CZ,1998-01-01,12.4
Y_LT25,T,PC_ACT,CZ,1999-01-01,17.0
Y_LT25,T,PC_ACT,CZ,2000-01-01,17.0
Y_LT25,T,PC_ACT,CZ,2001-01-01,16.6
Y_LT25,T,PC_ACT,CZ,2002-01-01,16.0
Y_LT25,T,PC_ACT,CZ,2003-01-01,17.6
Y_LT25,T,PC_ACT,CZ,2004-01-01,20.4
Y_LT25,T,PC_ACT,CZ,2005-01-01,19.3
Y_LT25,T,PC_ACT,CZ,2006-01-01,17.5
Y_LT25,T,PC_ACT,CZ,2007-01-01,10.7
Y_LT25,T,PC_ACT,CZ,2008-01-01,9.9
Y_LT25,T,PC_ACT,CZ,2009-01-01,16.6
Y_LT25,T,PC_ACT,CZ,2010-01-01,18.3
Y_LT25,T,PC_ACT,CZ,2011-01-01,18.1
Y_LT25,T,PC_ACT,CZ,2012-01-01,19.5
Y_LT25,T,PC_ACT,CZ,2013-01-01,18.9
Y_LT25,T,PC_ACT,CZ,2014-01-01,15.9
Y_LT25,T,PC_ACT,CZ,2015-01-01,12.6
Y_LT25,T,PC_ACT,CZ,2016-01-01,10.5
Y_LT25,T,PC_ACT,CZ,2017-01-01,7.9
Y_LT25,T,PC_ACT,CZ,2018-01-01,6.7
Y_LT25,T,PC_ACT,DE,1995-01-01,8.9
Y_LT25,T,PC_ACT,DE,1996-01-01,10.0
Y_LT25,T,PC_ACT,DE,1997-01-01,10.6
Y_LT25,T,PC_ACT,DE,1998-01-01,9.7
Y_LT25,T,PC_ACT,DE,1999-01-01,9.0
Y_LT25,T,PC_ACT,DE,2000-01-01,8.7
Y_LT25,T,PC_ACT,DE,2001-01-01,8.3
Y_LT25,T,PC_ACT,DE,2002-01-01,9.8
Y_LT25,T,PC_ACT,DE,2003-01-01,11.5
Y_LT25,T,PC_ACT,DE,2004-01-01,13.7
Y_LT25,T,PC_ACT,DE,2005-01-01,15.4
Y_LT25,T,PC_ACT,DE,2006-01-01,13.6
Y_LT25,T,PC_ACT,DE,2007-01-01,11.8
Y_LT25,T,PC_ACT,DE,2008-01-01,10.4
Y_LT25,T,PC_ACT,DE,2009-01-01,11.1
Y_LT25,T,PC_ACT,DE,2010-01-01,9.8
Y_LT25,T,PC_ACT,DE,2011-01-01,8.5
Y_LT25,T,PC_ACT,DE,2012-01-01,8.0
Y_LT25,T,PC_ACT,DE,2013-01-01,7.8
Y_LT25,T,PC_ACT,DE,2014-01-01,7.7
Y_LT25,T,PC_ACT,DE,2015-01-01,7.2
Y_LT25,T,PC_ACT,DE,2016-01-01,7.1
Y_LT25,T,PC_ACT,DE,2017-01-01,6.8
Y_LT25,T,PC_ACT,DE,2018-01-01,6.2
Y_LT25,T,PC_ACT,DK,1995-01-01,9.6
Y_LT25,T,PC_ACT,DK,1996-01-01,9.7
Y_LT25,T,PC_ACT,DK,1997-01-01,7.7
Y_LT25,T,PC_ACT,DK,1998-01-01,7.3
Y_LT25,T,PC_ACT,DK,1999-01-01,9.1
Y_LT25,T,PC_ACT,DK,2000-01-01,6.2
Y_LT25,T,PC_ACT,DK,2001-01-01,8.3
Y_LT25,T,PC_ACT,DK,2002-01-01,7.4
Y_LT25,T,PC_ACT,DK,2003-01-01,9.2
Y_LT25,T,PC_ACT,DK,2004-01-01,8.2
Y_LT25,T,PC_ACT,DK,2005-01-01,8.6
Y_LT25,T,PC_ACT,DK,2006-01-01,7.7
Y_LT25,T,PC_ACT,DK,2007-01-01,7.5
Y_LT25,T,PC_ACT,DK,2008-01-01,8.0
Y_LT25,T,PC_ACT,DK,2009-01-01,11.8
Y_LT25,T,PC_ACT,DK,2010-01-01,13.9
Y_LT25,T,PC_ACT,DK,2011-01-01,14.2
Y_LT25,T,PC_ACT,DK,2012-01-01,14.1
Y_LT25,T,PC_ACT,DK,2013-01-01,13.0
Y_LT25,T,PC_ACT,DK,2014-01-01,12.6
Y_LT25,T,PC_ACT,DK,2015-01-01,10.8
Y_LT25,T,PC_ACT,DK,2016-01-01,12.0
Y_LT25,T,PC_ACT,DK,2017-01-01,11.0
Y_LT25,T,PC_ACT,DK,2018-01-01,9.3
Y_LT25,T,PC_ACT,EE,1995-01-01,
Y_LT25,T,PC_ACT,EE,1996-01-01,
Y_LT25,T,PC_ACT,EE,1997-01-01,
Y_LT25,T,PC_ACT,EE,1998-01-01,
Y_LT25,T,PC_ACT,EE,1999-01-01,
Y_LT25,T,PC_ACT,EE,2000-01-01,23.9
Y_LT25,T,PC_ACT,EE,2001-01-01,22.2
Y_LT25,T,PC_ACT,EE,2002-01-01,17.9
Y_LT25,T,PC_ACT,EE,2003-01-01,20.9
Y_LT25,T,PC_ACT,EE,2004-01-01,23.9
Y_LT25,T,PC_ACT,EE,2005-01-01,15.1
Y_LT25,T,PC_ACT,EE,2006-01-01,12.1
Y_LT25,T,PC_ACT,EE,2007-01-01,10.1
Y_LT25,T,PC_ACT,EE,2008-01-01,12.0
Y_LT25,T,PC_ACT,EE,2009-01-01,27.4
Y_LT25,T,PC_ACT,EE,2010-01-01,32.9
Y_LT25,T,PC_ACT,EE,2011-01-01,22.4
Y_LT25,T,PC_ACT,EE,2012-01-01,20.9
Y_LT25,T,PC_ACT,EE,2013-01-01,18.7
Y_LT25,T,PC_ACT,EE,2014-01-01,15.0
Y_LT25,T,PC_ACT,EE,2015-01-01,13.1
Y_LT25,T,PC_ACT,EE,2016-01-01,13.4
Y_LT25,T,PC_ACT,EE,2017-01-01,12.1
Y_LT25,T,PC_ACT,EE,2018-01-01,11.9
Y_LT25,T,PC_ACT,EL,1995-01-01,
Y_LT25,T,PC_ACT,EL,1996-01-01,
Y_LT25,T,PC_ACT,EL,1997-01-01,
Y_LT25,T,PC_ACT,EL,1998-01-01,30.4
Y_LT25,T,PC_ACT,EL,1999-01-01,31.5
Y_LT25,T,PC_ACT,EL,2000-01-01,29.1
Y_LT25,T,PC_ACT,EL,2001-01-01,28.0
Y_LT25,T,PC_ACT,EL,2002-01-01,26.8
Y_LT25,T,PC_ACT,EL,2003-01-01,26.8
Y_LT25,T,PC_ACT,EL,2004-01-01,26.5
Y_LT25,T,PC_ACT,EL,2005-01-01,25.8
Y_LT25,T,PC_ACT,EL,2006-01-01,25.0
Y_LT25,T,PC_ACT,EL,2007-01-01,22.7
Y_LT25,T,PC_ACT,EL,2008-01-01,21.9
Y_LT25,T,PC_ACT,EL,2009-01-01,25.7
Y_LT25,T,PC_ACT,EL,2010-01-01,33.0
Y_LT25,T,PC_ACT,EL,2011-01-01,44.7
Y_LT25,T,PC_ACT,EL,2012-01-01,55.3
Y_LT25,T,PC_ACT,EL,2013-01-01,58.3
Y_LT25,T,PC_ACT,EL,2014-01-01,52.4
Y_LT25,T,PC_ACT,EL,2015-01-01,49.8
Y_LT25,T,PC_ACT,EL,2016-01-01,47.3
Y_LT25,T,PC_ACT,EL,2017-01-01,43.6
Y_LT25,T,PC_ACT,EL,2018-01-01,39.9
Y_LT25,T,PC_ACT,ES,1995-01-01,39.8
Y_LT25,T,PC_ACT,ES,1996-01-01,39.2
Y_LT25,T,PC_ACT,ES,1997-01-01,36.1
Y_LT25,T,PC_ACT,ES,1998-01-01,32.4
Y_LT25,T,PC_ACT,ES,1999-01-01,26.4
Y_LT25,T,PC_ACT,ES,2000-01-01,23.2
Y_LT25,T,PC_ACT,ES,2001-01-01,21.1
Y_LT25,T,PC_ACT,ES,2002-01-01,22.2
Y_LT25,T,PC_ACT,ES,2003-01-01,22.7
Y_LT25,T,PC_ACT,ES,2004-01-01,22.0
Y_LT25,T,PC_ACT,ES,2005-01-01,19.6
Y_LT25,T,PC_ACT,ES,2006-01-01,17.9
Y_LT25,T,PC_ACT,ES,2007-01-01,18.1
Y_LT25,T,PC_ACT,ES,2008-01-01,24.5
Y_LT25,T,PC_ACT,ES,2009-01-01,37.7
Y_LT25,T,PC_ACT,ES,2010-01-01,41.5
Y_LT25,T,PC_ACT,ES,2011-01-01,46.2
Y_LT25,T,PC_ACT,ES,2012-01-01,52.9
Y_LT25,T,PC_ACT,ES,2013-01-01,55.5
Y_LT25,T,PC_ACT,ES,2014-01-01,53.2
Y_LT25,T,PC_ACT,ES,2015-01-01,48.3
Y_LT25,T,PC_ACT,ES,2016-01-01,44.4
Y_LT25,T,PC_ACT,ES,2017-01-01,38.6
Y_LT25,T,PC_ACT,ES,2018-01-01,34.3
Y_LT25,T,PC_ACT,FI,1995-01-01,29.7
Y_LT25,T,PC_ACT,FI,1996-01-01,28.0
Y_LT25,T,PC_ACT,FI,1997-01-01,25.2
Y_LT25,T,PC_ACT,FI,1998-01-01,23.5
Y_LT25,T,PC_ACT,FI,1999-01-01,21.4
Y_LT25,T,PC_ACT,FI,2000-01-01,21.4
Y_LT25,T,PC_ACT,FI,2001-01-01,19.8
Y_LT25,T,PC_ACT,FI,2002-01-01,21.0
Y_LT25,T,PC_ACT,FI,2003-01-01,21.8
Y_LT25,T,PC_ACT,FI,2004-01-01,20.7
Y_LT25,T,PC_ACT,FI,2005-01-01,20.1
Y_LT25,T,PC_ACT,FI,2006-01-01,18.7
Y_LT25,T,PC_ACT,FI,2007-01-01,16.5
Y_LT25,T,PC_ACT,FI,2008-01-01,16.5
Y_LT25,T,PC_ACT,FI,2009-01-01,21.5
Y_LT25,T,PC_ACT,FI,2010-01-01,21.4
Y_LT25,T,PC_ACT,FI,2011-01-01,20.1
Y_LT25,T,PC_ACT,FI,2012-01-01,19.0
Y_LT25,T,PC_ACT,FI,2013-01-01,19.9
Y_LT25,T,PC_ACT,FI,2014-01-01,20.5
Y_LT25,T,PC_ACT,FI,2015-01-01,22.4
Y_LT25,T,PC_ACT,FI,2016-01-01,20.1
Y_LT25,T,PC_ACT,FI,2017-01-01,20.1
Y_LT25,T,PC_ACT,FI,2018-01-01,17.0
Y_LT25,T,PC_ACT,FR,1995-01-01,34.7
Y_LT25,T,PC_ACT,FR,1996-01-01,37.2
Y_LT25,T,PC_ACT,FR,1997-01-01,39.3
Y_LT25,T,PC_ACT,FR,1998-01-01,37.8
Y_LT25,T,PC_ACT,FR,1999-01-01,37.3
Y_LT25,T,PC_ACT,FR,2000-01-01,31.5
Y_LT25,T,PC_ACT,FR,2001-01-01,29.1
Y_LT25,T,PC_ACT,FR,2002-01-01,30.5
Y_LT25,T,PC_ACT,FR,2003-01-01,18.8
Y_LT25,T,PC_ACT,FR,2004-01-01,20.4
Y_LT25,T,PC_ACT,FR,2005-01-01,21.0
Y_LT25,T,PC_ACT,FR,2006-01-01,22.0
Y_LT25,T,PC_ACT,FR,2007-01-01,19.5
Y_LT25,T,PC_ACT,FR,2008-01-01,19.0
Y_LT25,T,PC_ACT,FR,2009-01-01,23.6
Y_LT25,T,PC_ACT,FR,2010-01-01,23.3
Y_LT25,T,PC_ACT,FR,2011-01-01,22.6
Y_LT25,T,PC_ACT,FR,2012-01-01,24.4
Y_LT25,T,PC_ACT,FR,2013-01-01,24.9
Y_LT25,T,PC_ACT,FR,2014-01-01,24.2
Y_LT25,T,PC_ACT,FR,2015-01-01,24.7
Y_LT25,T,PC_ACT,FR,2016-01-01,24.6
Y_LT25,T,PC_ACT,FR,2017-01-01,22.3
Y_LT25,T,PC_ACT,FR,2018-01-01,20.7
Y_LT25,T,PC_ACT,HR,1995-01-01,
Y_LT25,T,PC_ACT,HR,1996-01-01,
Y_LT25,T,PC_ACT,HR,1997-01-01,
Y_LT25,T,PC_ACT,HR,1998-01-01,
Y_LT25,T,PC_ACT,HR,1999-01-01,
Y_LT25,T,PC_ACT,HR,2000-01-01,37.3
Y_LT25,T,PC_ACT,HR,2001-01-01,39.9
Y_LT25,T,PC_ACT,HR,2002-01-01,36.2
Y_LT25,T,PC_ACT,HR,2003-01-01,34.0
Y_LT25,T,PC_ACT,HR,2004-01-01,32.9
Y_LT25,T,PC_ACT,HR,2005-01-01,31.7
Y_LT25,T,PC_ACT,HR,2006-01-01,28.9
Y_LT25,T,PC_ACT,HR,2007-01-01,25.4
Y_LT25,T,PC_ACT,HR,2008-01-01,23.6
Y_LT25,T,PC_ACT,HR,2009-01-01,25.4
Y_LT25,T,PC_ACT,HR,2010-01-01,32.3
Y_LT25,T,PC_ACT,HR,2011-01-01,36.6
Y_LT25,T,PC_ACT,HR,2012-01-01,42.2
Y_LT25,T,PC_ACT,HR,2013-01-01,49.9
Y_LT25,T,PC_ACT,HR,2014-01-01,44.9
Y_LT25,T,PC_ACT,HR,2015-01-01,42.3
Y_LT25,T,PC_ACT,HR,2016-01-01,31.8
Y_LT25,T,PC_ACT,HR,2017-01-01,27.2
Y_LT25,T,PC_ACT,HR,2018-01-01,23.7
Y_LT25,T,PC_ACT,HU,1995-01-01,
Y_LT25,T,PC_ACT,HU,1996-01-01,19.7
Y_LT25,T,PC_ACT,HU,1997-01-01,17.2
Y_LT25,T,PC_ACT,HU,1998-01-01,15.3
Y_LT25,T,PC_ACT,HU,1999-01-01,12.5
Y_LT25,T,PC_ACT,HU,2000-01-01,11.9
Y_LT25,T,PC_ACT,HU,2001-01-01,11.0
Y_LT25,T,PC_ACT,HU,2002-01-01,11.9
Y_LT25,T,PC_ACT,HU,2003-01-01,13.2
Y_LT25,T,PC_ACT,HU,2004-01-01,15.5
Y_LT25,T,PC_ACT,HU,2005-01-01,19.4
Y_LT25,T,PC_ACT,HU,2006-01-01,19.1
Y_LT25,T,PC_ACT,HU,2007-01-01,18.1
Y_LT25,T,PC_ACT,HU,2008-01-01,19.5
Y_LT25,T,PC_ACT,HU,2009-01-01,26.4
Y_LT25,T,PC_ACT,HU,2010-01-01,26.4
Y_LT25,T,PC_ACT,HU,2011-01-01,26.0
Y_LT25,T,PC_ACT,HU,2012-01-01,28.2
Y_LT25,T,PC_ACT,HU,2013-01-01,26.6
Y_LT25,T,PC_ACT,HU,2014-01-01,20.4
Y_LT25,T,PC_ACT,HU,2015-01-01,17.3
Y_LT25,T,PC_ACT,HU,2016-01-01,12.9
Y_LT25,T,PC_ACT,HU,2017-01-01,10.7
Y_LT25,T,PC_ACT,HU,2018-01-01,10.2
Y_LT25,T,PC_ACT,IE,1995-01-01,19.5
Y_LT25,T,PC_ACT,IE,1996-01-01,18.2
Y_LT25,T,PC_ACT,IE,1997-01-01,15.4
Y_LT25,T,PC_ACT,IE,1998-01-01,11.3
Y_LT25,T,PC_ACT,IE,1999-01-01,9.4
Y_LT25,T,PC_ACT,IE,2000-01-01,6.9
Y_LT25,T,PC_ACT,IE,2001-01-01,7.3
Y_LT25,T,PC_ACT,IE,2002-01-01,8.5
Y_LT25,T,PC_ACT,IE,2003-01-01,8.9
Y_LT25,T,PC_ACT,IE,2004-01-01,8.8
Y_LT25,T,PC_ACT,IE,2005-01-01,8.7
Y_LT25,T,PC_ACT,IE,2006-01-01,8.8
Y_LT25,T,PC_ACT,IE,2007-01-01,9.2
Y_LT25,T,PC_ACT,IE,2008-01-01,13.5
Y_LT25,T,PC_ACT,IE,2009-01-01,24.5
Y_LT25,T,PC_ACT,IE,2010-01-01,28.1
Y_LT25,T,PC_ACT,IE,2011-01-01,29.6
Y_LT25,T,PC_ACT,IE,2012-01-01,30.8
Y_LT25,T,PC_ACT,IE,2013-01-01,26.7
Y_LT25,T,PC_ACT,IE,2014-01-01,23.4
Y_LT25,T,PC_ACT,IE,2015-01-01,20.2
Y_LT25,T,PC_ACT,IE,2016-01-01,16.8
Y_LT25,T,PC_ACT,IE,2017-01-01,14.4
Y_LT25,T,PC_ACT,IE,2018-01-01,13.8
Y_LT25,T,PC_ACT,IT,1995-01-01,29.9
Y_LT25,T,PC_ACT,IT,1996-01-01,29.9
Y_LT25,T,PC_ACT,IT,1997-01-01,29.6
Y_LT25,T,PC_ACT,IT,1998-01-01,29.2
Y_LT25,T,PC_ACT,IT,1999-01-01,28.0
Y_LT25,T,PC_ACT,IT,2000-01-01,26.2
Y_LT25,T,PC_ACT,IT,2001-01-01,23.1
Y_LT25,T,PC_ACT,IT,2002-01-01,22.0
Y_LT25,T,PC_ACT,IT,2003-01-01,23.6
Y_LT25,T,PC_ACT,IT,2004-01-01,23.5
Y_LT25,T,PC_ACT,IT,2005-01-01,24.1
Y_LT25,T,PC_ACT,IT,2006-01-01,21.8
Y_LT25,T,PC_ACT,IT,2007-01-01,20.4
Y_LT25,T,PC_ACT,IT,2008-01-01,21.2
Y_LT25,T,PC_ACT,IT,2009-01-01,25.3
Y_LT25,T,PC_ACT,IT,2010-01-01,27.9
Y_LT25,T,PC_ACT,IT,2011-01-01,29.2
Y_LT25,T,PC_ACT,IT,2012-01-01,35.3
Y_LT25,T,PC_ACT,IT,2013-01-01,40.0
Y_LT25,T,PC_ACT,IT,2014-01-01,42.7
Y_LT25,T,PC_ACT,IT,2015-01-01,40.3
Y_LT25,T,PC_ACT,IT,2016-01-01,37.8
Y_LT25,T,PC_ACT,IT,2017-01-01,34.7
Y_LT25,T,PC_ACT,IT,2018-01-01,32.2
Y_LT25,T,PC_ACT,LT,1995-01-01,
Y_LT25,T,PC_ACT,LT,1996-01-01,
Y_LT25,T,PC_ACT,LT,1997-01-01,
Y_LT25,T,PC_ACT,LT,1998-01-01,22.9
Y_LT25,T,PC_ACT,LT,1999-01-01,27.2
Y_LT25,T,PC_ACT,LT,2000-01-01,30.0
Y_LT25,T,PC_ACT,LT,2001-01-01,31.1
Y_LT25,T,PC_ACT,LT,2002-01-01,23.0
Y_LT25,T,PC_ACT,LT,2003-01-01,24.8
Y_LT25,T,PC_ACT,LT,2004-01-01,21.8
Y_LT25,T,PC_ACT,LT,2005-01-01,15.8
Y_LT25,T,PC_ACT,LT,2006-01-01,10.0
Y_LT25,T,PC_ACT,LT,2007-01-01,8.4
Y_LT25,T,PC_ACT,LT,2008-01-01,13.3
Y_LT25,T,PC_ACT,LT,2009-01-01,29.6
Y_LT25,T,PC_ACT,LT,2010-01-01,35.7
Y_LT25,T,PC_ACT,LT,2011-01-01,32.6
Y_LT25,T,PC_ACT,LT,2012-01-01,26.7
Y_LT25,T,PC_ACT,LT,2013-01-01,21.9
Y_LT25,T,PC_ACT,LT,2014-01-01,19.3
Y_LT25,T,PC_ACT,LT,2015-01-01,16.3
Y_LT25,T,PC_ACT,LT,2016-01-01,14.5
Y_LT25,T,PC_ACT,LT,2017-01-01,13.3
Y_LT25,T,PC_ACT,LT,2018-01-01,11.1
Y_LT25,T,PC_ACT,LU,1995-01-01,7.2
Y_LT25,T,PC_ACT,LU,1996-01-01,8.2
Y_LT25,T,PC_ACT,LU,1997-01-01,7.9
Y_LT25,T,PC_ACT,LU,1998-01-01,6.9
Y_LT25,T,PC_ACT,LU,1999-01-01,6.9
Y_LT25,T,PC_ACT,LU,2000-01-01,6.4
Y_LT25,T,PC_ACT,LU,2001-01-01,6.2
Y_LT25,T,PC_ACT,LU,2002-01-01,7.0
Y_LT25,T,PC_ACT,LU,2003-01-01,11.2
Y_LT25,T,PC_ACT,LU,2004-01-01,16.4
Y_LT25,T,PC_ACT,LU,2005-01-01,14.6
Y_LT25,T,PC_ACT,LU,2006-01-01,15.5
Y_LT25,T,PC_ACT,LU,2007-01-01,15.6
Y_LT25,T,PC_ACT,LU,2008-01-01,17.3
Y_LT25,T,PC_ACT,LU,2009-01-01,16.5
Y_LT25,T,PC_ACT,LU,2010-01-01,15.8
Y_LT25,T,PC_ACT,LU,2011-01-01,16.4
Y_LT25,T,PC_ACT,LU,2012-01-01,18.0
Y_LT25,T,PC_ACT,LU,2013-01-01,16.9
Y_LT25,T,PC_ACT,LU,2014-01-01,22.3
Y_LT25,T,PC_ACT,LU,2015-01-01,16.6
Y_LT25,T,PC_ACT,LU,2016-01-01,19.1
Y_LT25,T,PC_ACT,LU,2017-01-01,15.5
Y_LT25,T,PC_ACT,LU,2018-01-01,13.8
Y_LT25,T,PC_ACT,LV,1995-01-01,
Y_LT25,T,PC_ACT,LV,1996-01-01,
Y_LT25,T,PC_ACT,LV,1997-01-01,
Y_LT25,T,PC_ACT,LV,1998-01-01,
Y_LT25,T,PC_ACT,LV,1999-01-01,24.0
Y_LT25,T,PC_ACT,LV,2000-01-01,22.4
Y_LT25,T,PC_ACT,LV,2001-01-01,22.7
Y_LT25,T,PC_ACT,LV,2002-01-01,20.3
Y_LT25,T,PC_ACT,LV,2003-01-01,19.6
Y_LT25,T,PC_ACT,LV,2004-01-01,20.0
Y_LT25,T,PC_ACT,LV,2005-01-01,15.1
Y_LT25,T,PC_ACT,LV,2006-01-01,13.6
Y_LT25,T,PC_ACT,LV,2007-01-01,10.6
Y_LT25,T,PC_ACT,LV,2008-01-01,13.6
Y_LT25,T,PC_ACT,LV,2009-01-01,33.3
Y_LT25,T,PC_ACT,LV,2010-01-01,36.2
Y_LT25,T,PC_ACT,LV,2011-01-01,31.0
Y_LT25,T,PC_ACT,LV,2012-01-01,28.5
Y_LT25,T,PC_ACT,LV,2013-01-01,23.2
Y_LT25,T,PC_ACT,LV,2014-01-01,19.6
Y_LT25,T,PC_ACT,LV,2015-01-01,16.3
Y_LT25,T,PC_ACT,LV,2016-01-01,17.3
Y_LT25,T,PC_ACT,LV,2017-01-01,17.0
Y_LT25,T,PC_ACT,LV,2018-01-01,12.2
Y_LT25,T,PC_ACT,MT,1995-01-01,
Y_LT25,T,PC_ACT,MT,1996-01-01,
Y_LT25,T,PC_ACT,MT,1997-01-01,
Y_LT25,T,PC_ACT,MT,1998-01-01,
Y_LT25,T,PC_ACT,MT,1999-01-01,
Y_LT25,T,PC_ACT,MT,2000-01-01,13.7
Y_LT25,T,PC_ACT,MT,2001-01-01,18.8
Y_LT25,T,PC_ACT,MT,2002-01-01,14.8
Y_LT25,T,PC_ACT,MT,2003-01-01,16.4
Y_LT25,T,PC_ACT,MT,2004-01-01,16.6
Y_LT25,T,PC_ACT,MT,2005-01-01,16.1
Y_LT25,T,PC_ACT,MT,2006-01-01,15.5
Y_LT25,T,PC_ACT,MT,2007-01-01,13.5
Y_LT25,T,PC_ACT,MT,2008-01-01,11.7
Y_LT25,T,PC_ACT,MT,2009-01-01,14.5
Y_LT25,T,PC_ACT,MT,2010-01-01,13.2
Y_LT25,T,PC_ACT,MT,2011-01-01,13.3
Y_LT25,T,PC_ACT,MT,2012-01-01,13.8
Y_LT25,T,PC_ACT,MT,2013-01-01,12.7
Y_LT25,T,PC_ACT,MT,2014-01-01,11.7
Y_LT25,T,PC_ACT,MT,2015-01-01,11.6
Y_LT25,T,PC_ACT,MT,2016-01-01,10.7
Y_LT25,T,PC_ACT,MT,2017-01-01,10.6
Y_LT25,T,PC_ACT,MT,2018-01-01,9.2
Y_LT25,T,PC_ACT,NL,1995-01-01,16.8
Y_LT25,T,PC_ACT,NL,1996-01-01,15.7
Y_LT25,T,PC_ACT,NL,1997-01-01,12.4
Y_LT25,T,PC_ACT,NL,1998-01-01,10.9
Y_LT25,T,PC_ACT,NL,1999-01-01,9.4
Y_LT25,T,PC_ACT,NL,2000-01-01,8.2
Y_LT25,T,PC_ACT,NL,2001-01-01,6.7
Y_LT25,T,PC_ACT,NL,2002-01-01,7.4
Y_LT25,T,PC_ACT,NL,2003-01-01,9.9
Y_LT25,T,PC_ACT,NL,2004-01-01,11.4
Y_LT25,T,PC_ACT,NL,2005-01-01,11.8
Y_LT25,T,PC_ACT,NL,2006-01-01,10.0
Y_LT25,T,PC_ACT,NL,2007-01-01,9.4
Y_LT25,T,PC_ACT,NL,2008-01-01,8.6
Y_LT25,T,PC_ACT,NL,2009-01-01,10.2
Y_LT25,T,PC_ACT,NL,2010-01-01,11.1
Y_LT25,T,PC_ACT,NL,2011-01-01,10.0
Y_LT25,T,PC_ACT,NL,2012-01-01,11.7
Y_LT25,T,PC_ACT,NL,2013-01-01,13.2
Y_LT25,T,PC_ACT,NL,2014-01-01,12.7
Y_LT25,T,PC_ACT,NL,2015-01-01,11.3
Y_LT25,T,PC_ACT,NL,2016-01-01,10.8
Y_LT25,T,PC_ACT,NL,2017-01-01,8.9
Y_LT25,T,PC_ACT,NL,2018-01-01,7.2
Y_LT25,T,PC_ACT,PL,1995-01-01,
Y_LT25,T,PC_ACT,PL,1996-01-01,
Y_LT25,T,PC_ACT,PL,1997-01-01,23.2
Y_LT25,T,PC_ACT,PL,1998-01-01,22.5
Y_LT25,T,PC_ACT,PL,1999-01-01,30.1
Y_LT25,T,PC_ACT,PL,2000-01-01,34.9
Y_LT25,T,PC_ACT,PL,2001-01-01,39.5
Y_LT25,T,PC_ACT,PL,2002-01-01,42.5
Y_LT25,T,PC_ACT,PL,2003-01-01,41.9
Y_LT25,T,PC_ACT,PL,2004-01-01,39.6
Y_LT25,T,PC_ACT,PL,2005-01-01,36.9
Y_LT25,T,PC_ACT,PL,2006-01-01,29.8
Y_LT25,T,PC_ACT,PL,2007-01-01,21.6
Y_LT25,T,PC_ACT,PL,2008-01-01,17.2
Y_LT25,T,PC_ACT,PL,2009-01-01,20.6
Y_LT25,T,PC_ACT,PL,2010-01-01,23.7
Y_LT25,T,PC_ACT,PL,2011-01-01,25.8
Y_LT25,T,PC_ACT,PL,2012-01-01,26.5
Y_LT25,T,PC_ACT,PL,2013-01-01,27.3
Y_LT25,T,PC_ACT,PL,2014-01-01,23.9
Y_LT25,T,PC_ACT,PL,2015-01-01,20.8
Y_LT25,T,PC_ACT,PL,2016-01-01,17.7
Y_LT25,T,PC_ACT,PL,2017-01-01,14.8
Y_LT25,T,PC_ACT,PL,2018-01-01,11.7
Y_LT25,T,PC_ACT,PT,1995-01-01,18.3
Y_LT25,T,PC_ACT,PT,1996-01-01,18.7
Y_LT25,T,PC_ACT,PT,1997-01-01,17.2
Y_LT25,T,PC_ACT,PT,1998-01-01,14.1
Y_LT25,T,PC_ACT,PT,1999-01-01,12.8
Y_LT25,T,PC_ACT,PT,2000-01-01,12.5
Y_LT25,T,PC_ACT,PT,2001-01-01,13.4
Y_LT25,T,PC_ACT,PT,2002-01-01,15.6
Y_LT25,T,PC_ACT,PT,2003-01-01,18.6
Y_LT25,T,PC_ACT,PT,2004-01-01,19.7
Y_LT25,T,PC_ACT,PT,2005-01-01,20.8
Y_LT25,T,PC_ACT,PT,2006-01-01,21.2
Y_LT25,T,PC_ACT,PT,2007-01-01,21.4
Y_LT25,T,PC_ACT,PT,2008-01-01,21.6
Y_LT25,T,PC_ACT,PT,2009-01-01,25.3
Y_LT25,T,PC_ACT,PT,2010-01-01,28.2
Y_LT25,T,PC_ACT,PT,2011-01-01,30.2
Y_LT25,T,PC_ACT,PT,2012-01-01,38.0
Y_LT25,T,PC_ACT,PT,2013-01-01,38.1
Y_LT25,T,PC_ACT,PT,2014-01-01,34.7
Y_LT25,T,PC_ACT,PT,2015-01-01,32.0
Y_LT25,T,PC_ACT,PT,2016-01-01,28.2
Y_LT25,T,PC_ACT,PT,2017-01-01,23.8
Y_LT25,T,PC_ACT,PT,2018-01-01,20.3
Y_LT25,T,PC_ACT,RO,1995-01-01,
Y_LT25,T,PC_ACT,RO,1996-01-01,
Y_LT25,T,PC_ACT,RO,1997-01-01,15.8
Y_LT25,T,PC_ACT,RO,1998-01-01,15.4
Y_LT25,T,PC_ACT,RO,1999-01-01,16.5
Y_LT25,T,PC_ACT,RO,2000-01-01,16.5
Y_LT25,T,PC_ACT,RO,2001-01-01,17.0
Y_LT25,T,PC_ACT,RO,2002-01-01,19.8
Y_LT25,T,PC_ACT,RO,2003-01-01,18.5
Y_LT25,T,PC_ACT,RO,2004-01-01,20.5
Y_LT25,T,PC_ACT,RO,2005-01-01,19.1
Y_LT25,T,PC_ACT,RO,2006-01-01,20.2
Y_LT25,T,PC_ACT,RO,2007-01-01,19.3
Y_LT25,T,PC_ACT,RO,2008-01-01,17.6
Y_LT25,T,PC_ACT,RO,2009-01-01,20.0
Y_LT25,T,PC_ACT,RO,2010-01-01,22.1
Y_LT25,T,PC_ACT,RO,2011-01-01,23.9
Y_LT25,T,PC_ACT,RO,2012-01-01,22.6
Y_LT25,T,PC_ACT,RO,2013-01-01,23.7
Y_LT25,T,PC_ACT,RO,2014-01-01,24.0
Y_LT25,T,PC_ACT,RO,2015-01-01,21.7
Y_LT25,T,PC_ACT,RO,2016-01-01,20.6
Y_LT25,T,PC_ACT,RO,2017-01-01,18.3
Y_LT25,T,PC_ACT,RO,2018-01-01,16.2
Y_LT25,T,PC_ACT,SE,1995-01-01,19.1
Y_LT25,T,PC_ACT,SE,1996-01-01,20.5
Y_LT25,T,PC_ACT,SE,1997-01-01,20.6
Y_LT25,T,PC_ACT,SE,1998-01-01,16.1
Y_LT25,T,PC_ACT,SE,1999-01-01,12.3
Y_LT25,T,PC_ACT,SE,2000-01-01,10.5
Y_LT25,T,PC_ACT,SE,2001-01-01,15.0
Y_LT25,T,PC_ACT,SE,2002-01-01,16.4
Y_LT25,T,PC_ACT,SE,2003-01-01,17.4
Y_LT25,T,PC_ACT,SE,2004-01-01,20.4
Y_LT25,T,PC_ACT,SE,2005-01-01,22.6
Y_LT25,T,PC_ACT,SE,2006-01-01,21.5
Y_LT25,T,PC_ACT,SE,2007-01-01,19.2
Y_LT25,T,PC_ACT,SE,2008-01-01,20.2
Y_LT25,T,PC_ACT,SE,2009-01-01,25.0
Y_LT25,T,PC_ACT,SE,2010-01-01,24.8
Y_LT25,T,PC_ACT,SE,2011-01-01,22.8
Y_LT25,T,PC_ACT,SE,2012-01-01,23.7
Y_LT25,T,PC_ACT,SE,2013-01-01,23.6
Y_LT25,T,PC_ACT,SE,2014-01-01,22.9
Y_LT25,T,PC_ACT,SE,2015-01-01,20.4
Y_LT25,T,PC_ACT,SE,2016-01-01,18.9
Y_LT25,T,PC_ACT,SE,2017-01-01,17.8
Y_LT25,T,PC_ACT,SE,2018-01-01,16.8
Y_LT25,T,PC_ACT,SI,1995-01-01,
Y_LT25,T,PC_ACT,SI,1996-01-01,17.5
Y_LT25,T,PC_ACT,SI,1997-01-01,17.2
Y_LT25,T,PC_ACT,SI,1998-01-01,17.8
Y_LT25,T,PC_ACT,SI,1999-01-01,17.5
Y_LT25,T,PC_ACT,SI,2000-01-01,16.3
Y_LT25,T,PC_ACT,SI,2001-01-01,17.8
Y_LT25,T,PC_ACT,SI,2002-01-01,16.5
Y_LT25,T,PC_ACT,SI,2003-01-01,17.3
Y_LT25,T,PC_ACT,SI,2004-01-01,16.1
Y_LT25,T,PC_ACT,SI,2005-01-01,15.9
Y_LT25,T,PC_ACT,SI,2006-01-01,13.9
Y_LT25,T,PC_ACT,SI,2007-01-01,10.1
Y_LT25,T,PC_ACT,SI,2008-01-01,10.4
Y_LT25,T,PC_ACT,SI,2009-01-01,13.6
Y_LT25,T,PC_ACT,SI,2010-01-01,14.7
Y_LT25,T,PC_ACT,SI,2011-01-01,15.7
Y_LT25,T,PC_ACT,SI,2012-01-01,20.6
Y_LT25,T,PC_ACT,SI,2013-01-01,21.6
Y_LT25,T,PC_ACT,SI,2014-01-01,20.2
Y_LT25,T,PC_ACT,SI,2015-01-01,16.3
Y_LT25,T,PC_ACT,SI,2016-01-01,15.2
Y_LT25,T,PC_ACT,SI,2017-01-01,11.2
Y_LT25,T,PC_ACT,SI,2018-01-01,8.8
Y_LT25,T,PC_ACT,SK,1995-01-01,
Y_LT25,T,PC_ACT,SK,1996-01-01,
Y_LT25,T,PC_ACT,SK,1997-01-01,
Y_LT25,T,PC_ACT,SK,1998-01-01,25.5
Y_LT25,T,PC_ACT,SK,1999-01-01,34.2
Y_LT25,T,PC_ACT,SK,2000-01-01,37.3
Y_LT25,T,PC_ACT,SK,2001-01-01,39.6
Y_LT25,T,PC_ACT,SK,2002-01-01,38.1
Y_LT25,T,PC_ACT,SK,2003-01-01,33.8
Y_LT25,T,PC_ACT,SK,2004-01-01,33.4
Y_LT25,T,PC_ACT,SK,2005-01-01,30.4
Y_LT25,T,PC_ACT,SK,2006-01-01,27.0
Y_LT25,T,PC_ACT,SK,2007-01-01,20.6
Y_LT25,T,PC_ACT,SK,2008-01-01,19.3
Y_LT25,T,PC_ACT,SK,2009-01-01,27.6
Y_LT25,T,PC_ACT,SK,2010-01-01,33.9
Y_LT25,T,PC_ACT,SK,2011-01-01,33.7
Y_LT25,T,PC_ACT,SK,2012-01-01,34.0
Y_LT25,T,PC_ACT,SK,2013-01-01,33.7
Y_LT25,T,PC_ACT,SK,2014-01-01,29.7
Y_LT25,T,PC_ACT,SK,2015-01-01,26.5
Y_LT25,T,PC_ACT,SK,2016-01-01,22.2
Y_LT25,T,PC_ACT,SK,2017-01-01,18.9
Y_LT25,T,PC_ACT,SK,2018-01-01,14.9
Y_LT25,T,PC_ACT,UK,1995-01-01,15.3
Y_LT25,T,PC_ACT,UK,1996-01-01,14.9
Y_LT25,T,PC_ACT,UK,1997-01-01,13.7
Y_LT25,T,PC_ACT,UK,1998-01-01,13.1
Y_LT25,T,PC_ACT,UK,1999-01-01,12.7
Y_LT25,T,PC_ACT,UK,2000-01-01,12.2
Y_LT25,T,PC_ACT,UK,2001-01-01,11.7
Y_LT25,T,PC_ACT,UK,2002-01-01,12.0
Y_LT25,T,PC_ACT,UK,2003-01-01,12.2
Y_LT25,T,PC_ACT,UK,2004-01-01,12.0
Y_LT25,T,PC_ACT,UK,2005-01-01,12.8
Y_LT25,T,PC_ACT,UK,2006-01-01,13.9
Y_LT25,T,PC_ACT,UK,2007-01-01,14.3
Y_LT25,T,PC_ACT,UK,2008-01-01,15.0
Y_LT25,T,PC_ACT,UK,2009-01-01,19.1
Y_LT25,T,PC_ACT,UK,2010-01-01,19.9
Y_LT25,T,PC_ACT,UK,2011-01-01,21.3
Y_LT25,T,PC_ACT,UK,2012-01-01,21.2
Y_LT25,T,PC_ACT,UK,2013-01-01,20.7
Y_LT25,T,PC_ACT,UK,2014-01-01,17.0
Y_LT25,T,PC_ACT,UK,2015-01-01,14.6
Y_LT25,T,PC_ACT,UK,2016-01-01,13.0
Y_LT25,T,PC_ACT,UK,2017-01-01,12.1
Y_LT25,T,PC_ACT,UK,2018-01-01,11.3
Y_LT25,T,PPCH_3Y,AT,1995-01-01,
Y_LT25,T,PPCH_3Y,AT,1996-01-01,
Y_LT25,T,PPCH_3Y,AT,1997-01-01,0.5
Y_LT25,T,PPCH_3Y,AT,1998-01-01,0.3
Y_LT25,T,PPCH_3Y,AT,1999-01-01,-0.9
Y_LT25,T,PPCH_3Y,AT,2000-01-01,-1.1
Y_LT25,T,PPCH_3Y,AT,2001-01-01,0.0
Y_LT25,T,PPCH_3Y,AT,2002-01-01,1.3
Y_LT25,T,PPCH_3Y,AT,2003-01-01,2.0
Y_LT25,T,PPCH_3Y,AT,2004-01-01,4.3
Y_LT25,T,PPCH_3Y,AT,2005-01-01,4.3
Y_LT25,T,PPCH_3Y,AT,2006-01-01,2.2
Y_LT25,T,PPCH_3Y,AT,2007-01-01,-1.1
Y_LT25,T,PPCH_3Y,AT,2008-01-01,-2.5
Y_LT25,T,PPCH_3Y,AT,2009-01-01,0.9
Y_LT25,T,PPCH_3Y,AT,2010-01-01,0.1
Y_LT25,T,PPCH_3Y,AT,2011-01-01,0.4
Y_LT25,T,PPCH_3Y,AT,2012-01-01,-1.3
Y_LT25,T,PPCH_3Y,AT,2013-01-01,0.2
Y_LT25,T,PPCH_3Y,AT,2014-01-01,1.4
Y_LT25,T,PPCH_3Y,AT,2015-01-01,1.2
Y_LT25,T,PPCH_3Y,AT,2016-01-01,1.5
Y_LT25,T,PPCH_3Y,AT,2017-01-01,-0.5
Y_LT25,T,PPCH_3Y,AT,2018-01-01,-1.2
Y_LT25,T,PPCH_3Y,BE,1995-01-01,7.5
Y_LT25,T,PPCH_3Y,BE,1996-01-01,1.4
Y_LT25,T,PPCH_3Y,BE,1997-01-01,-1.2
Y_LT25,T,PPCH_3Y,BE,1998-01-01,-0.8
Y_LT25,T,PPCH_3Y,BE,1999-01-01,-1.8
Y_LT25,T,PPCH_3Y,BE,2000-01-01,-5.3
Y_LT25,T,PPCH_3Y,BE,2001-01-01,-5.3
Y_LT25,T,PPCH_3Y,BE,2002-01-01,-2.6
Y_LT25,T,PPCH_3Y,BE,2003-01-01,5.1
Y_LT25,T,PPCH_3Y,BE,2004-01-01,4.4
Y_LT25,T,PPCH_3Y,BE,2005-01-01,3.8
Y_LT25,T,PPCH_3Y,BE,2006-01-01,-1.3
Y_LT25,T,PPCH_3Y,BE,2007-01-01,-2.4
Y_LT25,T,PPCH_3Y,BE,2008-01-01,-3.5
Y_LT25,T,PPCH_3Y,BE,2009-01-01,1.4
Y_LT25,T,PPCH_3Y,BE,2010-01-01,3.6
Y_LT25,T,PPCH_3Y,BE,2011-01-01,0.7
Y_LT25,T,PPCH_3Y,BE,2012-01-01,-2.1
Y_LT25,T,PPCH_3Y,BE,2013-01-01,1.3
Y_LT25,T,PPCH_3Y,BE,2014-01-01,4.5
Y_LT25,T,PPCH_3Y,BE,2015-01-01,2.3
Y_LT25,T,PPCH_3Y,BE,2016-01-01,-3.6
Y_LT25,T,PPCH_3Y,BE,2017-01-01,-3.9
Y_LT25,T,PPCH_3Y,BE,2018-01-01,-6.3
Y_LT25,T,PPCH_3Y,BG,1995-01-01,
Y_LT25,T,PPCH_3Y,BG,1996-01-01,
Y_LT25,T,PPCH_3Y,BG,1997-01-01,
Y_LT25,T,PPCH_3Y,BG,1998-01-01,
Y_LT25,T,PPCH_3Y,BG,1999-01-01,
Y_LT25,T,PPCH_3Y,BG,2000-01-01,
Y_LT25,T,PPCH_3Y,BG,2001-01-01,
Y_LT25,T,PPCH_3Y,BG,2002-01-01,
Y_LT25,T,PPCH_3Y,BG,2003-01-01,-7.1
Y_LT25,T,PPCH_3Y,BG,2004-01-01,-13.9
Y_LT25,T,PPCH_3Y,BG,2005-01-01,-14.4
Y_LT25,T,PPCH_3Y,BG,2006-01-01,-8.3
Y_LT25,T,PPCH_3Y,BG,2007-01-01,-10.2
Y_LT25,T,PPCH_3Y,BG,2008-01-01,-9.1
Y_LT25,T,PPCH_3Y,BG,2009-01-01,-3.2
Y_LT25,T,PPCH_3Y,BG,2010-01-01,7.8
Y_LT25,T,PPCH_3Y,BG,2011-01-01,13.1
Y_LT25,T,PPCH_3Y,BG,2012-01-01,13.0
Y_LT25,T,PPCH_3Y,BG,2013-01-01,6.5
Y_LT25,T,PPCH_3Y,BG,2014-01-01,-1.2
Y_LT25,T,PPCH_3Y,BG,2015-01-01,-6.5
Y_LT25,T,PPCH_3Y,BG,2016-01-01,-11.2
Y_LT25,T,PPCH_3Y,BG,2017-01-01,-10.9
Y_LT25,T,PPCH_3Y,BG,2018-01-01,-8.9
Y_LT25,T,PPCH_3Y,CY,1995-01-01,
Y_LT25,T,PPCH_3Y,CY,1996-01-01,
Y_LT25,T,PPCH_3Y,CY,1997-01-01,
Y_LT25,T,PPCH_3Y,CY,1998-01-01,
Y_LT25,T,PPCH_3Y,CY,1999-01-01,
Y_LT25,T,PPCH_3Y,CY,2000-01-01,
Y_LT25,T,PPCH_3Y,CY,2001-01-01,
Y_LT25,T,PPCH_3Y,CY,2002-01-01,
Y_LT25,T,PPCH_3Y,CY,2003-01-01,-1.1
Y_LT25,T,PPCH_3Y,CY,2004-01-01,2.0
Y_LT25,T,PPCH_3Y,CY,2005-01-01,5.9
Y_LT25,T,PPCH_3Y,CY,2006-01-01,1.2
Y_LT25,T,PPCH_3Y,CY,2007-01-01,0.0
Y_LT25,T,PPCH_3Y,CY,2008-01-01,-4.9
Y_LT25,T,PPCH_3Y,CY,2009-01-01,3.8
Y_LT25,T,PPCH_3Y,CY,2010-01-01,6.4
Y_LT25,T,PPCH_3Y,CY,2011-01-01,13.4
Y_LT25,T,PPCH_3Y,CY,2012-01-01,13.9
Y_LT25,T,PPCH_3Y,CY,2013-01-01,22.3
Y_LT25,T,PPCH_3Y,CY,2014-01-01,13.6
Y_LT25,T,PPCH_3Y,CY,2015-01-01,5.1
Y_LT25,T,PPCH_3Y,CY,2016-01-01,-9.8
Y_LT25,T,PPCH_3Y,CY,2017-01-01,-11.3
Y_LT25,T,PPCH_3Y,CY,2018-01-01,-12.6
Y_LT25,T,PPCH_3Y,CZ,1995-01-01,
Y_LT25,T,PPCH_3Y,CZ,1996-01-01,-1.2
Y_LT25,T,PPCH_3Y,CZ,1997-01-01,-0.1
Y_LT25,T,PPCH_3Y,CZ,1998-01-01,4.6
Y_LT25,T,PPCH_3Y,CZ,1999-01-01,9.8
Y_LT25,T,PPCH_3Y,CZ,2000-01-01,8.4
Y_LT25,T,PPCH_3Y,CZ,2001-01-01,4.2
Y_LT25,T,PPCH_3Y,CZ,2002-01-01,-1.0
Y_LT25,T,PPCH_3Y,CZ,2003-01-01,0.6
Y_LT25,T,PPCH_3Y,CZ,2004-01-01,3.8
Y_LT25,T,PPCH_3Y,CZ,2005-01-01,3.3
Y_LT25,T,PPCH_3Y,CZ,2006-01-01,-0.1
Y_LT25,T,PPCH_3Y,CZ,2007-01-01,-9.7
Y_LT25,T,PPCH_3Y,CZ,2008-01-01,-9.4
Y_LT25,T,PPCH_3Y,CZ,2009-01-01,-0.9
Y_LT25,T,PPCH_3Y,CZ,2010-01-01,7.6
Y_LT25,T,PPCH_3Y,CZ,2011-01-01,8.2
Y_LT25,T,PPCH_3Y,CZ,2012-01-01,2.9
Y_LT25,T,PPCH_3Y,CZ,2013-01-01,0.6
Y_LT25,T,PPCH_3Y,CZ,2014-01-01,-2.2
Y_LT25,T,PPCH_3Y,CZ,2015-01-01,-6.9
Y_LT25,T,PPCH_3Y,CZ,2016-01-01,-8.4
Y_LT25,T,PPCH_3Y,CZ,2017-01-01,-8.0
Y_LT25,T,PPCH_3Y,CZ,2018-01-01,-5.9
Y_LT25,T,PPCH_3Y,DE,1995-01-01,2.4
Y_LT25,T,PPCH_3Y,DE,1996-01-01,2.0
Y_LT25,T,PPCH_3Y,DE,1997-01-01,1.7
Y_LT25,T,PPCH_3Y,DE,1998-01-01,0.8
Y_LT25,T,PPCH_3Y,DE,1999-01-01,-1.0
Y_LT25,T,PPCH_3Y,DE,2000-01-01,-1.9
Y_LT25,T,PPCH_3Y,DE,2001-01-01,-1.4
Y_LT25,T,PPCH_3Y,DE,2002-01-01,0.8
Y_LT25,T,PPCH_3Y,DE,2003-01-01,2.8
Y_LT25,T,PPCH_3Y,DE,2004-01-01,5.4
Y_LT25,T,PPCH_3Y,DE,2005-01-01,5.6
Y_LT25,T,PPCH_3Y,DE,2006-01-01,2.1
Y_LT25,T,PPCH_3Y,DE,2007-01-01,-1.9
Y_LT25,T,PPCH_3Y,DE,2008-01-01,-5.0
Y_LT25,T,PPCH_3Y,DE,2009-01-01,-2.5
Y_LT25,T,PPCH_3Y,DE,2010-01-01,-2.0
Y_LT25,T,PPCH_3Y,DE,2011-01-01,-1.9
Y_LT25,T,PPCH_3Y,DE,2012-01-01,-3.1
Y_LT25,T,PPCH_3Y,DE,2013-01-01,-2.0
Y_LT25,T,PPCH_3Y,DE,2014-01-01,-0.8
Y_LT25,T,PPCH_3Y,DE,2015-01-01,-0.8
Y_LT25,T,PPCH_3Y,DE,2016-01-01,-0.7
Y_LT25,T,PPCH_3Y,DE,2017-01-01,-0.9
Y_LT25,T,PPCH_3Y,DE,2018-01-01,-1.0
Y_LT25,T,PPCH_3Y,DK,1995-01-01,-2.1
Y_LT25,T,PPCH_3Y,DK,1996-01-01,-3.1
Y_LT25,T,PPCH_3Y,DK,1997-01-01,-2.5
Y_LT25,T,PPCH_3Y,DK,1998-01-01,-2.3
Y_LT25,T,PPCH_3Y,DK,1999-01-01,-0.6
Y_LT25,T,PPCH_3Y,DK,2000-01-01,-1.5
Y_LT25,T,PPCH_3Y,DK,2001-01-01,1.0
Y_LT25,T,PPCH_3Y,DK,2002-01-01,-1.7
Y_LT25,T,PPCH_3Y,DK,2003-01-01,3.0
Y_LT25,T,PPCH_3Y,DK,2004-01-01,-0.1
Y_LT25,T,PPCH_3Y,DK,2005-01-01,1.2
Y_LT25,T,PPCH_3Y,DK,2006-01-01,-1.5
Y_LT25,T,PPCH_3Y,DK,2007-01-01,-0.7
Y_LT25,T,PPCH_3Y,DK,2008-01-01,-0.6
Y_LT25,T,PPCH_3Y,DK,2009-01-01,4.1
Y_LT25,T,PPCH_3Y,DK,2010-01-01,6.4
Y_LT25,T,PPCH_3Y,DK,2011-01-01,6.2
Y_LT25,T,PPCH_3Y,DK,2012-01-01,2.3
Y_LT25,T,PPCH_3Y,DK,2013-01-01,-0.9
Y_LT25,T,PPCH_3Y,DK,2014-01-01,-1.6
Y_LT25,T,PPCH_3Y,DK,2015-01-01,-3.3
Y_LT25,T,PPCH_3Y,DK,2016-01-01,-1.0
Y_LT25,T,PPCH_3Y,DK,2017-01-01,-1.6
Y_LT25,T,PPCH_3Y,DK,2018-01-01,-1.5
Y_LT25,T,PPCH_3Y,EE,1995-01-01,
Y_LT25,T,PPCH_3Y,EE,1996-01-01,
Y_LT25,T,PPCH_3Y,EE,1997-01-01,
Y_LT25,T,PPCH_3Y,EE,1998-01-01,
Y_LT25,T,PPCH_3Y,EE,1999-01-01,
Y_LT25,T,PPCH_3Y,EE,2000-01-01,
Y_LT25,T,PPCH_3Y,EE,2001-01-01,
Y_LT25,T,PPCH_3Y,EE,2002-01-01,
Y_LT25,T,PPCH_3Y,EE,2003-01-01,-3.0
Y_LT25,T,PPCH_3Y,EE,2004-01-01,1.7
Y_LT25,T,PPCH_3Y,EE,2005-01-01,-2.8
Y_LT25,T,PPCH_3Y,EE,2006-01-01,-8.8
Y_LT25,T,PPCH_3Y,EE,2007-01-01,-13.8
Y_LT25,T,PPCH_3Y,EE,2008-01-01,-3.1
Y_LT25,T,PPCH_3Y,EE,2009-01-01,15.3
Y_LT25,T,PPCH_3Y,EE,2010-01-01,22.8
Y_LT25,T,PPCH_3Y,EE,2011-01-01,10.4
Y_LT25,T,PPCH_3Y,EE,2012-01-01,-6.5
Y_LT25,T,PPCH_3Y,EE,2013-01-01,-14.2
Y_LT25,T,PPCH_3Y,EE,2014-01-01,-7.4
Y_LT25,T,PPCH_3Y,EE,2015-01-01,-7.8
Y_LT25,T,PPCH_3Y,EE,2016-01-01,-5.3
Y_LT25,T,PPCH_3Y,EE,2017-01-01,-2.9
Y_LT25,T,PPCH_3Y,EE,2018-01-01,-1.2
Y_LT25,T,PPCH_3Y,EL,1995-01-01,
Y_LT25,T,PPCH_3Y,EL,1996-01-01,
Y_LT25,T,PPCH_3Y,EL,1997-01-01,
Y_LT25,T,PPCH_3Y,EL,1998-01-01,
Y_LT25,T,PPCH_3Y,EL,1999-01-01,
Y_LT25,T,PPCH_3Y,EL,2000-01-01,
Y_LT25,T,PPCH_3Y,EL,2001-01-01,-2.4
Y_LT25,T,PPCH_3Y,EL,2002-01-01,-4.7
Y_LT25,T,PPCH_3Y,EL,2003-01-01,-2.3
Y_LT25,T,PPCH_3Y,EL,2004-01-01,-1.5
Y_LT25,T,PPCH_3Y,EL,2005-01-01,-1.0
Y_LT25,T,PPCH_3Y,EL,2006-01-01,-1.8
Y_LT25,T,PPCH_3Y,EL,2007-01-01,-3.8
Y_LT25,T,PPCH_3Y,EL,2008-01-01,-3.9
Y_LT25,T,PPCH_3Y,EL,2009-01-01,0.7
Y_LT25,T,PPCH_3Y,EL,2010-01-01,10.3
Y_LT25,T,PPCH_3Y,EL,2011-01-01,22.8
Y_LT25,T,PPCH_3Y,EL,2012-01-01,29.6
Y_LT25,T,PPCH_3Y,EL,2013-01-01,25.3
Y_LT25,T,PPCH_3Y,EL,2014-01-01,7.7
Y_LT25,T,PPCH_3Y,EL,2015-01-01,-5.5
Y_LT25,T,PPCH_3Y,EL,2016-01-01,-11.0
Y_LT25,T,PPCH_3Y,EL,2017-01-01,-8.8
Y_LT25,T,PPCH_3Y,EL,2018-01-01,-9.9
Y_LT25,T,PPCH_3Y,ES,1995-01-01,7.5
Y_LT25,T,PPCH_3Y,ES,1996-01-01,-1.5
Y_LT25,T,PPCH_3Y,ES,1997-01-01,-6.2
Y_LT25,T,PPCH_3Y,ES,1998-01-01,-7.4
Y_LT25,T,PPCH_3Y,ES,1999-01-01,-12.8
Y_LT25,T,PPCH_3Y,ES,2000-01-01,-12.9
Y_LT25,T,PPCH_3Y,ES,2001-01-01,-11.3
Y_LT25,T,PPCH_3Y,ES,2002-01-01,-4.2
Y_LT25,T,PPCH_3Y,ES,2003-01-01,-0.5
Y_LT25,T,PPCH_3Y,ES,2004-01-01,0.9
Y_LT25,T,PPCH_3Y,ES,2005-01-01,-2.6
Y_LT25,T,PPCH_3Y,ES,2006-01-01,-4.8
Y_LT25,T,PPCH_3Y,ES,2007-01-01,-3.9
Y_LT25,T,PPCH_3Y,ES,2008-01-01,4.9
Y_LT25,T,PPCH_3Y,ES,2009-01-01,19.8
Y_LT25,T,PPCH_3Y,ES,2010-01-01,23.4
Y_LT25,T,PPCH_3Y,ES,2011-01-01,21.7
Y_LT25,T,PPCH_3Y,ES,2012-01-01,15.2
Y_LT25,T,PPCH_3Y,ES,2013-01-01,14.0
Y_LT25,T,PPCH_3Y,ES,2014-01-01,7.0
Y_LT25,T,PPCH_3Y,ES,2015-01-01,-4.6
Y_LT25,T,PPCH_3Y,ES,2016-01-01,-11.1
Y_LT25,T,PPCH_3Y,ES,2017-01-01,-14.6
Y_LT25,T,PPCH_3Y,ES,2018-01-01,-14.0
Y_LT25,T,PPCH_3Y,FI,1995-01-01,3.3
Y_LT25,T,PPCH_3Y,FI,1996-01-01,-5.6
Y_LT25,T,PPCH_3Y,FI,1997-01-01,-8.8
Y_LT25,T,PPCH_3Y,FI,1998-01-01,-6.2
Y_LT25,T,PPCH_3Y,FI,1999-01-01,-6.6
Y_LT25,T,PPCH_3Y,FI,2000-01-01,-3.8
Y_LT25,T,PPCH_3Y,FI,2001-01-01,-3.7
Y_LT25,T,PPCH_3Y,FI,2002-01-01,-0.4
Y_LT25,T,PPCH_3Y,FI,2003-01-01,0.4
Y_LT25,T,PPCH_3Y,FI,2004-01-01,0.9
Y_LT25,T,PPCH_3Y,FI,2005-01-01,-0.9
Y_LT25,T,PPCH_3Y,FI,2006-01-01,-3.1
Y_LT25,T,PPCH_3Y,FI,2007-01-01,-4.2
Y_LT25,T,PPCH_3Y,FI,2008-01-01,-3.6
Y_LT25,T,PPCH_3Y,FI,2009-01-01,2.8
Y_LT25,T,PPCH_3Y,FI,2010-01-01,4.9
Y_LT25,T,PPCH_3Y,FI,2011-01-01,3.6
Y_LT25,T,PPCH_3Y,FI,2012-01-01,-2.5
Y_LT25,T,PPCH_3Y,FI,2013-01-01,-1.5
Y_LT25,T,PPCH_3Y,FI,2014-01-01,0.4
Y_LT25,T,PPCH_3Y,FI,2015-01-01,3.4
Y_LT25,T,PPCH_3Y,FI,2016-01-01,0.2
Y_LT25,T,PPCH_3Y,FI,2017-01-01,-0.4
Y_LT25,T,PPCH_3Y,FI,2018-01-01,-5.4
Y_LT25,T,PPCH_3Y,FR,1995-01-01,7.1
Y_LT25,T,PPCH_3Y,FR,1996-01-01,4.2
Y_LT25,T,PPCH_3Y,FR,1997-01-01,3.9
Y_LT25,T,PPCH_3Y,FR,1998-01-01,3.1
Y_LT25,T,PPCH_3Y,FR,1999-01-01,0.1
Y_LT25,T,PPCH_3Y,FR,2000-01-01,-7.8
Y_LT25,T,PPCH_3Y,FR,2001-01-01,-8.7
Y_LT25,T,PPCH_3Y,FR,2002-01-01,-6.8
Y_LT25,T,PPCH_3Y,FR,2003-01-01,-12.7
Y_LT25,T,PPCH_3Y,FR,2004-01-01,-8.7
Y_LT25,T,PPCH_3Y,FR,2005-01-01,-9.5
Y_LT25,T,PPCH_3Y,FR,2006-01-01,3.2
Y_LT25,T,PPCH_3Y,FR,2007-01-01,-0.9
Y_LT25,T,PPCH_3Y,FR,2008-01-01,-2.0
Y_LT25,T,PPCH_3Y,FR,2009-01-01,1.6
Y_LT25,T,PPCH_3Y,FR,2010-01-01,3.8
Y_LT25,T,PPCH_3Y,FR,2011-01-01,3.6
Y_LT25,T,PPCH_3Y,FR,2012-01-01,0.8
Y_LT25,T,PPCH_3Y,FR,2013-01-01,1.6
Y_LT25,T,PPCH_3Y,FR,2014-01-01,1.6
Y_LT25,T,PPCH_3Y,FR,2015-01-01,0.3
Y_LT25,T,PPCH_3Y,FR,2016-01-01,-0.3
Y_LT25,T,PPCH_3Y,FR,2017-01-01,-1.9
Y_LT25,T,PPCH_3Y,FR,2018-01-01,-4.0
Y_LT25,T,PPCH_3Y,HR,1995-01-01,
Y_LT25,T,PPCH_3Y,HR,1996-01-01,
Y_LT25,T,PPCH_3Y,HR,1997-01-01,
Y_LT25,T,PPCH_3Y,HR,1998-01-01,
Y_LT25,T,PPCH_3Y,HR,1999-01-01,
Y_LT25,T,PPCH_3Y,HR,2000-01-01,
Y_LT25,T,PPCH_3Y,HR,2001-01-01,
Y_LT25,T,PPCH_3Y,HR,2002-01-01,
Y_LT25,T,PPCH_3Y,HR,2003-01-01,-3.3
Y_LT25,T,PPCH_3Y,HR,2004-01-01,-7.0
Y_LT25,T,PPCH_3Y,HR,2005-01-01,-4.5
Y_LT25,T,PPCH_3Y,HR,2006-01-01,-5.1
Y_LT25,T,PPCH_3Y,HR,2007-01-01,-7.5
Y_LT25,T,PPCH_3Y,HR,2008-01-01,-8.1
Y_LT25,T,PPCH_3Y,HR,2009-01-01,-3.5
Y_LT25,T,PPCH_3Y,HR,2010-01-01,6.9
Y_LT25,T,PPCH_3Y,HR,2011-01-01,13.0
Y_LT25,T,PPCH_3Y,HR,2012-01-01,16.8
Y_LT25,T,PPCH_3Y,HR,2013-01-01,17.6
Y_LT25,T,PPCH_3Y,HR,2014-01-01,8.3
Y_LT25,T,PPCH_3Y,HR,2015-01-01,0.1
Y_LT25,T,PPCH_3Y,HR,2016-01-01,-18.1
Y_LT25,T,PPCH_3Y,HR,2017-01-01,-17.7
Y_LT25,T,PPCH_3Y,HR,2018-01-01,-18.6
Y_LT25,T,PPCH_3Y,HU,1995-01-01,
Y_LT25,T,PPCH_3Y,HU,1996-01-01,
Y_LT25,T,PPCH_3Y,HU,1997-01-01,
Y_LT25,T,PPCH_3Y,HU,1998-01-01,
Y_LT25,T,PPCH_3Y,HU,1999-01-01,-7.2
Y_LT25,T,PPCH_3Y,HU,2000-01-01,-5.3
Y_LT25,T,PPCH_3Y,HU,2001-01-01,-4.3
Y_LT25,T,PPCH_3Y,HU,2002-01-01,-0.6
Y_LT25,T,PPCH_3Y,HU,2003-01-01,1.3
Y_LT25,T,PPCH_3Y,HU,2004-01-01,4.5
Y_LT25,T,PPCH_3Y,HU,2005-01-01,7.5
Y_LT25,T,PPCH_3Y,HU,2006-01-01,5.9
Y_LT25,T,PPCH_3Y,HU,2007-01-01,2.6
Y_LT25,T,PPCH_3Y,HU,2008-01-01,0.1
Y_LT25,T,PPCH_3Y,HU,2009-01-01,7.3
Y_LT25,T,PPCH_3Y,HU,2010-01-01,8.3
Y_LT25,T,PPCH_3Y,HU,2011-01-01,6.5
Y_LT25,T,PPCH_3Y,HU,2012-01-01,1.8
Y_LT25,T,PPCH_3Y,HU,2013-01-01,0.2
Y_LT25,T,PPCH_3Y,HU,2014-01-01,-5.6
Y_LT25,T,PPCH_3Y,HU,2015-01-01,-10.9
Y_LT25,T,PPCH_3Y,HU,2016-01-01,-13.7
Y_LT25,T,PPCH_3Y,HU,2017-01-01,-9.7
Y_LT25,T,PPCH_3Y,HU,2018-01-01,-7.1
Y_LT25,T,PPCH_3Y,IE,1995-01-01,-4.9
Y_LT25,T,PPCH_3Y,IE,1996-01-01,-7.1
Y_LT25,T,PPCH_3Y,IE,1997-01-01,-7.6
Y_LT25,T,PPCH_3Y,IE,1998-01-01,-8.2
Y_LT25,T,PPCH_3Y,IE,1999-01-01,-8.8
Y_LT25,T,PPCH_3Y,IE,2000-01-01,-8.5
Y_LT25,T,PPCH_3Y,IE,2001-01-01,-4.0
Y_LT25,T,PPCH_3Y,IE,2002-01-01,-0.9
Y_LT25,T,PPCH_3Y,IE,2003-01-01,2.0
Y_LT25,T,PPCH_3Y,IE,2004-01-01,1.5
Y_LT25,T,PPCH_3Y,IE,2005-01-01,0.2
Y_LT25,T,PPCH_3Y,IE,2006-01-01,-0.1
Y_LT25,T,PPCH_3Y,IE,2007-01-01,0.4
Y_LT25,T,PPCH_3Y,IE,2008-01-01,4.8
Y_LT25,T,PPCH_3Y,IE,2009-01-01,15.7
Y_LT25,T,PPCH_3Y,IE,2010-01-01,18.9
Y_LT25,T,PPCH_3Y,IE,2011-01-01,16.1
Y_LT25,T,PPCH_3Y,IE,2012-01-01,6.3
Y_LT25,T,PPCH_3Y,IE,2013-01-01,-1.4
Y_LT25,T,PPCH_3Y,IE,2014-01-01,-6.2
Y_LT25,T,PPCH_3Y,IE,2015-01-01,-10.6
Y_LT25,T,PPCH_3Y,IE,2016-01-01,-9.9
Y_LT25,T,PPCH_3Y,IE,2017-01-01,-9.0
Y_LT25,T,PPCH_3Y,IE,2018-01-01,-6.4
Y_LT25,T,PPCH_3Y,IT,1995-01-01,3.5
Y_LT25,T,PPCH_3Y,IT,1996-01-01,2.8
Y_LT25,T,PPCH_3Y,IT,1997-01-01,0.9
Y_LT25,T,PPCH_3Y,IT,1998-01-01,-0.7
Y_LT25,T,PPCH_3Y,IT,1999-01-01,-1.9
Y_LT25,T,PPCH_3Y,IT,2000-01-01,-3.4
Y_LT25,T,PPCH_3Y,IT,2001-01-01,-6.1
Y_LT25,T,PPCH_3Y,IT,2002-01-01,-6.0
Y_LT25,T,PPCH_3Y,IT,2003-01-01,-2.6
Y_LT25,T,PPCH_3Y,IT,2004-01-01,0.4
Y_LT25,T,PPCH_3Y,IT,2005-01-01,2.1
Y_LT25,T,PPCH_3Y,IT,2006-01-01,-1.8
Y_LT25,T,PPCH_3Y,IT,2007-01-01,-3.1
Y_LT25,T,PPCH_3Y,IT,2008-01-01,-2.9
Y_LT25,T,PPCH_3Y,IT,2009-01-01,3.5
Y_LT25,T,PPCH_3Y,IT,2010-01-01,7.5
Y_LT25,T,PPCH_3Y,IT,2011-01-01,8.0
Y_LT25,T,PPCH_3Y,IT,2012-01-01,10.0
Y_LT25,T,PPCH_3Y,IT,2013-01-01,12.1
Y_LT25,T,PPCH_3Y,IT,2014-01-01,13.5
Y_LT25,T,PPCH_3Y,IT,2015-01-01,5.0
Y_LT25,T,PPCH_3Y,IT,2016-01-01,-2.2
Y_LT25,T,PPCH_3Y,IT,2017-01-01,-8.0
Y_LT25,T,PPCH_3Y,IT,2018-01-01,-8.1
Y_LT25,T,PPCH_3Y,LT,1995-01-01,
Y_LT25,T,PPCH_3Y,LT,1996-01-01,
Y_LT25,T,PPCH_3Y,LT,1997-01-01,
Y_LT25,T,PPCH_3Y,LT,1998-01-01,
Y_LT25,T,PPCH_3Y,LT,1999-01-01,
Y_LT25,T,PPCH_3Y,LT,2000-01-01,
Y_LT25,T,PPCH_3Y,LT,2001-01-01,8.2
Y_LT25,T,PPCH_3Y,LT,2002-01-01,-4.2
Y_LT25,T,PPCH_3Y,LT,2003-01-01,-5.2
Y_LT25,T,PPCH_3Y,LT,2004-01-01,-9.3
Y_LT25,T,PPCH_3Y,LT,2005-01-01,-7.2
Y_LT25,T,PPCH_3Y,LT,2006-01-01,-14.8
Y_LT25,T,PPCH_3Y,LT,2007-01-01,-13.4
Y_LT25,T,PPCH_3Y,LT,2008-01-01,-2.5
Y_LT25,T,PPCH_3Y,LT,2009-01-01,19.6
Y_LT25,T,PPCH_3Y,LT,2010-01-01,27.3
Y_LT25,T,PPCH_3Y,LT,2011-01-01,19.3
Y_LT25,T,PPCH_3Y,LT,2012-01-01,-2.9
Y_LT25,T,PPCH_3Y,LT,2013-01-01,-13.8
Y_LT25,T,PPCH_3Y,LT,2014-01-01,-13.3
Y_LT25,T,PPCH_3Y,LT,2015-01-01,-10.4
Y_LT25,T,PPCH_3Y,LT,2016-01-01,-7.4
Y_LT25,T,PPCH_3Y,LT,2017-01-01,-6.0
Y_LT25,T,PPCH_3Y,LT,2018-01-01,-5.2
Y_LT25,T,PPCH_3Y,LU,1995-01-01,3.4
Y_LT25,T,PPCH_3Y,LU,1996-01-01,3.0
Y_LT25,T,PPCH_3Y,LU,1997-01-01,0.8
Y_LT25,T,PPCH_3Y,LU,1998-01-01,-0.3
Y_LT25,T,PPCH_3Y,LU,1999-01-01,-1.3
Y_LT25,T,PPCH_3Y,LU,2000-01-01,-1.5
Y_LT25,T,PPCH_3Y,LU,2001-01-01,-0.7
Y_LT25,T,PPCH_3Y,LU,2002-01-01,0.1
Y_LT25,T,PPCH_3Y,LU,2003-01-01,4.8
Y_LT25,T,PPCH_3Y,LU,2004-01-01,10.2
Y_LT25,T,PPCH_3Y,LU,2005-01-01,7.6
Y_LT25,T,PPCH_3Y,LU,2006-01-01,4.3
Y_LT25,T,PPCH_3Y,LU,2007-01-01,-0.8
Y_LT25,T,PPCH_3Y,LU,2008-01-01,2.7
Y_LT25,T,PPCH_3Y,LU,2009-01-01,1.0
Y_LT25,T,PPCH_3Y,LU,2010-01-01,0.2
Y_LT25,T,PPCH_3Y,LU,2011-01-01,-0.9
Y_LT25,T,PPCH_3Y,LU,2012-01-01,1.5
Y_LT25,T,PPCH_3Y,LU,2013-01-01,1.1
Y_LT25,T,PPCH_3Y,LU,2014-01-01,5.9
Y_LT25,T,PPCH_3Y,LU,2015-01-01,-1.4
Y_LT25,T,PPCH_3Y,LU,2016-01-01,2.2
Y_LT25,T,PPCH_3Y,LU,2017-01-01,-6.8
Y_LT25,T,PPCH_3Y,LU,2018-01-01,-2.8
Y_LT25,T,PPCH_3Y,LV,1995-01-01,
Y_LT25,T,PPCH_3Y,LV,1996-01-01,
Y_LT25,T,PPCH_3Y,LV,1997-01-01,
Y_LT25,T,PPCH_3Y,LV,1998-01-01,
Y_LT25,T,PPCH_3Y,LV,1999-01-01,
Y_LT25,T,PPCH_3Y,LV,2000-01-01,
Y_LT25,T,PPCH_3Y,LV,2001-01-01,
Y_LT25,T,PPCH_3Y,LV,2002-01-01,-3.7
Y_LT25,T,PPCH_3Y,LV,2003-01-01,-2.8
Y_LT25,T,PPCH_3Y,LV,2004-01-01,-2.7
Y_LT25,T,PPCH_3Y,LV,2005-01-01,-5.2
Y_LT25,T,PPCH_3Y,LV,2006-01-01,-6.0
Y_LT25,T,PPCH_3Y,LV,2007-01-01,-9.4
Y_LT25,T,PPCH_3Y,LV,2008-01-01,-1.5
Y_LT25,T,PPCH_3Y,LV,2009-01-01,19.7
Y_LT25,T,PPCH_3Y,LV,2010-01-01,25.6
Y_LT25,T,PPCH_3Y,LV,2011-01-01,17.4
Y_LT25,T,PPCH_3Y,LV,2012-01-01,-4.8
Y_LT25,T,PPCH_3Y,LV,2013-01-01,-13.0
Y_LT25,T,PPCH_3Y,LV,2014-01-01,-11.4
Y_LT25,T,PPCH_3Y,LV,2015-01-01,-12.2
Y_LT25,T,PPCH_3Y,LV,2016-01-01,-5.9
Y_LT25,T,PPCH_3Y,LV,2017-01-01,-2.6
Y_LT25,T,PPCH_3Y,LV,2018-01-01,-4.1
Y_LT25,T,PPCH_3Y,MT,1995-01-01,
Y_LT25,T,PPCH_3Y,MT,1996-01-01,
Y_LT25,T,PPCH_3Y,MT,1997-01-01,
Y_LT25,T,PPCH_3Y,MT,1998-01-01,
Y_LT25,T,PPCH_3Y,MT,1999-01-01,
Y_LT25,T,PPCH_3Y,MT,2000-01-01,
Y_LT25,T,PPCH_3Y,MT,2001-01-01,
Y_LT25,T,PPCH_3Y,MT,2002-01-01,
Y_LT25,T,PPCH_3Y,MT,2003-01-01,2.7
Y_LT25,T,PPCH_3Y,MT,2004-01-01,-2.2
Y_LT25,T,PPCH_3Y,MT,2005-01-01,1.3
Y_LT25,T,PPCH_3Y,MT,2006-01-01,-0.9
Y_LT25,T,PPCH_3Y,MT,2007-01-01,-3.1
Y_LT25,T,PPCH_3Y,MT,2008-01-01,-4.4
Y_LT25,T,PPCH_3Y,MT,2009-01-01,-1.0
Y_LT25,T,PPCH_3Y,MT,2010-01-01,-0.3
Y_LT25,T,PPCH_3Y,MT,2011-01-01,1.6
Y_LT25,T,PPCH_3Y,MT,2012-01-01,-0.7
Y_LT25,T,PPCH_3Y,MT,2013-01-01,-0.5
Y_LT25,T,PPCH_3Y,MT,2014-01-01,-1.6
Y_LT25,T,PPCH_3Y,MT,2015-01-01,-2.2
Y_LT25,T,PPCH_3Y,MT,2016-01-01,-2.0
Y_LT25,T,PPCH_3Y,MT,2017-01-01,-1.1
Y_LT25,T,PPCH_3Y,MT,2018-01-01,-2.4
Y_LT25,T,PPCH_3Y,NL,1995-01-01,8.3
Y_LT25,T,PPCH_3Y,NL,1996-01-01,5.3
Y_LT25,T,PPCH_3Y,NL,1997-01-01,1.3
Y_LT25,T,PPCH_3Y,NL,1998-01-01,-5.9
Y_LT25,T,PPCH_3Y,NL,1999-01-01,-6.3
Y_LT25,T,PPCH_3Y,NL,2000-01-01,-4.2
Y_LT25,T,PPCH_3Y,NL,2001-01-01,-4.2
Y_LT25,T,PPCH_3Y,NL,2002-01-01,-2.0
Y_LT25,T,PPCH_3Y,NL,2003-01-01,1.7
Y_LT25,T,PPCH_3Y,NL,2004-01-01,4.7
Y_LT25,T,PPCH_3Y,NL,2005-01-01,4.4
Y_LT25,T,PPCH_3Y,NL,2006-01-01,0.1
Y_LT25,T,PPCH_3Y,NL,2007-01-01,-2.0
Y_LT25,T,PPCH_3Y,NL,2008-01-01,-3.2
Y_LT25,T,PPCH_3Y,NL,2009-01-01,0.2
Y_LT25,T,PPCH_3Y,NL,2010-01-01,1.7
Y_LT25,T,PPCH_3Y,NL,2011-01-01,1.4
Y_LT25,T,PPCH_3Y,NL,2012-01-01,1.5
Y_LT25,T,PPCH_3Y,NL,2013-01-01,2.1
Y_LT25,T,PPCH_3Y,NL,2014-01-01,2.7
Y_LT25,T,PPCH_3Y,NL,2015-01-01,-0.4
Y_LT25,T,PPCH_3Y,NL,2016-01-01,-2.4
Y_LT25,T,PPCH_3Y,NL,2017-01-01,-3.8
Y_LT25,T,PPCH_3Y,NL,2018-01-01,-4.1
Y_LT25,T,PPCH_3Y,PL,1995-01-01,
Y_LT25,T,PPCH_3Y,PL,1996-01-01,
Y_LT25,T,PPCH_3Y,PL,1997-01-01,
Y_LT25,T,PPCH_3Y,PL,1998-01-01,
Y_LT25,T,PPCH_3Y,PL,1999-01-01,
Y_LT25,T,PPCH_3Y,PL,2000-01-01,11.7
Y_LT25,T,PPCH_3Y,PL,2001-01-01,17.0
Y_LT25,T,PPCH_3Y,PL,2002-01-01,12.4
Y_LT25,T,PPCH_3Y,PL,2003-01-01,7.0
Y_LT25,T,PPCH_3Y,PL,2004-01-01,0.1
Y_LT25,T,PPCH_3Y,PL,2005-01-01,-5.6
Y_LT25,T,PPCH_3Y,PL,2006-01-01,-12.1
Y_LT25,T,PPCH_3Y,PL,2007-01-01,-18.0
Y_LT25,T,PPCH_3Y,PL,2008-01-01,-19.7
Y_LT25,T,PPCH_3Y,PL,2009-01-01,-9.2
Y_LT25,T,PPCH_3Y,PL,2010-01-01,2.1
Y_LT25,T,PPCH_3Y,PL,2011-01-01,8.6
Y_LT25,T,PPCH_3Y,PL,2012-01-01,5.9
Y_LT25,T,PPCH_3Y,PL,2013-01-01,3.6
Y_LT25,T,PPCH_3Y,PL,2014-01-01,-1.9
Y_LT25,T,PPCH_3Y,PL,2015-01-01,-5.7
Y_LT25,T,PPCH_3Y,PL,2016-01-01,-9.6
Y_LT25,T,PPCH_3Y,PL,2017-01-01,-9.1
Y_LT25,T,PPCH_3Y,PL,2018-01-01,-9.1
Y_LT25,T,PPCH_3Y,PT,1995-01-01,5.8
Y_LT25,T,PPCH_3Y,PT,1996-01-01,3.7
Y_LT25,T,PPCH_3Y,PT,1997-01-01,0.3
Y_LT25,T,PPCH_3Y,PT,1998-01-01,-4.2
Y_LT25,T,PPCH_3Y,PT,1999-01-01,-5.9
Y_LT25,T,PPCH_3Y,PT,2000-01-01,-4.7
Y_LT25,T,PPCH_3Y,PT,2001-01-01,-0.7
Y_LT25,T,PPCH_3Y,PT,2002-01-01,2.8
Y_LT25,T,PPCH_3Y,PT,2003-01-01,6.1
Y_LT25,T,PPCH_3Y,PT,2004-01-01,6.3
Y_LT25,T,PPCH_3Y,PT,2005-01-01,5.2
Y_LT25,T,PPCH_3Y,PT,2006-01-01,2.6
Y_LT25,T,PPCH_3Y,PT,2007-01-01,1.7
Y_LT25,T,PPCH_3Y,PT,2008-01-01,0.8
Y_LT25,T,PPCH_3Y,PT,2009-01-01,4.1
Y_LT25,T,PPCH_3Y,PT,2010-01-01,6.8
Y_LT25,T,PPCH_3Y,PT,2011-01-01,8.6
Y_LT25,T,PPCH_3Y,PT,2012-01-01,12.7
Y_LT25,T,PPCH_3Y,PT,2013-01-01,9.9
Y_LT25,T,PPCH_3Y,PT,2014-01-01,4.5
Y_LT25,T,PPCH_3Y,PT,2015-01-01,-6.0
Y_LT25,T,PPCH_3Y,PT,2016-01-01,-9.9
Y_LT25,T,PPCH_3Y,PT,2017-01-01,-10.9
Y_LT25,T,PPCH_3Y,PT,2018-01-01,-11.7
Y_LT25,T,PPCH_3Y,RO,1995-01-01,
Y_LT25,T,PPCH_3Y,RO,1996-01-01,
Y_LT25,T,PPCH_3Y,RO,1997-01-01,
Y_LT25,T,PPCH_3Y,RO,1998-01-01,
Y_LT25,T,PPCH_3Y,RO,1999-01-01,
Y_LT25,T,PPCH_3Y,RO,2000-01-01,0.7
Y_LT25,T,PPCH_3Y,RO,2001-01-01,1.6
Y_LT25,T,PPCH_3Y,RO,2002-01-01,3.3
Y_LT25,T,PPCH_3Y,RO,2003-01-01,2.0
Y_LT25,T,PPCH_3Y,RO,2004-01-01,3.5
Y_LT25,T,PPCH_3Y,RO,2005-01-01,-0.7
Y_LT25,T,PPCH_3Y,RO,2006-01-01,1.7
Y_LT25,T,PPCH_3Y,RO,2007-01-01,-1.2
Y_LT25,T,PPCH_3Y,RO,2008-01-01,-1.5
Y_LT25,T,PPCH_3Y,RO,2009-01-01,-0.2
Y_LT25,T,PPCH_3Y,RO,2010-01-01,2.8
Y_LT25,T,PPCH_3Y,RO,2011-01-01,6.3
Y_LT25,T,PPCH_3Y,RO,2012-01-01,2.6
Y_LT25,T,PPCH_3Y,RO,2013-01-01,1.6
Y_LT25,T,PPCH_3Y,RO,2014-01-01,0.1
Y_LT25,T,PPCH_3Y,RO,2015-01-01,-0.9
Y_LT25,T,PPCH_3Y,RO,2016-01-01,-3.1
Y_LT25,T,PPCH_3Y,RO,2017-01-01,-5.7
Y_LT25,T,PPCH_3Y,RO,2018-01-01,-5.5
Y_LT25,T,PPCH_3Y,SE,1995-01-01,5.9
Y_LT25,T,PPCH_3Y,SE,1996-01-01,-1.5
Y_LT25,T,PPCH_3Y,SE,1997-01-01,-1.4
Y_LT25,T,PPCH_3Y,SE,1998-01-01,-3.0
Y_LT25,T,PPCH_3Y,SE,1999-01-01,-8.2
Y_LT25,T,PPCH_3Y,SE,2000-01-01,-10.1
Y_LT25,T,PPCH_3Y,SE,2001-01-01,-1.1
Y_LT25,T,PPCH_3Y,SE,2002-01-01,4.1
Y_LT25,T,PPCH_3Y,SE,2003-01-01,6.9
Y_LT25,T,PPCH_3Y,SE,2004-01-01,5.4
Y_LT25,T,PPCH_3Y,SE,2005-01-01,6.2
Y_LT25,T,PPCH_3Y,SE,2006-01-01,4.1
Y_LT25,T,PPCH_3Y,SE,2007-01-01,-1.2
Y_LT25,T,PPCH_3Y,SE,2008-01-01,-2.4
Y_LT25,T,PPCH_3Y,SE,2009-01-01,3.5
Y_LT25,T,PPCH_3Y,SE,2010-01-01,5.6
Y_LT25,T,PPCH_3Y,SE,2011-01-01,2.6
Y_LT25,T,PPCH_3Y,SE,2012-01-01,-1.3
Y_LT25,T,PPCH_3Y,SE,2013-01-01,-1.2
Y_LT25,T,PPCH_3Y,SE,2014-01-01,0.1
Y_LT25,T,PPCH_3Y,SE,2015-01-01,-3.3
Y_LT25,T,PPCH_3Y,SE,2016-01-01,-4.7
Y_LT25,T,PPCH_3Y,SE,2017-01-01,-5.1
Y_LT25,T,PPCH_3Y,SE,2018-01-01,-3.6
Y_LT25,T,PPCH_3Y,SI,1995-01-01,
Y_LT25,T,PPCH_3Y,SI,1996-01-01,
Y_LT25,T,PPCH_3Y,SI,1997-01-01,
Y_LT25,T,PPCH_3Y,SI,1998-01-01,
Y_LT25,T,PPCH_3Y,SI,1999-01-01,0.0
Y_LT25,T,PPCH_3Y,SI,2000-01-01,-0.9
Y_LT25,T,PPCH_3Y,SI,2001-01-01,0.0
Y_LT25,T,PPCH_3Y,SI,2002-01-01,-1.0
Y_LT25,T,PPCH_3Y,SI,2003-01-01,1.0
Y_LT25,T,PPCH_3Y,SI,2004-01-01,-1.7
Y_LT25,T,PPCH_3Y,SI,2005-01-01,-0.6
Y_LT25,T,PPCH_3Y,SI,2006-01-01,-3.4
Y_LT25,T,PPCH_3Y,SI,2007-01-01,-6.0
Y_LT25,T,PPCH_3Y,SI,2008-01-01,-5.5
Y_LT25,T,PPCH_3Y,SI,2009-01-01,-0.3
Y_LT25,T,PPCH_3Y,SI,2010-01-01,4.6
Y_LT25,T,PPCH_3Y,SI,2011-01-01,5.3
Y_LT25,T,PPCH_3Y,SI,2012-01-01,7.0
Y_LT25,T,PPCH_3Y,SI,2013-01-01,6.9
Y_LT25,T,PPCH_3Y,SI,2014-01-01,4.5
Y_LT25,T,PPCH_3Y,SI,2015-01-01,-4.3
Y_LT25,T,PPCH_3Y,SI,2016-01-01,-6.4
Y_LT25,T,PPCH_3Y,SI,2017-01-01,-9.0
Y_LT25,T,PPCH_3Y,SI,2018-01-01,-7.5
Y_LT25,T,PPCH_3Y,SK,1995-01-01,
Y_LT25,T,PPCH_3Y,SK,1996-01-01,
Y_LT25,T,PPCH_3Y,SK,1997-01-01,
Y_LT25,T,PPCH_3Y,SK,1998-01-01,
Y_LT25,T,PPCH_3Y,SK,1999-01-01,
Y_LT25,T,PPCH_3Y,SK,2000-01-01,
Y_LT25,T,PPCH_3Y,SK,2001-01-01,14.1
Y_LT25,T,PPCH_3Y,SK,2002-01-01,3.9
Y_LT25,T,PPCH_3Y,SK,2003-01-01,-3.5
Y_LT25,T,PPCH_3Y,SK,2004-01-01,-6.2
Y_LT25,T,PPCH_3Y,SK,2005-01-01,-7.7
Y_LT25,T,PPCH_3Y,SK,2006-01-01,-6.8
Y_LT25,T,PPCH_3Y,SK,2007-01-01,-12.8
Y_LT25,T,PPCH_3Y,SK,2008-01-01,-11.1
Y_LT25,T,PPCH_3Y,SK,2009-01-01,0.6
Y_LT25,T,PPCH_3Y,SK,2010-01-01,13.3
Y_LT25,T,PPCH_3Y,SK,2011-01-01,14.4
Y_LT25,T,PPCH_3Y,SK,2012-01-01,6.4
Y_LT25,T,PPCH_3Y,SK,2013-01-01,-0.2
Y_LT25,T,PPCH_3Y,SK,2014-01-01,-4.0
Y_LT25,T,PPCH_3Y,SK,2015-01-01,-7.5
Y_LT25,T,PPCH_3Y,SK,2016-01-01,-11.5
Y_LT25,T,PPCH_3Y,SK,2017-01-01,-10.8
Y_LT25,T,PPCH_3Y,SK,2018-01-01,-11.6
Y_LT25,T,PPCH_3Y,UK,1995-01-01,-1.0
Y_LT25,T,PPCH_3Y,UK,1996-01-01,-2.6
Y_LT25,T,PPCH_3Y,UK,1997-01-01,-2.7
Y_LT25,T,PPCH_3Y,UK,1998-01-01,-2.2
Y_LT25,T,PPCH_3Y,UK,1999-01-01,-2.2
Y_LT25,T,PPCH_3Y,UK,2000-01-01,-1.5
Y_LT25,T,PPCH_3Y,UK,2001-01-01,-1.4
Y_LT25,T,PPCH_3Y,UK,2002-01-01,-0.7
Y_LT25,T,PPCH_3Y,UK,2003-01-01,0.0
Y_LT25,T,PPCH_3Y,UK,2004-01-01,0.3
Y_LT25,T,PPCH_3Y,UK,2005-01-01,0.8
Y_LT25,T,PPCH_3Y,UK,2006-01-01,1.7
Y_LT25,T,PPCH_3Y,UK,2007-01-01,2.3
Y_LT25,T,PPCH_3Y,UK,2008-01-01,2.2
Y_LT25,T,PPCH_3Y,UK,2009-01-01,5.2
Y_LT25,T,PPCH_3Y,UK,2010-01-01,5.6
Y_LT25,T,PPCH_3Y,UK,2011-01-01,6.3
Y_LT25,T,PPCH_3Y,UK,2012-01-01,2.1
Y_LT25,T,PPCH_3Y,UK,2013-01-01,0.8
Y_LT25,T,PPCH_3Y,UK,2014-01-01,-4.3
Y_LT25,T,PPCH_3Y,UK,2015-01-01,-6.6
Y_LT25,T,PPCH_3Y,UK,2016-01-01,-7.7
Y_LT25,T,PPCH_3Y,UK,2017-01-01,-4.9
Y_LT25,T,PPCH_3Y,UK,2018-01-01,-3.3
