"NIIP.pc_gdp<=-65.828 & YUR.pch_3y>2.2 & UR.avg_3y<=15.144"
"PSD.pc_gdp>107.492 & UR.avg_3y<=10.171 & UR.avg_3y>6.75"
"GD.pc_gdp<=63.95"
"PC_CA.avg_3y>-4.85 & PSD.pc_gdp>98.05 & UR.avg_3y>10.14"
"Else"
