"PC_CA.avg_3y<=-2.098 & NIIP.pc_gdp<=-65.228 & YUR.pch_3y>0.368"
"PSD.pc_gdp>107.711 & UR.avg_3y<=10.171 & UR.avg_3y>6.75"
"PC_CA.avg_3y>-4.834 & HPI.pch>98.679 & UR.avg_3y>10.171"
"PC_CA.avg_3y>-4.85 & GD.pc_gdp<=56.1"
"Else"
