"PC_CA.avg_3y<=-1.25 & FSL.pch<=4.9 & NIIP.pc_gdp<=-65.228"
"PSD.pc_gdp>107.492 & UR.avg_3y<=10.14 & UR.avg_3y>6.75"
"GD.pc_gdp<=55.884"
"FSL.pch<=4.679 & ULC.pch_3y<=3.15 & PSD.pc_gdp<=199.4"
"Else"
