"PC_CA.avg_3y<=-1.751 & FSL.pch<=4.85 & YUR.pch_3y>2.629"
"PC_CA.avg_3y>-5.05 & HPI.pch>97.819 & UR.avg_3y>10.294"
"X_GS_share_M.pch_5y>-3.35 & NIIP.pc_gdp>-66.42"
"PC_CA.avg_3y>-4.834 & ULC.pch_3y>2.498 & PSD.pc_gdp>90.95"
"Else"
