"PC_CA.avg_3y<=-1.8 & NIIP.pc_gdp<=-65.7 & YUR.pch_3y>3.612"
"LTU.pch_3y<=3.402 & PSD.pc_gdp>98.05 & UR.avg_3y>10.14"
"PC_CA.avg_3y>-4.85 & GD.pc_gdp<=63.95"
"ULC.pch_3y>-0.878 & PSD.pc_gdp>96.667"
"Else"
