"PC_CA.avg_3y<=-2.066 & NIIP.pc_gdp<=-65.7 & YUR.pch_3y>2.404"
"HPI.pch>97.225 & ULC.pch_3y>-5.819 & UR.avg_3y>10.14"
"X_GS_share_M.pch_5y>-4.625 & NIIP.pc_gdp>-65.828"
"YUR.pch_3y<=7.959 & PSD.pc_gdp>90.95"
"Else"
