"NIIP.pc_gdp<=-66.42 & YUR.pch_3y>3.612 & UR.avg_3y<=15.3"
"PC_CA.avg_3y>-1.15 & HPI.pch>97.09 & UR.avg_3y>10.307"
"X_GS_share_M.pch_5y<=-9.29 & LTU.pch_3y<=2.337"
"X_GS_share_M.pch_5y>-4.764 & NIIP.pc_gdp>-66.42"
"Else"
