"PC_CA.avg_3y<=-2.066 & NIIP.pc_gdp<=-65.7 & YUR.pch_3y>0.368"
"PC_CA.avg_3y>-4.85 & GD.pc_gdp<=55.884 & GD.pc_gdp>32.99"
"PC_CA.avg_3y>-2.066 & HPI.pch>97.301 & UR.avg_3y>10.171"
"X_GS_share_M.pch_5y<=-0.684 & ULC.pch_3y>-1.104"
"Else"
