"PC_CA.avg_3y<=-2.066 & NIIP.pc_gdp<=-65.828 & YUR.pch_3y>1.4"
"PC_CA.avg_3y>-2.066 & HPI.pch>97.09 & UR.avg_3y>10.14"
"LTU.pch_3y<=0.505 & UR.avg_3y<=7.619"
"X_GS_share_M.pch_5y<=3.03 & LTU.pch_3y>-1.05 & UR.avg_3y<=11.307"
"Else"
