"PC_CA.avg_3y<=-2.05 & NIIP.pc_gdp<=-65.7 & YUR.pch_3y>3.612"
"PC_CA.avg_3y>-1.3 & HPI.pch>97.09 & UR.avg_3y>10.307"
"PSD.pc_gdp>79.75 & UR.avg_3y<=10.14 & UR.avg_3y>6.75"
"PC_CA.avg_3y>-4.834 & X_GS_share_M.pch_5y>-9.319 & NIIP.pc_gdp>-69.5"
"Else"
