PC_CA-avg_3y,REER-pch_3y,X_GS_share_M-pch_5y,FSL-pch,GD-pc_gdp,HPI-pch,NIIP-pc_gdp,ULC-pch_3y,ACT-pch_3y,LTU-pch_3y,YUR-pch_3y,PSCF-pc_gdp,PSD-pc_gdp,UR-avg_3y,label
-1.6,2.1,-21.62,1.4,63.4,100.0,1.5,3.4,0.6,0.7,3.4,6.9,152.6,8.8,2
-0.5,-0.2,-13.06,0.9,105.5,100.1,51.9,8.3,-0.2,-0.1,1.3,8.2,169.2,7.7,2
5.2,-0.7,28.69,45.8,22.2,100.0,31.1,2.6,1.5,0.3,-1.4,23.0,345.4,6.1,1
-0.2,4.8,20.49,13.2,10.5,93.49,-47.0,14.1,0.5,-3.8,-7.4,5.6,116.1,8.7,1
0.2,-4.3,-15.53,-5.1,104.3,99.74,51.8,5.4,0.0,-0.1,-2.1,13.2,189.3,7.7,2
0.4,-0.8,14.29,1.9,124.8,114.39,-104.9,3.5,1.5,-3.9,-10.9,2.0,163.0,10.9,2
6.9,-2.5,-17.82,1.8,44.0,91.0,37.2,1.5,-1.3,0.3,-0.9,-3.0,216.1,7.4,1
-3.8,-2.5,-8.56,2.0,69.5,128.51,-91.9,-1.0,1.2,6.9,21.7,-3.7,196.4,19.7,2
-3.6,3.4,-11.96,-7.7,85.2,89.52,-18.0,3.3,1.0,0.2,0.8,7.0,172.8,7.8,2
-1.4,-4.0,-11.22,-16.6,178.5,98.35,-137.8,-3.3,0.7,-1.5,-11.0,-2.1,125.1,25.0,4
3.3,1.2,-12.73,-0.2,80.4,98.61,-38.4,0.0,0.6,1.7,4.5,-4.7,97.4,9.6,2
-2.9,-3.2,-10.27,0.7,52.2,93.78,-61.4,0.8,1.0,2.9,6.4,3.1,71.8,14.1,1
5.7,0.8,7.4,10.3,23.7,91.26,53.9,7.6,1.7,0.5,1.1,27.8,313.3,5.3,1
-3.6,-6.2,-12.25,11.1,108.0,100.0,-145.0,-10.9,0.4,3.2,5.1,4.1,353.5,15.7,3
-1.1,0.4,-13.91,3.9,63.0,100.04,8.6,0.7,0.7,0.6,0.2,1.4,148.5,9.0,1
5.4,0.5,14.89,9.6,22.7,94.79,48.8,7.1,2.9,0.2,5.9,29.5,334.7,5.7,1
-0.8,-1.3,-14.53,5.6,94.9,101.8,-15.6,4.4,1.3,0.5,1.6,3.2,141.5,10.1,3
2.1,0.1,2.04,1.8,78.2,110.82,3.7,3.7,1.0,0.3,-0.5,4.3,122.5,5.7,1
-0.6,-3.2,1.1,4.5,98.0,100.81,-13.0,1.7,0.7,0.2,-0.3,6.9,146.3,10.3,3
8.4,-1.8,1.61,-0.1,57.0,110.72,59.4,-0.1,0.7,-1.0,-3.8,3.7,249.1,5.9,2
-2.8,-3.2,-19.27,5.1,116.5,124.95,-18.3,5.3,-0.8,1.3,8.0,3.1,122.7,8.2,2
5.7,-2.4,25.21,4.7,50.2,109.17,64.5,1.3,4.4,-1.1,-1.1,2.8,118.5,4.7,1
-4.8,1.4,1.42,10.7,53.7,101.1,-65.3,5.3,1.8,1.6,5.9,4.8,73.4,9.8,1
-5.0,-6.6,6.63,-2.3,95.8,103.04,-121.1,-2.5,-0.4,-3.2,-11.3,8.6,315.1,13.0,3
5.8,3.2,-12.17,2.8,37.8,78.14,-8.5,5.6,0.6,0.7,2.6,6.9,191.3,8.2,2
-1.0,-8.3,-31.67,-1.4,53.9,103.45,11.7,6.0,0.2,0.2,-2.5,7.1,148.6,8.0,2
-2.4,-1.0,4.69,0.7,50.4,97.43,-69.1,2.9,2.2,0.2,-1.9,4.6,78.1,9.8,1
0.6,-2.8,5.59,5.6,27.1,98.47,-72.3,17.8,3.1,0.6,-1.2,-1.1,123.4,12.2,3
-1.3,-2.6,23.16,6.9,37.3,105.21,-49.0,9.5,0.7,-0.2,-3.1,0.6,55.6,6.5,1
1.9,-3.3,18.96,1.1,25.6,113.8,-44.7,13.6,2.3,-3.5,-10.9,6.2,100.1,7.7,2
1.8,0.1,-12.48,6.4,63.4,96.14,43.0,2.8,6.0,-0.3,-1.6,3.8,135.1,6.0,1
-0.3,-3.6,-14.64,19.5,104.1,90.08,-164.3,-3.7,0.6,-2.2,-6.2,2.5,279.0,13.7,2
-5.0,-2.0,12.33,4.4,37.0,104.31,-67.6,6.8,1.7,0.8,2.6,0.3,72.1,7.0,4
-0.8,-7.8,-18.28,1.4,90.6,106.3,-12.8,4.1,0.5,0.8,0.8,4.2,138.3,9.4,2
0.6,1.6,7.45,6.1,40.0,113.25,-56.3,14.7,2.4,-1.3,-2.6,0.3,83.5,9.4,1
-1.0,2.7,20.46,4.1,37.8,100.0,-54.6,0.6,1.3,0.0,-0.9,0.2,59.1,6.9,1
-0.7,2.1,-4.1,1.7,54.7,93.4,-62.3,2.2,1.2,0.8,-0.2,5.1,76.9,14.0,1
-0.7,-4.4,-15.41,6.9,87.8,108.42,-8.7,5.4,0.3,1.1,3.6,6.4,135.3,9.2,2
-0.9,-1.6,7.95,8.5,51.8,107.02,-66.6,3.1,2.0,-4.2,-11.5,9.5,90.5,11.5,1
-3.6,-7.4,-2.16,1.8,105.5,101.69,-123.0,-6.9,-0.2,-0.3,-9.8,9.7,337.8,14.7,3
-0.6,-0.3,-11.23,-9.3,95.5,96.24,-95.2,-4.1,0.8,5.7,14.0,-10.3,177.2,24.1,2
-1.6,2.5,12.46,12.2,36.8,100.0,-63.5,17.5,1.3,-3.3,-12.2,0.7,88.9,10.9,1
-4.4,3.4,-2.74,0.3,43.7,99.72,-64.4,6.1,-0.1,2.6,14.4,3.0,70.2,13.4,1
2.4,0.1,-6.16,2.0,83.7,100.0,-76.4,-6.3,3.0,0.0,0.1,-1.4,113.0,16.9,3
-8.4,-5.0,-25.26,-2.1,159.6,120.03,-115.9,-2.3,0.1,10.6,29.6,-4.7,132.5,18.4,4
-1.6,-8.6,7.94,5.2,41.6,92.19,-67.2,-6.9,0.9,3.3,-4.8,-2.1,97.9,16.9,1
-3.0,-7.8,-25.7,10.4,80.8,90.84,-11.3,6.7,-0.3,1.3,6.3,1.6,178.5,7.8,2
-2.9,-7.6,12.21,6.1,67.7,95.5,19.6,8.6,4.5,0.1,-0.7,-0.7,153.2,6.5,2
4.6,-0.6,3.66,3.2,78.7,103.77,-28.9,0.9,1.1,-0.9,-6.4,-0.8,80.6,8.9,2
-0.6,-2.9,-3.7,2.2,95.6,100.0,-12.9,2.3,1.0,0.5,0.3,4.6,142.8,10.3,3
-2.1,2.7,-26.39,9.2,60.2,100.5,-3.2,7.8,0.5,0.2,0.4,1.7,149.8,8.2,2
0.7,-3.7,2.39,16.3,36.8,106.67,-26.9,2.7,2.1,-1.3,-8.4,4.3,68.7,5.1,1
-0.7,-1.7,-11.9,2.7,106.4,100.0,45.9,1.3,0.7,1.0,2.3,12.4,180.9,8.5,1
-4.9,-3.2,49.98,4.6,34.2,114.69,-66.1,2.2,1.2,0.5,6.3,2.8,73.7,6.9,4
0.2,-6.2,71.49,4.3,68.5,116.73,-168.9,-15.4,0.9,-3.6,-9.0,-7.4,241.2,8.4,2
-5.0,0.2,0.91,11.7,87.9,105.4,-2.4,3.0,0.9,-1.4,-7.7,11.5,170.0,5.4,1
2.3,-6.4,37.8,9.6,76.8,100.0,-198.7,-18.6,1.0,-3.9,-10.6,-2.3,305.6,11.9,2
-2.4,0.5,-4.45,5.2,44.5,95.33,-45.9,3.8,1.5,1.0,2.9,2.9,70.7,7.0,1
2.0,-4.7,-21.7,0.4,81.9,92.67,-3.2,3.8,0.8,0.0,-1.3,1.2,128.2,4.8,1
2.9,-2.8,9.06,1.3,57.9,100.0,37.4,-1.4,4.9,-0.6,-2.2,2.7,120.8,5.7,1
8.0,-2.2,0.21,4.8,35.5,108.16,55.5,2.4,0.7,-0.4,-1.6,0.1,201.7,6.0,1
-0.1,-4.5,-20.83,-0.7,53.8,113.8,-44.2,0.6,-1.4,2.5,7.0,-2.9,112.3,8.1,3
5.5,5.1,-17.21,9.1,40.7,82.38,-16.0,8.6,2.0,-0.2,-1.2,4.5,195.4,7.9,2
0.0,-1.8,-6.14,-7.5,130.6,97.92,-118.6,-2.7,-0.4,2.2,4.5,-5.7,190.5,15.4,3
-1.3,-1.4,9.15,2.4,51.3,100.0,-62.1,0.2,1.6,-1.1,-5.7,3.5,78.9,8.9,1
-2.4,-5.3,-18.22,0.3,85.7,106.97,-89.9,-5.1,1.2,6.7,15.2,-11.2,188.0,22.0,3
0.4,-3.6,6.79,10.5,9.7,77.23,-51.1,0.0,0.8,1.8,-6.5,6.8,117.8,13.0,1
-1.4,-3.1,-9.79,11.4,44.9,94.56,-41.4,4.2,2.7,0.0,0.6,4.4,73.7,6.9,1
-2.1,0.2,-31.44,-11.6,56.5,102.19,3.9,9.1,0.7,-0.3,-1.5,2.8,147.7,7.9,2
6.9,-0.4,-9.53,4.6,75.3,96.08,40.6,7.0,0.4,-0.6,-0.8,0.1,99.0,5.2,2
0.0,5.3,5.02,16.6,40.0,104.46,-42.7,15.3,3.1,-2.1,-7.4,4.4,56.1,9.2,1
1.1,5.8,7.38,8.6,9.9,100.0,-40.2,13.2,1.9,-3.1,-7.8,2.7,113.5,7.4,1
-0.8,-0.4,-2.45,2.3,106.1,100.92,57.0,-0.4,0.1,0.1,-3.6,23.0,198.9,8.3,1
-2.5,-9.6,-10.25,-2.3,110.9,92.29,-139.1,-13.7,-3.6,7.1,16.1,16.5,274.5,14.2,4
-1.5,-5.6,-15.41,15.2,175.9,100.0,-135.4,-9.7,0.3,3.7,-5.5,-2.9,127.9,26.3,4
1.3,-0.6,-18.22,-10.3,70.4,105.58,-39.6,0.5,-1.0,2.0,6.9,-4.0,107.2,9.1,3
-2.1,-12.2,-18.32,-1.8,119.9,78.63,-137.7,-9.9,-1.9,5.7,6.3,-0.6,279.8,15.2,4
2.3,-6.8,-16.69,8.4,76.7,88.25,-80.3,5.7,4.6,-1.5,-5.6,-0.1,91.4,9.6,2
0.3,-2.8,-23.46,28.8,48.5,103.94,15.1,9.4,-1.1,0.5,3.6,3.6,145.4,8.1,2
0.3,-0.9,-0.17,4.3,17.1,96.99,-73.6,16.0,1.7,2.7,6.5,7.3,132.3,12.2,2
7.4,-1.5,-3.2,2.9,71.6,100.0,46.4,5.6,0.4,-0.4,-0.8,3.3,98.9,4.9,2
-2.4,-6.7,32.33,-0.7,39.8,89.74,-53.6,-4.2,2.2,3.3,-2.9,0.4,61.1,15.5,1
2.3,2.9,2.28,9.7,9.2,105.65,-31.4,12.4,3.6,-1.4,-2.9,3.6,106.4,6.3,1
7.6,-2.3,-3.0,6.7,61.9,104.39,61.4,-0.3,0.3,0.0,-2.4,3.9,259.3,6.8,2
-3.0,6.0,-20.95,-3.5,84.1,89.29,-28.4,3.0,0.4,0.8,2.1,1.7,178.4,7.9,2
-0.4,-0.6,-13.41,3.3,107.5,99.04,45.1,5.6,1.0,0.8,4.5,-2.1,166.8,8.2,2
1.3,-4.7,8.12,11.2,29.6,107.13,-49.2,9.1,0.3,-2.9,-11.2,4.1,104.8,9.4,3
4.2,-9.2,-7.59,9.3,42.4,107.55,0.1,2.5,1.0,-0.1,-4.7,8.0,188.5,7.4,2
-1.7,-0.6,19.27,-1.4,38.8,89.93,-47.1,6.2,2.2,-2.3,-13.8,-0.4,56.3,13.5,1
9.5,0.5,-11.36,-1.6,67.7,96.81,30.7,4.8,1.5,1.2,2.1,9.7,257.7,6.0,2
-0.3,0.9,3.56,0.7,103.4,102.67,52.4,1.1,0.3,-0.8,-3.9,-1.3,187.2,7.8,1
-3.4,-4.3,-0.28,7.4,55.7,96.29,-68.9,3.1,1.7,1.4,3.6,3.3,75.4,10.0,1
-0.8,0.1,-20.2,-2.7,129.0,109.65,-22.7,2.9,1.4,2.9,12.1,-3.0,121.6,10.4,3
6.6,0.1,-3.78,10.9,18.7,86.55,28.9,8.8,1.1,-0.2,-0.9,21.4,284.3,4.8,1
2.2,0.9,-3.36,-2.6,83.0,107.03,3.7,5.3,0.7,0.6,1.5,3.4,124.1,5.8,1
5.1,-3.7,-9.63,13.0,45.5,89.2,-2.3,6.9,1.6,-0.1,0.1,4.9,194.7,8.0,2
-2.1,-0.6,-7.47,-5.4,129.0,94.22,-116.3,-3.4,-0.7,3.6,9.9,-1.6,202.4,15.0,4
0.8,-1.0,-12.29,0.3,100.4,96.35,-98.0,-3.4,0.3,4.0,7.0,-6.8,166.1,25.1,2
0.0,-3.9,-23.33,3.0,80.4,103.59,-88.3,-4.0,-1.4,4.4,17.6,-0.6,117.7,15.6,3
1.2,5.3,8.66,22.9,34.7,116.33,-25.0,5.9,2.4,-1.7,-8.0,4.2,67.3,4.0,1
-4.5,-10.8,-1.27,-1.7,87.1,107.92,-8.1,5.3,0.9,-1.1,-4.9,8.2,171.5,4.8,1
-2.2,-1.0,20.13,1.3,39.2,98.2,-57.3,6.7,1.6,-0.1,0.1,-2.4,62.1,6.9,2
0.0,3.1,9.68,10.4,10.2,83.04,-50.1,9.1,1.2,-3.8,-14.2,3.5,115.9,10.3,1
0.9,1.7,33.64,16.2,40.5,95.61,-45.1,8.7,2.3,-3.2,-13.3,0.3,53.9,12.0,1
4.6,-8.3,-9.34,2.4,44.2,100.0,-4.0,2.5,1.4,0.0,-3.3,7.4,188.3,7.8,2
-6.0,-4.0,-16.62,-3.0,126.2,96.81,-116.5,-6.3,0.0,3.5,12.7,-3.9,210.3,13.6,4
1.8,-2.6,9.46,4.0,98.1,109.35,-83.5,0.0,-0.3,-5.2,-14.6,0.5,139.0,19.6,2
3.6,-0.1,19.6,3.9,77.8,104.96,-62.4,-4.3,0.3,-5.5,-17.7,1.2,98.2,13.5,3
-4.8,-11.4,15.18,4.7,54.1,108.3,-62.4,4.2,1.9,1.2,8.6,6.6,73.9,9.2,1
-1.5,1.7,29.55,2.0,37.2,92.74,-52.7,-7.8,3.0,6.7,19.3,-2.2,64.7,15.7,1
0.9,-0.8,-20.27,0.6,84.0,102.47,-85.3,-6.5,2.0,1.7,8.3,0.1,118.0,16.8,3
-0.2,4.8,9.24,5.8,40.3,107.31,-58.4,16.9,2.3,-1.7,-5.9,0.3,88.0,10.1,1
-1.2,-3.8,-10.59,1.9,119.7,78.24,-133.3,-0.7,0.2,1.1,-1.4,-1.4,268.1,14.9,2
4.1,-2.9,22.47,3.8,55.5,104.82,35.4,-1.1,4.3,-0.9,-2.0,11.1,121.5,5.3,1
1.3,1.2,1.88,8.7,53.5,94.82,-63.6,1.8,1.6,0.1,-4.0,5.7,82.5,13.8,1
9.5,0.7,-11.35,8.0,67.9,96.72,48.0,3.7,0.9,1.3,2.7,4.3,267.2,6.8,2
3.9,0.0,11.05,-8.0,73.4,117.31,-53.0,6.7,4.2,-2.0,-9.7,1.0,71.6,5.4,1
6.1,-2.4,-6.2,15.2,22.0,88.35,50.9,5.9,0.7,0.4,1.5,25.9,303.7,4.8,1
2.7,-7.2,-9.24,0.4,76.7,100.0,-67.5,-0.6,4.9,-1.9,-10.9,-2.5,84.6,8.2,1
8.6,-6.0,-12.8,6.0,66.2,105.12,26.7,2.6,0.9,0.8,1.5,6.1,252.1,5.3,2
-0.3,-3.5,28.06,6.3,50.6,104.53,-61.0,4.2,1.7,-2.3,-9.1,2.8,76.4,6.2,1
2.0,1.9,-15.74,-0.8,84.0,96.78,3.4,7.9,0.8,0.3,1.4,0.9,124.8,5.3,1
-0.8,-1.2,-0.64,1.6,68.4,94.14,27.0,9.8,5.9,-0.3,-0.5,2.7,143.8,6.2,1
0.0,-8.2,-2.19,8.1,40.0,100.0,-32.9,0.1,2.4,-0.6,-6.9,0.3,68.1,6.1,1
0.6,-3.1,1.63,-1.6,128.8,100.0,-113.2,0.5,0.0,-0.5,-6.0,-1.9,179.4,14.4,3
-5.1,-1.7,-24.15,-3.6,108.0,99.77,-147.0,-8.0,0.8,6.1,13.6,-0.3,352.4,14.6,4
0.1,-4.2,-2.38,6.2,80.5,98.42,-105.7,4.3,1.2,1.6,6.5,-4.4,114.5,10.7,2
-0.9,-1.1,-5.59,-1.2,46.6,124.24,-39.9,8.3,-1.5,1.7,5.3,0.4,113.0,7.1,2
-11.2,1.8,-15.83,-3.7,172.1,136.51,-88.8,6.8,0.6,5.1,22.8,-6.5,130.1,13.4,4
5.1,-1.0,19.8,-1.6,23.0,109.76,43.1,7.1,-0.6,0.5,-6.8,-15.0,316.4,6.1,1
2.2,-3.2,1.75,4.3,131.4,97.83,-6.4,1.1,1.5,-1.2,-8.0,2.1,110.3,11.6,3
8.2,-0.9,-6.77,4.0,64.6,100.0,48.9,-0.4,0.6,1.1,-0.4,0.0,262.8,7.2,2
-3.2,-1.7,5.87,5.2,39.4,98.21,-66.4,8.1,1.0,-3.1,-13.0,0.9,92.6,14.4,1
-1.4,-2.9,-1.58,-12.9,176.2,96.77,-140.5,-1.0,0.9,-3.9,-8.8,-0.9,117.3,23.3,4
2.0,1.3,-9.17,-0.1,84.7,100.0,2.2,6.2,0.4,0.5,1.2,2.2,124.2,5.6,1
1.7,0.7,-18.44,-3.2,81.3,95.44,1.3,6.4,1.1,0.1,0.2,1.0,127.1,5.0,1
-5.3,-4.4,-25.7,-17.4,177.4,109.06,-130.4,-10.0,-0.3,12.8,25.3,-4.0,132.1,23.3,4
1.9,-0.8,24.3,-0.2,6.1,74.86,-54.8,-2.6,0.5,5.4,10.4,-1.1,120.4,14.2,1
0.8,-4.3,11.78,6.2,26.2,100.0,-63.0,14.9,2.2,-1.2,-6.5,-0.3,110.5,11.2,3
2.1,-3.8,-22.81,-1.3,77.2,85.38,-83.1,6.2,2.8,-0.6,0.2,-0.9,95.2,10.7,2
4.1,0.3,-4.64,-3.7,82.6,100.0,-31.2,-0.4,1.4,0.4,-4.3,-5.0,86.7,9.6,2
-0.8,-2.2,-14.24,0.5,93.4,103.54,-16.6,4.6,0.9,0.5,1.6,2.1,137.4,9.8,2
-2.6,-0.5,7.43,4.3,39.8,98.86,-45.2,3.4,0.8,0.5,8.2,2.1,68.3,6.9,1
-2.2,-6.2,-25.63,7.3,123.4,118.6,-22.2,2.1,1.2,2.2,10.0,-0.8,125.1,9.2,2
5.9,-4.9,-9.31,2.9,79.4,90.32,23.2,5.4,1.4,-1.1,-1.9,1.6,102.9,6.8,1
-0.7,2.3,9.41,14.0,39.4,110.07,-35.9,16.0,2.2,-2.1,-6.0,3.7,56.1,8.0,1
8.4,-1.7,-2.96,5.1,37.2,104.7,54.6,2.1,1.9,-0.4,-1.0,2.8,209.5,6.3,1
3.4,-5.2,-0.35,19.4,76.0,113.61,-58.7,3.8,5.4,-2.5,-13.7,-3.0,77.9,6.5,1
-4.6,10.1,-9.63,4.8,87.0,94.85,-22.1,3.4,1.2,-0.5,-4.3,6.7,166.0,7.2,2
7.7,-1.2,-15.89,7.3,44.3,93.87,43.3,2.3,-1.2,-0.1,-1.6,-0.3,214.0,7.0,1
1.3,-3.2,-4.06,-1.7,99.3,100.0,-89.5,-0.3,0.0,0.4,-4.6,-1.8,155.0,24.2,2
0.4,-1.2,4.14,10.8,52.2,100.0,-64.4,2.1,1.5,-1.8,-7.5,8.2,83.3,13.0,1
0.07964728336745831,-3.59507694543797,-15.10532684273946,-4.068405286006785,104.50631894279864,99.80189568283959,51.81719324523322,5.898604111763388,-0.03438649046644049,-0.1,-1.5154296620705117,12.340337738338986,185.84415770812274,7.7,2
0.6076588036072605,-1.3614882054108908,3.5084455706293074,3.684682392785479,18.73443739416357,100.22234030539877,-68.04291285984385,15.538511794589109,1.8153720513527225,1.5078221360218658,3.1542105107710405,7.0884845725200085,126.10836657740388,11.33470961485458,2
2.070667138027856,-6.1530261486453846,33.174532583915685,10.473228974432393,79.20799505070751,99.12500692662935,-195.66574982621472,-17.285746291005793,0.9647180212350548,-3.750051590248983,-10.211898233585604,-1.8766162548206582,303.2537484121312,12.058768904442253,2
-2.4771650544728168,-2.156000076337514,-8.191786121686594,7.738485413917835,63.735922385682656,98.1427184095449,7.549204052475277,8.177165054472816,2.3858252723640834,0.15285436819089793,-0.11860194990012285,0.5685048365815499,151.40295148150946,7.3985242592452645,2
1.0828413801755845,-3.4616624314865345,-14.030643774285206,6.360455898104758,84.86769509839542,105.52522860113596,2.865010531928462,5.7753350274053865,0.3234584392128366,0.7012065333817773,2.567828674635188,4.922118329591292,126.78458656574031,8.261662431486535,2
2.111099456083592,-3.9664918412538785,-22.470356643842088,-0.7616763799457917,77.17225135979102,85.53927719479954,-82.9446076148297,6.17225135979102,2.899895104752327,-0.6499475523761636,-0.12188422642416619,-0.8556021756656323,94.98911033441176,10.638952991540243,2
0.10268313274529892,-0.9328861445424502,-1.0612145171004,3.39563102508262,21.950706320011403,101.47073719390883,-68.05868464459714,14.733883435115668,1.173821687320797,2.5355692772877494,6.302683132745299,6.165428013285469,129.12648705165356,11.36140331416752,2
7.05935507313695,-0.7505811609012883,-7.512564774086221,4.0581927513343725,74.12077245878658,97.32934377339367,42.44851884838861,6.553805795216542,0.4,-0.5362579707452203,-0.8,1.1198724680764753,98.96812898537262,5.104386956117831,2
-0.4777331217996361,-0.2890675128014556,-13.137934073701274,1.4344050768087335,105.94533756400727,99.86397109107614,50.385852282375254,7.698794288590175,0.06720253840436685,0.10040190380327518,2.012540102411645,5.906511545362518,168.66559492319126,7.81133439100182,2
-0.5363667724796042,-0.6567106038449977,13.58901665941584,-0.02034383136539364,50.66058445625162,98.67532377929155,-50.40780520027264,4.825111759461141,1.5471862467453843,0.03203438313653936,-1.0619025716015462,-3.0865787923100045,68.59609165031773,7.612985668937313,2
-0.9640436392182881,-2.423587895440014,-10.841686784833826,-2.5045187345919557,110.18309344847096,85.31869082345135,-118.3167710903613,-2.0370860444297003,0.4359563607817119,2.9089987659931245,4.656213260063938,-4.900019351595393,232.35261134157065,18.51799753198625,2
0.9882379195872367,-4.022352416082553,-11.453350348583623,2.8691078015478624,79.03440743268106,92.62868876429121,-95.66291150866422,5.1438260236078746,1.9105903356697893,0.6229382884540395,3.702050553300204,-2.845583640722336,105.92850407598317,10.7,2
0.7628666973707302,-0.6343973247361956,-5.274055327499561,-2.031433348685365,58.57264022106926,116.1784222511467,-37.00661194657493,5.40661194657493,-0.5355373155249765,1.2676546586836102,2.107295941048198,-1.3958960331603887,104.25332117182995,7.931433348685365,2
2.294608980170938,-6.719134702564072,-16.854965206769293,8.138535538290501,76.71347754957266,88.17263886545297,-80.37547427760686,5.713477549572655,4.551480821538443,-1.4757404107692218,-5.443660424957207,-0.12156407931624724,91.50242937675218,9.62965060905984,2
-3.782711431300628,7.454565948683613,-10.621500079395817,3.8751734617349216,88.37648601044104,96.71900991105198,-20.917082334777227,3.658091126957696,1.135477218260576,-0.28492406086858646,-3.0310519591246607,5.7106506799954975,159.84882814084156,7.759197441741676,2
-2.5734395530520127,-4.945315009285793,-10.5076987969855,5.796104357435398,114.4445183613957,99.40687618620782,-137.47189005571477,-8.561723426396252,0.17187545623378064,2.914844320292226,4.928906592175335,1.305474338863812,307.0196242076328,15.614453296087667,3
-3.6,-6.460505334925397,-10.059584308835621,9.081083654328173,107.45728055223876,100.3668783466866,-140.22406885970105,-10.03164888358201,0.26974733253730154,2.440192773134259,1.865392091342987,5.315691562985186,350.0917218680594,15.482912220895502,3
-0.8,-0.8601646094735781,-16.311333331632007,2.992404470450498,105.61313344067928,104.26621986830887,-17.83059376624114,3.928747795864548,1.33141681360903,1.254003526616723,4.898765428948165,1.2521575562401317,135.248054091803,10.19425044082709,3
-0.7141772549309726,-2.11531607815576,-7.822952472855511,5.127974902120349,96.23025254856992,101.37517741190831,-14.484304314102644,3.241392941568131,1.042531764792918,0.37126588239645897,0.7846839218442401,4.787720783777006,143.55974588165665,10.185822745069027,3
-0.8,0.06146258560450124,-20.04392347169823,-2.4715281860838285,128.06133869222393,109.43391521213952,-22.504560255565686,2.9412900868523204,1.3972473275431785,2.8339358610362875,11.810969392033758,-2.829334307677076,122.14778181890745,10.391741982629537,3
-0.7857628616204622,-1.4352528146056098,-13.417367635639115,5.521695738912541,95.12067564488284,101.72952616502128,-15.414917201066007,4.207798631876239,1.2572885848613864,0.47864429243069323,1.4647471853943903,3.4633870600214505,141.8416913211089,10.114237138379538,3
-0.746829154780532,-0.7773189461212215,-14.537304984126662,-0.7858495720991527,120.75851899098247,107.29984864129952,-20.1212140068558,2.580974928683192,1.213902041731862,2.182193589537182,8.803407596392985,-0.36804316163633466,128.1665993846043,10.373414577390266,3
-1.6633485615025512,-3.396814619042449,-1.8918077739224843,-5.770117496037347,119.02309401194223,99.62326892697861,-119.43167428075127,-2.633466057539898,-0.4,0.40358355357724474,-0.7561814543480612,-0.9428231141027048,231.95064615264357,14.601592690478775,3
-1.1262310759197787,-2.8811818328829872,-3.263605832100885,-6.32871968104343,122.76143171159833,99.07326062174185,-119.16311553795988,-2.654950756963209,-0.4,0.983670438006639,0.9411098000934999,-2.4789791228694344,218.56567841192089,14.859409083558507,3
0.12380914971011908,-3.9564634935611394,-12.382803235226646,1.314282347391071,45.2632795753426,108.89857962134839,-53.184338724077634,6.0993105357343556,0.03877310527933675,1.8925180222153912,4.378235674824319,-2.324490757888265,115.84897365968904,9.41088216258784,3
0.957122442870671,-3.7693323449346785,6.880742543518282,8.456979542965367,28.375437295966684,102.88811479322858,-60.51495938526786,13.361478210035948,1.671510228517316,-1.185612214353355,-6.301749183866728,1.5529095756106983,113.91074651800788,10.771510228517316,3
-2.4268102577331927,-5.575038178696078,-3.4570264372838597,-1.2307401675225862,113.67973959191579,100.46140963101503,-121.56610142611835,-5.531278634022058,-0.2651772079037116,0.5147150987963942,-5.139829634884626,4.681354991414212,289.7969863789165,14.92812022766299,3
-4.767373143241917,-6.73292963243319,5.169435663640321,-1.6187356337799,97.41177179325243,102.81568124526899,-121.41570787702882,-3.231112978382546,-0.3667675918917025,-2.7181300824296857,-11.05075693918777,8.782778244595637,318.8718783202918,13.282475468920529,3
2.4979325331903044,0.08367791113494923,-4.05771495418146,2.1550598442179822,83.218498378481,100.40478780385325,-75.25745377944645,-6.136779111349492,2.7796518003218145,-0.44885744378889636,-1.352665908989519,-1.18781284475434,111.79216542398625,16.622524489294136,3
1.6257465873143333,-1.190422354476111,-11.699137956588707,2.3226055886190276,82.63540155755722,101.1581540631423,-80.23900650456643,-5.558007146176236,1.5805354100762776,1.4194645899237224,5.745597800832986,-1.1419155291047778,114.51624626650943,16.480612734795262,3
-0.6183614852173639,-2.6245777217395414,-5.214822530432523,1.7501436121745841,98.66636803129977,100.8859416617378,-13.799712775650832,2.355084455652092,1.0367229704347278,0.720337822608367,1.383327627824471,3.902263561740171,140.85368256695944,10.309180742608683,3
-0.7281027921645542,-0.9784581175316869,-14.268480353575722,-0.938518408031578,116.99316629148055,106.18095972193974,-19.177036816063158,2.6843083764936626,1.2562055843291082,2.0372335059746502,7.858064737708697,-0.2679061022530602,129.22110403055726,10.364051396082278,3
0.8831246085069219,-4.640446372643846,-0.500387559803297,7.656559172308834,36.80598891009464,109.11611347232773,-47.71115931609615,6.568970837363453,-0.20620583252730929,-1.292052061383841,-5.780619910589982,2.015623042534609,107.03326102585578,9.012901422185,3
1.110028095732793,-2.273548303851661,-13.72955513423997,0.6068303433914166,68.2719360249642,107.12064491155498,-59.785161873038376,-2.7396775442225083,0.7296494484897158,1.2899719042672069,3.660322455777491,-2.173983142560324,112.63880786680518,12.35929889697943,3
2.333037200805355,-0.023211550518147384,-6.552937705674177,1.9276801768697835,82.89912492163205,100.36963465155443,-75.53751914637297,-6.11518267422278,2.882145473417425,0.06696279919464487,0.28481732577721974,-1.4401776795167869,112.98125041622549,16.664290946834846,3
0.13755990228867598,-1.6471556641236935,-8.299690465932212,-6.261960879401917,123.47745394816411,98.6154417282372,-113.51028361531898,-3.280808476329965,-0.033173593896864084,2.123577832061847,5.080808476329965,-4.813502851917422,179.41878564896777,15.613982070226829,3
-0.4147009766380041,-2.4047722575970893,-8.227328249077953,-6.152221825926487,122.84163589539733,99.48376826607247,-113.64086748770386,-3.1147009766380043,-0.12353268224133063,2.977564331196258,6.348875187511101,-6.650356404795426,190.06801981600208,16.540427685754512,3
-1.6991689968636272,-4.27795478709279,-14.692483950880256,-1.977700760193211,98.81138001700964,104.32728309233993,-98.28077074583912,-4.399168996863628,0.7327793312424183,5.385941869119302,12.075461777683671,-9.593928951145813,188.73003229493372,20.072714741374973,3
-2.10454111020763,-5.127648980954451,-18.849081219516254,0.6323912510164162,85.04752828504185,106.55389539687575,-89.70302740680509,-4.964581342178497,0.8799195360582659,6.416851897282312,15.495458889792369,-9.895056570083698,179.34551668649848,21.212109627220347,3
-0.7809136005288231,-2.9388323341045335,-10.070598455995077,-4.962030798281325,115.99040805677326,100.86469503532744,-109.26157486034282,-3.4809136005288233,0.12060906701921525,3.6642130009915435,7.9815731356910025,-7.489593667878553,189.68654833278248,17.547512401454263,3
-1.7933496708244387,-4.41530160328564,-15.16652667648301,-1.6716135698205734,97.04941657499279,104.68242271706715,-97.15452685305776,-4.493349670824439,0.7955664472162925,5.5625306327958235,12.495350615758957,-9.809759662306005,188.63192742622454,20.331711594767206,3
-2.2038814387574575,-5.18559750594185,-18.637569103312245,0.5206333813978601,85.26690484392272,106.69379969291676,-89.76925429250498,-5.010112326097167,0.9875382253205792,6.512053045475898,15.396118561242542,-10.333809687845438,182.2553604769372,21.477017170019888,3
1.070476038000814,-1.239388179854875,-18.64789824344134,-8.726121403434155,67.67850159343823,106.9276335483095,-40.354150160854466,0.5163945687142275,-1.0655782748569103,2.0819728435711378,6.916394568714228,-3.8196597441434967,108.0361230044256,8.936054312857724,3
1.4491222318348884,-0.5051040342868891,-16.585078076428402,-8.63254231675534,72.20302334854911,104.82354358760121,-44.588816483203544,-0.4218465240702194,-0.4577373387822239,1.728868669391112,5.978153475929781,-3.6475292702084454,107.98628085876578,10.157412189374663,3
0.9876870544279468,-0.7561564727860266,-19.820603846056773,-1.7894722331615505,81.01864014944981,103.15176684817729,-75.28175403160708,-4.9654765475109315,1.342347091790399,1.76576529082096,7.993095309502187,-0.7987923078864552,115.63244953044544,15.112024202262024,3
-0.04143825232166254,-4.5083659639540485,-19.619026717651515,-0.202225144734129,52.78771836156017,113.52099510213249,-44.40914909885121,0.9555534680470501,-1.32888930639059,2.274118973240698,6.238697280181611,-2.607191261608312,111.98627635172319,8.154378765701313,3
1.2606520177864986,-4.593198333991925,7.9777851499997725,10.885216142291988,29.45947149209464,106.64320924861582,-50.49848341304555,9.58903920751066,0.4573919288540057,-2.7032600889324927,-10.63788596837855,3.807700703556846,105.8455320988159,9.557391928854006,3
0.38458354932323935,-4.569226221331891,-10.809504462208727,3.4189601692475344,45.42362721884115,111.49130551858141,-45.93065553329728,3.542114406605381,-0.8115771186789236,0.6308920240389342,0.700413858797889,-0.47708225338380394,109.70401670005407,8.549970438657294,3
-0.8,-0.9634415509592148,-15.89306171861518,3.6046891949724875,103.09760222306485,103.68713130355012,-17.306832134421125,4.039401661742016,1.324039889217199,1.0769573412127749,4.124188367805889,1.7095268685336649,136.71606204577742,10.172119667651597,3
0.8311225799082327,-1.6942348378990562,-8.265619790338096,1.105952686452543,130.3048980639266,103.22337703516156,-13.837567315831937,1.9213264520550604,1.4543707526636078,0.6707991407920821,1.1714787146148389,-0.22709161415600443,115.45610494901231,11.052449031963294,3
-0.7335573576388024,-0.8966396354179652,-14.71848200520119,-1.072155262150657,117.90407872567998,106.44414250607221,-19.444310524301315,2.7006720729164067,1.2671147152776046,2.1026882916656278,8.179884100689337,-0.4751795902744882,128.64292009028696,10.366778678819403,3
0.3461244818668446,-2.7077934513475355,-22.153176761652727,2.0770013816884143,81.78449792746738,103.1592673114546,-87.14625172711051,-4.961456894074568,-0.09241862405858714,3.3616265543994666,14.023380354042608,-0.3307920696591209,117.81537482728895,16.061499309155792,3
1.292340998864835,-0.6194420798046494,-18.25010576600053,-10.22164252684793,70.45891539334743,105.56827583672386,-39.886917965601945,0.4734880729936606,-1.002356615733897,2.014139694403381,6.963039470881741,-3.9799687662618766,107.2618611630148,9.138295005675824,3
3.586084871315846,-0.1278302573683074,19.530545357698227,3.9441654084323137,77.50838730322774,104.9731286214107,-62.32013926146485,-4.218929250274931,0.3,-5.4842698545309565,-17.660674636327393,1.2175451622539328,98.23993036926757,13.475194770606508,3
1.4705398475757536,-4.3589203048484935,8.971216282682455,10.65872135334652,33.17392202310927,106.96909936120026,-50.1787504295652,8.106420018471695,0.3,-3.092784175520417,-11.681960438801042,3.884971496534919,104.3106247852174,9.704005815243734,3
2.8281474319497546,0.02864209467504092,3.0308982058547294,2.6779001005871113,81.59494179291372,101.76967605205898,-71.40494662725287,-5.586420946750409,2.0366682781130527,-1.9623423964363744,-6.250853573921356,-0.47234723077553187,107.71951500595303,15.686915609475694,3
1.62335629266454,-0.5297051537685783,-12.902897831055263,-8.303626367027626,71.44036372422505,105.49283439067304,-42.80544498815283,-0.17483052382164832,-0.8172333997983037,0.9455773065286746,3.4414935654140564,-3.2689335991932147,105.9346927678344,9.718594646836511,3
2.218621373250777,-0.008827176049533647,-7.866168282287688,1.8307132817007252,83.73627572534984,100.29867013871372,-77.47617985204539,-6.324183816899896,2.879080915500518,0.20556244364911924,1.0915364928957514,-1.2186213732507771,113.60459542249741,16.887908091550052,3
0.9008019409129632,-0.7995990295435185,-20.265890052821064,0.5781471101217541,83.97273400895925,102.4762350905983,-85.20837825069395,-6.485966034023145,1.9939854431527764,1.7006014556847224,8.29719320680463,0.09178010564212771,117.97834759535,16.78456263742546,3
0.8299232821610238,-1.337254836765484,-15.15439959775474,0.08610406918084168,94.46478986395377,101.89303502312576,-91.81713475902478,-4.864876583757224,1.5328218810734924,1.1861040691808418,4.95967644967547,-0.36717811892650754,132.34236825104378,16.239386257288192,3
0.4854565160738911,-2.851822451493431,0.14666188315689044,-2.726344258606737,129.14363045177834,99.60291592238949,-114.23089135533498,-0.1108985809392472,-0.0763623226174059,0.015445677667489832,-3.9954890312930953,-2.6254420648653563,181.51905445263301,14.590905806543516,3
-0.10594610642863989,-3.6176938113810024,-3.0410100708694996,-1.1529007992618614,118.65790760430855,101.64014812060255,-107.71715190673757,-0.8177660653334611,0.28237844257145595,1.1942706554287357,-1.011314181237612,-4.088432929928784,181.4237121717621,16.188396802952553,3
0.3447467161672906,-3.2,1.3193162019674067,4.432518091702336,109.26947868570983,99.80451956636482,-10.773097026177101,1.4975542751070092,0.9699276331906544,-0.27237335808364527,-2.8980534694600486,5.2804342008560745,134.15325650642055,10.738632403934814,3
1.8967067058803517,-3.167504289915752,1.159661266802827,4.072530029410263,127.52217859661307,98.06505230294273,-7.1040737184920415,1.2299828403369923,1.44584048319292,-1.0158576428559276,-7.10095202100247,2.3707975840354005,113.8203685924602,11.459185256301591,3
1.4552241897272924,-2.3807466087000217,-3.6992763451619775,2.5621897760303485,130.80417935178184,100.76441669247447,-10.446615235815045,1.5468654861636246,1.4751741396575764,-0.182139725960633,-3.010002071172858,0.8338811225363971,113.10532221869386,11.302089675890917,3
1.2720731239615193,-4.677658499169215,8.32442473260168,10.92073123961519,29.41009724293833,106.73176274769126,-49.97078177866207,9.423951762046377,0.4061221289462271,-2.8050486214691652,-10.93748736523828,3.8542434908613687,105.11836638683867,9.500536753738531,3
0.7444158975564724,-3.8831192316735423,10.05967202937282,6.033247692669417,26.450128460995874,99.574781616307,-65.58466076362403,15.705969485431151,2.4501284609958747,-0.6997430780082512,-5.0270212852465175,-0.5223364097741106,114.08517460760754,11.477920512217638,3
-6.390379665276638,-3.2268055870087977,-3.0418740052202367,1.7419212281476053,87.13545498909286,110.7384612759261,-87.35156995084165,3.078689719406647,1.0457036869286411,4.807564917562072,13.641250283079179,-1.7446759783479961,96.79968581844379,11.66186123063343,4
-9.041058445566112,0.47677775695987457,-6.024226746313177,-0.8794473240460494,125.05596709612607,125.29743257213367,-81.41781274935508,6.8,0.9830380177221414,3.602669567086174,15.766029129102492,-4.132128617717671,109.90344997465071,11.171415169616632,4
-4.9938592809542595,-2.073688628548883,14.641980720721197,4.4122814380914805,36.82805986671927,104.94740663694783,-67.50788921431389,6.517526923895949,1.6692964047712988,0.7815778428627793,2.8272066046923885,0.4535179761435057,72.19825150473184,6.9938592809542595,4
-4.9151795930844075,-3.0178448829871125,44.26488320372065,4.569640813831185,34.62502860636341,113.11435823783852,-66.3276938962661,2.898261281882736,1.2758979654220366,0.5455387792532219,5.73835505587693,2.4205101728898173,73.45712651064949,6.9151795930844075,4
-4.967021615325308,-2.3957406160963086,24.746361830021684,4.4659567693493845,36.076605229108615,107.73315632923307,-67.10532422987961,5.28299430496415,1.5351080766265381,0.7010648459759229,3.820200232963618,1.1244596168673096,72.62765415479508,6.967021615325308,4
-4.918474125538292,-2.9783104935404983,43.02449173483313,4.563051748923416,34.717275515072174,112.77238576912531,-66.37711188307438,3.0498097747614237,1.292370627691459,0.5554223766148755,5.616457355083202,2.3381468615427043,73.40441399138733,6.918474125538292,4
-5.6254335597474725,-2.551853140953652,5.415280143850739,3.204318194600421,59.552398360305915,107.20171045859713,-76.48483556935379,5.126045472440589,1.4056783248247189,2.6027202604485966,7.5666782685828675,-0.6197552349227533,83.21064323786686,9.097041935623878,4
-7.7876744755220075,-4.459712772519418,-18.490201039668307,-0.9293776737920716,137.52026197029355,117.19889492800175,-107.20137563756263,-0.6611287433089013,0.3881531879896438,8.835061723563433,24.737414952674765,-3.7995212875323636,121.62221715339095,16.34690853557379,4
-7.152383757146415,-3.899162138658602,-11.466501597392286,0.28514869957302924,114.61242606651486,114.26160960657107,-98.17651043240349,1.039208179402241,0.6871135260487458,7.003929652951432,19.69245924792742,-2.86527023109767,110.33646439165986,14.216816126902685,4
-7.810874925113019,-4.480183757452664,-18.74670248088188,-0.973731474480771,138.35684288789886,117.30616288905196,-107.53095849498789,-0.7232240642730803,0.3772353293585793,8.901933607678702,24.921653817073977,-3.8336395957544402,122.03436631671363,16.424698278320122,4
-7.6749206641328795,-4.627102055839766,-9.67286593410224,-0.7119909856257971,133.62144322350372,118.92373609899131,-105.58315687823355,-1.3677551395994163,0.3278820769868094,8.507628202212024,24.773043278370313,-3.1462585659990276,120.31866715743237,16.017596467865175,4
-7.772742167281923,-4.677410257459274,-11.775748761797658,-0.8992492916539643,137.12624793632943,119.07298376379585,-106.97501712303992,-1.493525643648185,0.29713817599711034,8.78991311129926,25.424254999333936,-3.355876072746976,121.96206841033629,16.339009978212026,4
-6.679919396967718,-1.7873655579621284,31.386905473897528,2.2550268262171325,73.1604579114045,120.85473670505327,-72.51336036685193,3.499623686674842,1.0304838669554552,1.7996236866748418,10.961693658724975,0.1724999378095582,89.6345165061872,8.736424774649233,4
-5.769558127733545,-2.5098745017987745,40.89656819267547,3.454391672985965,53.2336612403898,117.70170767415014,-69.23316976183357,2.8349154583451277,1.117184940215853,1.1349154583451275,8.577414144064043,1.5163665733457201,81.48461561970983,7.7971631476615935,4
-7.760884938322976,-0.9294563981563688,20.095105112534117,0.8308976209395711,96.82159253884734,124.5986522784456,-76.40826795237008,4.28890011369614,0.9275347677787642,2.5889001136961407,13.792793886083984,-1.423211099429155,99.31173182879616,9.85170668239672,4
-4.907001963550006,-3.115976437399931,47.343760723422825,4.585996072899988,34.39605497940016,113.9631961835094,-66.20502945325008,2.5220903233002656,1.2350098177500288,0.5210058906500173,6.040927348649786,2.6249509112498552,73.58796858319991,6.907001963550006,4
-9.881758464413497,0.7537765590583314,-2.059607070325768,-1.9632690880368315,143.24515749882877,131.94428090373054,-84.05014557812483,5.837474434333665,0.7255468129130002,4.137474434333665,19.347462644892495,-4.5540243998484975,118.29859958617797,12.039909526775832,4
-6.548562621035029,-4.047832205103729,14.54061382666412,1.4441801254472302,93.26564362222646,117.20523554180772,-89.55669100786984,0.08041948724067716,0.6818803191032766,5.257280706415369,17.27471687717605,-0.7326341879322049,101.39585203338848,12.31670575482938,4
-4.902173495475352,-3.1739180542957808,49.16167895353012,4.595653009049297,34.260857873309845,114.4643911696585,-66.13260243213027,2.299980791866174,1.210867477376758,0.5065204864260549,6.21958066741199,2.7456626131162096,73.66522407239438,6.902173495475352,4
-8.159110484564817,-0.6134043773295113,15.935228414411021,0.30625126636698763,105.53830727325207,125.97790329733401,-77.84314412692402,4.57966797285685,0.8896085252795414,2.8796679728568497,14.835765554812614,-2.0110678581671095,102.87679862372312,10.262574309471635,4
-3.585613377463666,-7.863018596058135,-12.225816346983873,-2.517122675492733,115.64568133576974,93.69199213318166,-132.09003933409176,-11.404703144791107,-2.483369097465944,5.9833690974659435,15.045404147606725,10.17242488564035,254.58674890480933,14.013894849577657,4
-5.1087063749359825,-5.426069800102428,-14.997845602383489,-2.8217412749871964,122.30377358186301,95.65895794706019,-122.25521026469909,-8.18444937870678,-0.9167591572087037,4.416759157208704,13.56582809291933,1.294968557515988,226.64887163688854,13.752793192868117,4
-2.3834967767290967,-6.9786774764046715,-9.440302598267222,-3.202899980349502,116.17177085300838,92.85212805228211,-132.4593162735585,-10.700042000774236,-2.75535163128595,6.080596796379594,14.294200039300996,11.228229146991616,253.50029400541965,14.433006446541807,4
-2.4695492256419316,-9.797930033327447,-10.864344372674035,-2.261936532052414,111.58514242305655,91.25010605567196,-138.99342228974675,-13.410717643598348,-3.470584208978208,6.99342228974676,15.35395602822732,15.198229396192566,274.9034727602444,14.27612693589517,4
-2.684176652124747,-9.305317356600405,-10.585201506867039,-2.3368353304249494,111.70511507928819,92.52785099074397,-137.9107450462802,-13.310597935507678,-3.4105611578145463,6.910561157814546,15.921085537935962,15.42651322761576,271.12167398102605,14.168426859635757,4
-5.2545469108642475,-5.192724942617203,-15.263275377772931,-2.8509093821728495,122.9413050674923,95.8473005820304,-121.313497089848,-7.876100817029875,-0.766751748825345,4.266751748825345,13.424154429446158,0.4449265766769557,223.97373952071865,13.727791958137557,4
-3.1351936204382076,-10.023439054463255,-17.868761755193603,-2.118521113980987,121.57223584840018,83.45559487681194,-132.07279365300255,-8.94443665805704,-1.3956749028634372,5.1160446243681905,7.998779274565264,-1.4759330634477141,261.35231881526784,14.775305181358684,4
-3.3802089711351435,-9.508278573510724,-17.761960192069296,-2.1939104526569673,121.96802987644908,84.59774335775305,-130.74091533639358,-8.718268642029098,-1.2763084499598019,4.97783083679556,8.400855747503826,-1.6832537448066596,256.98601961695067,14.674786063124044,4
-4.678754265569646,-3.174360070506239,-23.33137912275701,-3.3472525593417877,109.6709414132404,96.8016217247141,-145.6941382232659,-8.266788965139224,0.42087883901268164,6.043833902075953,12.574968712886138,-0.3421245734430354,342.2058532267854,14.68424914688607,4
-2.2396349690204898,-11.292372701366817,-15.502864500011622,-1.9745437112756121,116.75821319703898,83.39853419204972,-138.1887223915717,-11.226532205694651,-2.493448618337081,6.188722391571714,9.721056741001997,5.369394925625934,277.9498366604785,14.850912577448774,4
-2.2793435007307936,-11.57229774744222,-18.668524203086843,-1.9076061004384763,119.18860411376785,79.893773868483,-138.25596485226546,-9.786415782870497,-1.7385908493422855,5.723912466764106,6.736402518444931,-0.5820656499269206,284.1401127176852,15.16413129985384,4
-4.698312082896022,-6.73688228724426,-17.187402425404297,-2.599480640891084,124.09727336467819,90.74213170949992,-123.57584201092418,-7.501558077326749,-0.6341556519224505,4.23428549169968,10.563896751419113,-2.7985717624504804,233.49674621505807,14.134025812145222,4
-2.1,-4.134456099253668,-10.77593523076744,-4.303099831266103,126.22728012903376,89.46981288039959,-122.82046211414038,-5.380514193547314,-1.0656333895779655,4.23985843176144,8.803099831266103,-1.2953055086850287,225.9833536277788,15.060938898262995,4
-2.1,-3.2409418155911696,-9.940191267169327,-4.580397367575155,126.92822667914831,90.67066526680462,-121.17208231496991,-4.879838086322638,-0.9732008774749485,4.07810153558116,9.080397367575154,-1.3723326021042097,220.0214565971342,15.045533479579158,4
-2.1,-3.1906825857154555,-9.893181556466612,-4.595995059605548,126.96765417844736,90.73821193868069,-121.07936270123368,-4.8516755868233155,-0.9680016467981505,4.069002881896764,9.09599505960555,-1.3766652943348747,219.68610621848072,15.044666941133025,4
-2.1,-7.3075471458041354,-13.743869528618525,-3.318347437509061,123.73804491148124,85.2052879307684,-128.6742680103628,-7.158539348941973,-1.3938841874969796,4.814297328119714,7.818347437509061,-1.0217631770858504,247.1555300935552,15.115647364582829,4
-2.1,-2.9736753293919542,-9.69020494171575,-4.663342139154222,127.13789262952872,91.02986220817064,-120.67902172836102,-4.730076693193768,-0.9455526202819262,4.029717085493371,9.16334213915422,-1.395372816431728,218.23814400818426,15.040925436713655,4
-2.1,-6.732525512326085,-13.206026017994658,-3.496802427209146,124.18913946877868,85.97809717783072,-127.61345223825674,-6.8363289508723755,-1.3343991909302848,4.7101985841279985,7.996802427209146,-1.0713340075580962,243.31874781500338,15.10573319848838,4
-2.5187013950927897,-0.9650217290552523,-8.452337888486928,-5.142337603019822,128.6993938701898,94.49806067007444,-116.32147186641501,-3.711342063017715,-0.624848467547448,3.5892640667924924,10.200606129810208,-1.8469264637726708,203.24813872339308,14.849696935094896,4
-3.634505821369332,-1.9377743058091612,-11.070186734751125,-4.45568872531118,127.89830351286304,95.23906925060169,-116.37869260622406,-4.541042790248991,-0.4245758782157609,3.560653696887966,11.001696487136956,-2.5049649715767854,205.50835794585072,14.449151756431522,4
-3.272073522188998,-1.6218076860109214,-10.219864802058801,-4.678723986345233,128.15851131740277,94.99837703140244,-116.36010633447123,-4.271541849832845,-0.48962782935069266,3.569946832764385,10.741488682597229,-2.291222846419153,204.77420021161362,14.579255658701385,4
-2.7839365913699066,-1.1962524129891494,-9.074620464367857,-4.979115943772365,128.50896860106775,94.67420404401233,-116.3350736713523,-3.908568234608392,-0.5772421502669398,3.5824631643238485,10.391031398932242,-2.0033472205514835,203.78541001841597,14.75448430053388,4
-5.980705995003278,-3.9831795853874734,-16.57473329596923,-3.0118732338441365,126.21385210615149,96.79718680180987,-116.49901056384633,-6.285653175771668,-0.003463026537873126,3.500494718076839,12.686147893848506,-3.8886214842327025,210.26091727192974,13.606926053075746,4
-3.6702922943565275,-7.727532329029556,-12.37993197572888,-2.5340584588713053,116.01584917247283,93.80134890585472,-131.54325547072642,-11.225667720503342,-2.396270782947572,5.896270782947571,14.963144628339375,9.67886777003624,253.0334956292317,13.999378463824595,4
-3.089945010365734,-7.807474776196422,-13.403936786186042,-2.5949725051828674,110.24198441151515,93.9872264144368,-140.89252522380357,-12.406659015736658,-2.6016315209195264,6.873098072936256,15.53274518234064,12.6880476253291,292.1756601182657,14.290760770825496,4
-4.187469771015773,-4.472688003452073,-19.271473006584326,-3.143734885507887,109.0178221784824,97.14472072584537,-144.22731199654794,-10.00054704046542,-0.7442819259733064,6.450973164993933,14.477432912484833,5.59634917189808,325.0591904469726,14.459610734002426,4
-4.319951629565912,-4.070146971703574,-19.979741404217762,-3.2099758147829562,108.87005395163803,97.52586084198194,-144.62985302829642,-9.710106042874731,-0.5200818576576869,6.40001860401311,14.350046510032776,4.74031254742026,329.0285507473787,14.479992558394756,4
-4.394940495938722,-4.16770826421447,-22.77983436377425,-3.1769642975632335,110.79673603277641,94.80168069471486,-144.81431553741004,-8.446537685905476,0.1654464463448505,6.005992066125163,11.884355206784225,-0.3705059504061277,335.33756000171707,14.741011900812255,4
-3.6457702138080106,-6.7898042516719626,-21.3239467821669,-2.7274621282848064,113.76844481856156,89.5225274399671,-142.49188766280483,-8.921012197921593,-0.5088068075727903,5.906102695174401,10.061374186932825,-0.4454229786191989,317.2076391741539,14.890845957238398,4
-5.2787501710215885,-2.1568059926107255,-22.65445690245271,-3.4808332193189413,111.6147256806588,99.18211054864011,-140.9423553153795,-7.662360788070333,0.6411109590919215,5.583610617048745,13.42124982897841,-1.0150006840863535,324.17733410870255,14.401388698864901,4
-4.138596748993229,-4.621186801135958,-19.01019031192534,-3.1192983744966143,109.0723343953537,97.00411680094975,-144.07881319886403,-10.107691742591767,-0.8269901170883818,6.46977048115645,14.524426202891126,5.912144083428367,323.5948795179125,14.45209180753742,4
-3.8400703261230484,-5.528247855241505,-17.414222128119377,-2.9700351630615245,109.40530617470891,96.14527924592323,-143.1717521447585,-10.762153515807162,-1.3321886788686863,6.58458833610652,14.8114708402663,7.84108404658953,314.6505686173021,14.406164665557391,4
-5.537997560501566,-2.8193270990595574,-20.48542041047023,-3.3080016263322896,116.85728400125389,98.32947468990596,-132.15674933855803,-7.172671274608153,0.4106688351097192,4.834673714106587,13.162002439498433,-2.051990242006264,283.24505183636387,14.113336043887148,4
-5.29984948237107,-2.2107264549482917,-22.477925997495376,-3.4667670117526197,112.04140064350388,99.11271725797958,-140.22732309742483,-7.622506533299089,0.6223560156701594,5.522657050928018,13.400150517628928,-1.0993979294842828,320.84598728341206,14.377945019587699,4
