digraph Tree {
node [shape=box, style="filled, rounded", color="black", fontname=helvetica] ;
edge [fontname=helvetica] ;
0 [label="tipsgo10-GD-S13-PC_GDP <= 56.4\ngini = 0.727\nsamples = 131\nvalue = [43, 8, 47, 20, 13]\nclass = 2", fillcolor="#39e5c50c"] ;
1 [label="tipslm80-Y_LT25-T-PPCH_3Y <= -1.45\ngini = 0.547\nsamples = 50\nvalue = [32, 3, 9, 3, 3]\nclass = 0", fillcolor="#e581398f"] ;
0 -> 1 [labeldistance=2.5, labelangle=45, headlabel="True"] ;
2 [label="tipsgo10-GD-S13-PC_GDP <= 32.15\ngini = 0.268\nsamples = 33\nvalue = [28, 2, 0, 3, 0]\nclass = 0", fillcolor="#e58139d4"] ;
1 -> 2 ;
3 [label="tipsii10-NSA-FA-S1-S1-N_LE-WRL_REST-MIO_NAC <= -25862.2\ngini = 0.568\nsamples = 9\nvalue = [5, 1, 0, 3, 0]\nclass = 0", fillcolor="#e5813955"] ;
2 -> 3 ;
4 [label="gini = 0.0\nsamples = 3\nvalue = [0, 0, 0, 3, 0]\nclass = 3", fillcolor="#3c39e5ff"] ;
3 -> 4 ;
5 [label="tipsex10-PCH_WRL_5Y-GS-CRE-WRL_REST <= 1.29\ngini = 0.278\nsamples = 6\nvalue = [5, 1, 0, 0, 0]\nclass = 0", fillcolor="#e58139cc"] ;
3 -> 5 ;
6 [label="gini = 0.0\nsamples = 1\nvalue = [0, 1, 0, 0, 0]\nclass = 1", fillcolor="#7be539ff"] ;
5 -> 6 ;
7 [label="gini = 0.0\nsamples = 5\nvalue = [5, 0, 0, 0, 0]\nclass = 0", fillcolor="#e58139ff"] ;
5 -> 7 ;
8 [label="tipsex10-PCH_WRL_5Y-GS-CRE-WRL_REST <= -12.19\ngini = 0.08\nsamples = 24\nvalue = [23, 1, 0, 0, 0]\nclass = 0", fillcolor="#e58139f4"] ;
2 -> 8 ;
9 [label="gini = 0.0\nsamples = 1\nvalue = [0, 1, 0, 0, 0]\nclass = 1", fillcolor="#7be539ff"] ;
8 -> 9 ;
10 [label="gini = 0.0\nsamples = 23\nvalue = [23, 0, 0, 0, 0]\nclass = 0", fillcolor="#e58139ff"] ;
8 -> 10 ;
11 [label="tipslm60-T-PC_POP <= 65.9\ngini = 0.63\nsamples = 17\nvalue = [4, 1, 9, 0, 3]\nclass = 2", fillcolor="#39e5c562"] ;
1 -> 11 ;
12 [label="gini = 0.0\nsamples = 3\nvalue = [0, 0, 0, 0, 3]\nclass = 4", fillcolor="#e539c0ff"] ;
11 -> 12 ;
13 [label="tipsun10-TOTAL-AVG_3Y-T <= 7.2\ngini = 0.5\nsamples = 14\nvalue = [4, 1, 9, 0, 0]\nclass = 2", fillcolor="#39e5c580"] ;
11 -> 13 ;
14 [label="tipslm80-Y_LT25-T-PC_ACT <= 20.6\ngini = 0.56\nsamples = 5\nvalue = [3, 1, 1, 0, 0]\nclass = 0", fillcolor="#e581397f"] ;
13 -> 14 ;
15 [label="gini = 0.0\nsamples = 3\nvalue = [3, 0, 0, 0, 0]\nclass = 0", fillcolor="#e58139ff"] ;
14 -> 15 ;
16 [label="gini = 0.5\nsamples = 2\nvalue = [0, 1, 1, 0, 0]\nclass = 1", fillcolor="#7be53900"] ;
14 -> 16 ;
17 [label="tipslm60-T-PC_POP <= 67.05\ngini = 0.198\nsamples = 9\nvalue = [1, 0, 8, 0, 0]\nclass = 2", fillcolor="#39e5c5df"] ;
13 -> 17 ;
18 [label="gini = 0.0\nsamples = 1\nvalue = [1, 0, 0, 0, 0]\nclass = 0", fillcolor="#e58139ff"] ;
17 -> 18 ;
19 [label="gini = 0.0\nsamples = 8\nvalue = [0, 0, 8, 0, 0]\nclass = 2", fillcolor="#39e5c5ff"] ;
17 -> 19 ;
20 [label="tipsun10-TOTAL-AVG_3Y-T <= 10.2\ngini = 0.698\nsamples = 81\nvalue = [11, 5, 38, 17, 10]\nclass = 2", fillcolor="#39e5c554"] ;
0 -> 20 [labeldistance=2.5, labelangle=-45, headlabel="False"] ;
21 [label="tipsun10-TOTAL-AVG_3Y-T <= 5.75\ngini = 0.544\nsamples = 48\nvalue = [11, 5, 30, 2, 0]\nclass = 2", fillcolor="#39e5c583"] ;
20 -> 21 ;
22 [label="tipsii10-NSA-FA-S1-S1-N_LE-WRL_REST-MIO_NAC <= 603768.0\ngini = 0.444\nsamples = 12\nvalue = [8, 0, 4, 0, 0]\nclass = 0", fillcolor="#e581397f"] ;
21 -> 22 ;
23 [label="gini = 0.0\nsamples = 8\nvalue = [8, 0, 0, 0, 0]\nclass = 0", fillcolor="#e58139ff"] ;
22 -> 23 ;
24 [label="gini = 0.0\nsamples = 4\nvalue = [0, 0, 4, 0, 0]\nclass = 2", fillcolor="#39e5c5ff"] ;
22 -> 24 ;
25 [label="tipsho10-RCH_A_AVG <= 0.35\ngini = 0.449\nsamples = 36\nvalue = [3, 5, 26, 2, 0]\nclass = 2", fillcolor="#39e5c5ad"] ;
21 -> 25 ;
26 [label="tipslm60-T-PPCH_3Y <= -0.5\ngini = 0.124\nsamples = 15\nvalue = [0, 0, 14, 1, 0]\nclass = 2", fillcolor="#39e5c5ed"] ;
25 -> 26 ;
27 [label="gini = 0.0\nsamples = 1\nvalue = [0, 0, 0, 1, 0]\nclass = 3", fillcolor="#3c39e5ff"] ;
26 -> 27 ;
28 [label="gini = 0.0\nsamples = 14\nvalue = [0, 0, 14, 0, 0]\nclass = 2", fillcolor="#39e5c5ff"] ;
26 -> 28 ;
29 [label="tipser10-PCH_3Y <= -7.35\ngini = 0.594\nsamples = 21\nvalue = [3, 5, 12, 1, 0]\nclass = 2", fillcolor="#39e5c570"] ;
25 -> 29 ;
30 [label="gini = 0.0\nsamples = 2\nvalue = [2, 0, 0, 0, 0]\nclass = 0", fillcolor="#e58139ff"] ;
29 -> 30 ;
31 [label="gini = 0.526\nsamples = 19\nvalue = [1, 5, 12, 1, 0]\nclass = 2", fillcolor="#39e5c57f"] ;
29 -> 31 ;
32 [label="tipsii10-NSA-FA-S1-S1-N_LE-WRL_REST-PC_GDP <= -114.55\ngini = 0.643\nsamples = 33\nvalue = [0, 0, 8, 15, 10]\nclass = 3", fillcolor="#3c39e537"] ;
20 -> 32 ;
33 [label="tipsex10-PCH_WRL_5Y-G-CRE-WRL_REST <= -21.945\ngini = 0.292\nsamples = 12\nvalue = [0, 0, 1, 1, 10]\nclass = 4", fillcolor="#e539c0d1"] ;
32 -> 33 ;
34 [label="tipsbp10-PC_GDP_3Y-NSA-CA-BAL-WRL_REST <= -1.95\ngini = 0.5\nsamples = 2\nvalue = [0, 0, 1, 1, 0]\nclass = 2", fillcolor="#39e5c500"] ;
33 -> 34 ;
35 [label="gini = 0.0\nsamples = 1\nvalue = [0, 0, 0, 1, 0]\nclass = 3", fillcolor="#3c39e5ff"] ;
34 -> 35 ;
36 [label="gini = 0.0\nsamples = 1\nvalue = [0, 0, 1, 0, 0]\nclass = 2", fillcolor="#39e5c5ff"] ;
34 -> 36 ;
37 [label="gini = 0.0\nsamples = 10\nvalue = [0, 0, 0, 0, 10]\nclass = 4", fillcolor="#e539c0ff"] ;
33 -> 37 ;
38 [label="tipsii10-NSA-FA-S1-S1-N_LE-WRL_REST-MIO_NAC <= -352262.0\ngini = 0.444\nsamples = 21\nvalue = [0, 0, 7, 14, 0]\nclass = 3", fillcolor="#3c39e57f"] ;
32 -> 38 ;
39 [label="tipslm80-Y_LT25-T-PC_ACT <= 54.35\ngini = 0.219\nsamples = 8\nvalue = [0, 0, 7, 1, 0]\nclass = 2", fillcolor="#39e5c5db"] ;
38 -> 39 ;
40 [label="gini = 0.0\nsamples = 7\nvalue = [0, 0, 7, 0, 0]\nclass = 2", fillcolor="#39e5c5ff"] ;
39 -> 40 ;
41 [label="gini = 0.0\nsamples = 1\nvalue = [0, 0, 0, 1, 0]\nclass = 3", fillcolor="#3c39e5ff"] ;
39 -> 41 ;
42 [label="gini = 0.0\nsamples = 13\nvalue = [0, 0, 0, 13, 0]\nclass = 3", fillcolor="#3c39e5ff"] ;
38 -> 42 ;
}