,tipsfs10-F-NCO-S12-LIAB-PCH_PRE,tipslm60-T-PC_POP,tipslm60-T-PPCH_3Y,tipslm10-NULC_PER-PCH_3Y,tipsfs10-F-NCO-S12-LIAB-PC_GDP,tipslm80-Y_LT25-T-PC_ACT,tipsfs10-F-NCO-S12-LIAB-MIO_NAC,tipslm70-PPCH_3Y-T,tipsgo10-GD-S13-MIO_NAC,tipsii10-NSA-FA-S1-S1-N_LE-WRL_REST-PC_GDP,tipslm70-PC_ACT-T,tipsho10-RCH_A_AVG,tipsho10-INX_A_AVG,tipsgo10-GD-S13-PC_GDP,tipser10-PCH_3Y,tipsex10-PCH_WRL_5Y-GS-CRE-WRL_REST,tipslm80-Y_LT25-T-PPCH_3Y,tipsii10-NSA-FA-S1-S1-N_LE-WRL_REST-MIO_NAC,tipsun10-TOTAL-AVG_3Y-T,tipser10-PCH_1Y,tipspd20-CO-S11_S14_S15-LIAB-F3_F4-PC_GDP,tipspc20-CO-S11_S14_S15-LIAB-F3_F4-MIO_NAC,tipsex10-PCH_WRL_5Y-S-CRE-WRL_REST,tipsex10-PCH_WRL_5Y-G-CRE-WRL_REST,tipsbp10-PC_GDP_3Y-NSA-CA-BAL-WRL_REST,tipspc20-CO-S11_S14_S15-LIAB-F3_F4-PC_GDP,tipspd20-CO-S11_S14_S15-LIAB-F3_F4-MIO_NAC,label
2011_AT,1.5,74.6,0.7,5.8,495.6,8.9,1537010.7,0.2,255683.8,-1.9,1.2,3.0,88.41,82.4,-1.8,-12.46,0.4,-5936.0,4.9,0.5,129.4,9182.0,-14.66,-11.83,2.4,3.0,401390.3,0
2011_BE,5.4,66.7,-0.4,5.3,602.9,18.7,2285631.7,0.2,388934.9,60.9,3.5,1.0,99.49,102.6,-1.5,-7.63,0.7,230869.0,7.8,0.6,181.5,82136.7,11.0,-12.43,-0.1,21.7,687974.2,2
2011_CZ,4.3,70.5,0.8,3.4,168.4,18.1,6794617.0,0.5,1606492.0,-45.2,2.7,-1.7,98.86,39.8,-0.5,7.43,8.2,-1822751.0,6.9,2.0,68.3,83417.0,5.57,7.88,-2.6,2.1,2756980.0,0
2011_DE,2.9,77.3,1.4,5.4,479.8,8.5,12968900.0,-1.1,2147549.3,23.2,2.8,1.4,90.32,79.4,-4.9,-9.31,-1.9,627095.0,6.8,-0.6,102.9,42263.0,-8.72,-9.32,5.9,1.6,2771693.0,0
2011_DK,1.6,79.3,-1.4,3.6,780.2,14.2,14409675.0,1.3,850862.0,27.8,1.8,-4.0,92.83,46.1,-2.5,-13.74,6.2,512523.0,7.0,-0.6,221.0,82069.0,-16.55,-12.54,5.5,4.4,4081505.0,2
2011_EE,-0.2,74.7,0.5,-2.6,167.8,22.4,27965.7,5.4,1011.1,-54.8,7.1,2.6,74.86,6.1,-0.8,24.3,10.4,-9127.0,14.2,1.1,120.4,-180.6,-3.19,39.04,1.9,-1.1,20073.4,0
2011_EL,-3.7,67.3,0.6,6.8,305.1,44.7,631687.4,5.1,356235.0,-88.8,8.8,-7.5,136.51,172.1,1.8,-15.83,22.8,-183862.0,13.4,0.6,130.1,-13429.3,-26.63,0.0,-11.2,-6.5,269252.8,4
2011_ES,2.0,73.9,1.2,-1.0,459.8,46.2,4921677.0,6.9,744323.0,-91.9,8.9,-9.8,128.51,69.5,-2.5,-8.56,21.7,-984142.0,19.7,0.3,196.4,-40078.0,-16.81,-4.81,-3.8,-3.7,2102416.0,2
2011_FI,28.8,74.9,-1.1,9.4,442.7,20.1,871477.0,0.5,95490.0,15.1,1.7,0.0,103.94,48.5,-2.8,-23.46,3.6,29724.3,8.1,0.0,145.4,6990.0,35.57,-32.0,0.3,3.6,286195.0,2
2011_FR,6.9,69.7,0.3,5.4,591.7,22.6,12179133.0,1.1,1807957.0,-8.7,4.0,4.0,108.42,87.8,-4.4,-15.41,3.6,-178415.0,9.2,-0.6,135.3,131283.0,-6.25,-18.85,-0.7,6.4,2785447.0,2
2011_HU,6.2,62.4,1.2,4.3,342.3,26.0,96883194.0,1.6,22780457.0,-105.7,5.2,-6.9,98.42,80.5,-4.2,-2.38,6.5,-29926540.0,10.7,-0.5,114.5,-1250061.0,8.25,-4.4,0.1,-4.4,32414710.0,2
2011_IE,-2.3,71.2,-3.6,-13.7,2107.9,29.6,3607447.0,7.1,189726.8,-139.1,8.8,-17.8,92.29,110.9,-9.6,-10.25,16.1,-237975.9,14.2,-1.0,274.5,28108.0,5.82,-19.99,-2.5,16.5,468846.0,4
2011_IT,5.1,62.1,-0.8,5.3,332.9,29.2,5450460.0,1.3,1907996.3,-18.3,4.3,-1.5,124.95,116.5,-3.2,-19.27,8.0,-298999.0,8.2,0.1,122.7,51187.0,-29.05,-16.79,-2.8,3.1,2009627.0,2
2011_LT,2.0,71.4,3.0,-7.8,117.0,32.6,36598.5,6.7,11629.2,-52.7,8.0,2.4,92.74,37.2,1.7,29.55,19.3,-16486.1,15.7,0.6,64.7,-686.5,1.83,37.24,-1.5,-2.2,20219.8,0
2011_LU,10.9,67.9,1.1,8.8,16439.0,16.4,7095835.3,-0.2,8074.5,28.9,1.4,0.7,86.55,18.7,0.1,-3.78,-0.9,12477.0,4.8,0.8,284.3,9233.7,-4.52,-5.78,6.6,21.4,122696.2,0
2011_LV,-4.1,72.8,-1.4,-21.0,186.7,31.0,37903.6,6.9,8754.4,-74.4,8.8,4.1,92.52,43.1,-2.4,26.58,17.4,-15036.0,17.7,0.8,115.3,-412.6,4.78,37.98,2.2,-2.0,23411.0,0
2011_MT,11.0,61.8,2.7,11.1,3055.8,13.3,209016.7,0.4,4796.6,6.3,3.0,-3.5,95.13,70.2,-5.0,17.67,1.6,428.4,6.7,-0.7,159.9,368.8,41.91,-22.6,-5.6,5.4,10926.9,0
2011_NL,10.3,78.1,0.3,5.3,1331.8,10.0,8661486.0,0.4,401269.0,20.1,1.6,-4.0,114.1,61.7,-2.4,-8.31,1.4,130891.0,4.8,-0.3,247.2,53398.0,-5.95,-8.87,7.0,8.2,1607956.0,0
2011_PL,4.7,65.7,1.9,4.2,143.7,25.8,2251923.0,1.2,847708.0,-62.4,3.6,-4.6,108.3,54.1,-11.4,15.18,8.6,-977907.0,9.2,-2.3,73.9,103793.0,19.26,14.37,-4.8,6.6,1158155.0,0
2011_PT,-4.5,73.6,-0.3,-0.6,538.6,30.2,948903.5,2.6,196231.4,-100.7,6.2,-6.4,106.12,111.4,-3.0,-8.6,8.6,-177446.0,11.9,0.7,204.1,-1629.7,-3.71,-10.92,-8.9,-0.9,359605.9,4
2011_RO,4.6,64.1,1.2,2.2,108.6,23.9,607584.9,0.5,191035.3,-66.1,2.9,-15.6,114.69,34.2,-3.2,49.98,6.3,-369585.0,6.9,2.9,73.7,15605.6,-35.14,108.08,-4.9,2.8,411897.8,4
2011_SE,2.8,79.9,0.6,5.6,478.0,22.8,17500967.0,0.7,1384883.0,-8.5,1.5,0.8,78.14,37.8,3.2,-12.17,2.6,-310017.0,8.2,4.1,191.3,251521.0,-1.21,-15.34,5.8,6.9,7005184.0,2
2011_SI,-1.2,70.3,-1.5,8.3,202.6,15.7,74747.0,1.7,17203.6,-39.9,3.6,0.9,124.24,46.6,-1.1,-5.59,5.3,-14736.5,7.1,-0.7,113.0,152.0,0.1,-6.81,-0.9,0.4,41691.0,2
2011_SK,0.3,68.7,-0.1,6.1,133.5,33.7,94316.6,2.6,30846.9,-64.4,9.2,-5.2,99.72,43.7,3.4,-2.74,14.4,-45512.3,13.4,1.1,70.2,2111.5,-35.2,2.3,-4.4,3.0,49593.2,0
2011_UK,10.4,75.5,-0.3,6.7,1414.1,21.3,23256276.0,1.3,1328779.0,-11.3,2.7,-5.0,90.84,80.8,-7.8,-25.7,6.3,-186523.0,7.8,0.5,178.5,26538.0,-23.45,-27.51,-3.0,1.6,2934711.0,2
2012_AT,0.4,75.1,0.8,3.8,484.3,9.4,1543115.1,0.0,261040.8,-3.2,1.2,4.8,92.67,81.9,-4.7,-21.7,-1.3,-10154.0,4.8,-1.8,128.2,3781.5,-17.45,-22.96,2.0,1.2,408450.0,0
2012_BE,-5.1,66.9,0.0,5.4,559.8,19.8,2169220.9,-0.1,404289.4,51.8,3.4,0.3,99.74,104.3,-4.3,-15.53,-2.1,200554.0,7.7,-2.3,189.3,51332.6,7.48,-21.45,0.2,13.2,733416.9,2
2012_BG,10.2,67.1,-0.1,12.2,167.8,28.1,137672.0,3.8,13700.3,-77.9,6.8,-5.3,96.62,16.7,-4.0,-0.99,13.0,-63898.6,11.3,-2.1,125.0,2468.0,-29.74,13.29,-0.7,3.0,102533.0,2
2012_CZ,5.2,71.6,1.5,3.8,176.1,19.5,7147743.0,1.0,1805429.0,-45.9,3.0,-3.6,95.33,44.5,0.5,-4.45,2.9,-1864093.0,7.0,-2.8,70.7,118076.0,-0.31,-5.34,-2.4,2.9,2869270.0,0
2012_DE,3.3,77.2,0.9,2.3,485.7,8.0,13398237.0,-1.1,2225203.8,28.5,2.4,2.0,92.1,80.7,-9.0,-16.73,-3.1,787230.0,6.1,-3.3,102.2,35005.0,-7.02,-18.49,6.3,1.3,2806950.0,0
2012_DK,2.5,78.6,-1.6,-0.2,779.7,14.1,14775965.0,1.5,850746.0,36.1,2.1,-4.9,88.3,44.9,-7.8,-17.7,2.3,684239.0,7.5,-2.9,224.0,150302.0,-17.0,-17.41,6.5,7.9,4244903.0,2
2012_EE,10.5,74.8,0.8,0.0,172.3,20.9,30896.6,1.8,1745.5,-51.1,5.5,3.2,77.23,9.7,-3.6,6.79,-6.5,-9170.1,13.0,-0.9,117.8,1227.7,-0.7,11.07,0.4,6.8,21135.3,0
2012_EL,-2.1,67.5,0.1,-2.3,323.6,55.3,618652.5,10.6,305085.0,-115.9,14.5,-12.1,120.03,159.6,-5.0,-25.26,29.6,-221569.0,18.4,-4.5,132.5,-8965.7,-36.09,-6.99,-8.4,-4.7,253317.9,4
2012_ES,0.3,74.3,1.2,-5.1,474.8,52.9,4936620.0,6.7,891502.0,-89.9,11.0,-16.8,106.97,85.7,-5.3,-18.22,15.2,-934535.0,22.0,-2.4,188.0,-116938.0,-20.43,-16.84,-2.4,-11.2,1955123.0,3
2012_FI,-1.4,75.2,0.2,6.0,430.3,19.0,859641.0,0.2,107708.0,11.7,1.6,-0.5,103.45,53.9,-8.3,-31.67,-2.5,23406.2,8.0,-2.6,148.6,14266.0,36.81,-41.26,-1.0,7.1,296886.0,2
2012_FR,1.4,70.3,0.5,4.1,591.4,24.4,12353518.0,0.8,1892540.0,-12.8,4.1,-2.0,106.3,90.6,-7.8,-18.28,0.8,-267763.0,9.4,-3.2,138.3,88584.0,-6.42,-22.33,-0.8,4.2,2889072.0,2
2012_HU,-5.8,63.7,2.5,5.0,317.0,28.2,91222943.0,0.8,22556631.0,-93.6,5.0,-9.3,89.24,78.4,-0.8,-21.31,1.8,-26953287.0,11.1,-1.9,101.8,-1755701.0,-5.8,-24.3,0.9,-6.1,29288794.0,2
2012_IE,-1.8,71.1,-1.9,-9.9,2021.9,30.8,3542735.0,5.7,210022.3,-137.7,9.2,-14.8,78.63,119.9,-12.2,-18.32,6.3,-241241.0,15.2,-4.4,279.8,-1027.0,-0.67,-27.86,-2.1,-0.6,489941.0,4
2012_IT,7.3,63.5,1.2,2.1,362.4,35.3,5846061.0,2.2,1990140.4,-22.2,5.6,-5.1,118.6,123.4,-6.2,-25.63,10.0,-358220.0,9.2,-1.9,125.1,-13396.0,-27.55,-25.21,-2.2,-0.8,2018718.0,2
2012_LT,-0.7,71.8,2.2,-4.2,108.9,26.7,36328.4,3.3,13264.1,-53.6,6.6,-3.2,89.74,39.8,-6.7,32.33,-2.9,-17878.2,15.5,-2.0,61.1,124.8,13.01,37.39,-2.4,0.4,20367.4,0
2012_LU,15.2,69.4,0.7,5.9,18530.4,18.0,8174150.8,0.4,9699.7,50.9,1.6,2.1,88.35,22.0,-2.4,-6.2,1.5,22472.0,4.8,-1.6,303.7,11408.6,-5.59,-1.29,6.1,25.9,133971.4,0
2012_LV,5.2,74.4,0.9,-6.9,182.2,28.5,39875.6,3.3,9111.6,-67.2,7.8,-0.4,92.19,41.6,-8.6,7.94,-4.8,-14834.0,16.9,-1.5,97.9,-454.5,-13.65,20.5,-1.6,-2.1,21428.8,0
2012_MT,6.1,63.9,4.5,8.6,3092.9,13.8,221699.1,0.1,4855.1,19.6,3.0,0.4,95.5,67.7,-7.6,12.21,-0.7,1404.6,6.5,-2.0,153.2,-47.9,30.81,-15.99,-2.9,-0.7,10981.4,2
2012_NL,6.0,79.0,0.9,2.6,1405.6,11.7,9177810.0,0.8,432428.0,26.7,1.9,-7.9,105.12,66.2,-6.0,-12.8,1.5,174288.0,5.3,-1.8,252.1,40136.0,-8.98,-13.71,8.6,6.1,1646204.0,2
2012_PL,10.7,66.5,1.8,5.3,153.0,26.5,2492477.0,1.6,875260.0,-65.3,4.1,-6.6,101.1,53.7,1.4,1.42,5.9,-1064732.0,9.8,-2.2,73.4,77865.0,0.68,1.54,-4.8,4.8,1196643.0,0
2012_PT,-3.0,73.4,0.0,-6.3,546.8,38.0,920876.4,3.5,212556.0,-116.5,7.7,-8.8,96.81,126.2,-4.0,-16.62,12.7,-196233.0,13.6,-1.6,210.3,-6528.8,-13.46,-17.6,-6.0,-3.9,354222.3,4
2012_RO,4.4,64.8,1.7,6.8,106.8,22.6,634292.4,0.8,219761.5,-67.6,3.0,-9.1,104.31,37.0,-2.0,12.33,2.6,-401364.0,7.0,-6.1,72.1,1792.4,-24.84,28.56,-5.0,0.3,427985.1,4
2012_SE,5.5,80.3,1.4,4.0,500.3,23.7,18456564.0,0.4,1403632.0,-15.7,1.5,0.7,78.66,38.1,10.3,-19.49,-1.3,-580404.0,8.1,-0.7,193.1,91402.0,-6.06,-23.27,5.7,2.5,7121403.0,2
2012_SI,-0.7,70.4,-1.4,0.6,205.7,20.6,74212.0,2.5,19404.0,-44.2,4.3,-8.4,113.8,53.8,-4.5,-20.83,7.0,-15958.3,8.1,-1.2,112.3,-1041.0,-10.54,-23.05,-0.1,-2.9,40512.0,3
2012_SK,0.7,69.4,1.0,0.8,130.7,34.0,95021.6,2.9,37925.7,-61.4,9.4,-6.0,93.78,52.2,-3.2,-10.27,6.4,-44671.1,14.1,0.0,71.8,2236.3,-30.32,-7.86,-2.9,3.1,52204.5,0
2012_UK,-3.5,76.1,0.4,3.0,1324.0,21.2,22434412.0,0.8,1424798.0,-28.4,2.7,-1.7,89.29,84.1,6.0,-20.95,2.1,-482037.0,7.9,4.4,178.4,28975.0,-21.4,-19.75,-3.0,1.7,3023073.0,2
2013_AT,-3.2,75.5,1.1,6.4,461.1,9.7,1493546.2,0.1,263229.5,1.3,1.3,3.0,95.44,81.3,0.7,-18.44,0.2,4189.0,5.0,2.1,127.1,3120.0,-16.29,-19.48,1.7,1.0,411587.2,0
2013_BE,0.9,67.5,-0.2,8.3,557.8,23.7,2188507.7,-0.1,413730.2,51.9,3.9,0.4,100.1,105.5,-0.2,-13.06,1.3,203800.0,7.7,1.5,169.2,32127.4,-4.53,-15.91,-0.5,8.2,663715.7,2
2013_BG,4.3,68.4,1.7,16.0,175.3,28.4,143539.0,2.7,13978.1,-73.6,7.4,0.4,96.99,17.1,-0.9,-0.17,6.5,-60244.7,12.2,0.1,132.3,5947.0,-33.86,15.63,0.3,7.3,108339.0,2
2013_CY,-15.3,73.6,0.0,-2.6,1598.0,38.9,289887.7,4.8,18706.4,-138.7,6.1,-3.9,100.77,103.1,-0.8,-15.27,22.3,-25167.0,11.9,1.1,340.1,-2407.8,-18.92,-9.43,-5.0,-13.3,61692.6,4
2013_CZ,11.4,72.9,2.7,4.2,194.3,18.9,7963007.0,0.0,1840412.0,-41.4,3.0,-0.8,94.56,44.9,-3.1,-9.79,0.6,-1695149.0,6.9,-2.2,73.7,179733.0,-17.34,-8.19,-1.4,4.4,3019209.0,0
2013_DE,-6.2,77.6,0.9,5.8,444.5,7.8,12561910.0,-1.0,2210738.9,34.5,2.3,2.1,94.01,78.2,-1.8,-13.01,-2.0,974741.0,5.5,2.2,103.3,57116.0,-7.51,-13.84,6.6,2.0,2903443.0,2
2013_DK,1.8,78.1,-1.3,1.5,779.4,13.0,15040150.0,0.3,849938.0,37.2,1.8,3.1,91.0,44.0,-2.5,-17.82,-0.9,718686.0,7.4,1.0,216.1,-58540.0,-21.25,-16.37,6.9,-3.0,4170603.0,1
2013_EE,10.4,75.1,1.2,9.1,180.2,18.7,34121.1,-3.8,1923.7,-50.1,3.8,7.5,83.04,10.2,3.1,9.68,-14.2,-9478.7,10.3,2.9,115.9,669.4,-4.66,16.88,0.0,3.5,21935.1,0
2013_EL,-17.4,67.5,-0.3,-10.0,282.7,58.3,510709.7,12.8,320498.0,-130.4,18.5,-9.1,109.06,177.4,-4.4,-25.7,25.3,-235606.0,23.3,-0.6,132.1,-7262.9,-39.22,-6.4,-5.3,-4.0,238707.6,4
2013_ES,-9.3,74.3,0.8,-4.1,436.4,55.5,4476135.0,5.7,979031.0,-95.2,13.0,-10.0,96.24,95.5,-0.3,-11.23,14.0,-976711.0,24.1,1.9,177.2,-105621.0,-21.5,-6.77,-0.6,-10.3,1817396.0,2
2013_FI,-11.6,75.2,0.7,9.1,373.8,19.9,760129.0,-0.3,114801.0,3.9,1.7,-1.2,102.19,56.5,0.2,-31.44,-1.5,7833.6,7.9,2.9,147.7,5657.0,-7.56,-36.86,-2.1,2.8,300393.0,2
2013_FR,0.5,70.7,0.9,4.6,586.3,24.9,12413707.0,0.5,1977734.0,-16.6,4.4,-2.6,103.54,93.4,-2.2,-14.24,1.6,-350487.0,9.8,1.6,137.4,44167.0,-4.8,-18.25,-0.8,2.1,2909122.0,2
2013_HR,3.0,63.7,-1.4,-4.0,196.1,49.9,650613.2,4.4,266752.8,-88.3,11.0,-5.8,103.59,80.4,-3.9,-23.33,17.6,-293119.0,15.6,1.2,117.7,-2038.4,-31.18,-14.63,0.0,-0.6,390627.9,3
2013_HU,-1.3,64.7,2.8,6.2,297.6,26.6,90020693.0,-0.6,23345323.0,-83.1,4.9,-4.3,85.38,77.2,-3.8,-22.81,0.2,-25145514.6,10.7,-1.4,95.2,-283508.0,-9.73,-25.32,2.1,-0.9,28786841.0,2
2013_IE,1.9,71.8,0.2,-0.7,2007.4,26.7,3611739.0,1.1,215337.8,-133.3,8.0,-0.5,78.24,119.7,-3.8,-10.59,-1.4,-239757.0,14.9,1.6,268.1,-2542.0,4.83,-21.67,-1.2,-1.4,481665.0,2
2013_IT,-2.7,63.4,1.4,2.9,354.4,40.0,5686570.0,2.9,2070269.9,-22.7,6.9,-7.5,109.65,129.0,0.1,-20.2,12.1,-363506.0,10.4,1.9,121.6,-47669.0,-21.01,-19.96,-0.8,-3.0,1951908.0,3
2013_LT,-1.4,72.4,2.2,6.2,102.5,21.9,35824.4,-2.3,13550.6,-47.1,5.1,0.2,89.93,38.8,-0.6,19.27,-13.8,-16448.5,13.5,0.9,56.3,-146.7,15.75,20.16,-1.7,-0.4,19693.3,0
2013_LU,10.3,69.9,1.7,7.6,19395.8,16.9,9018954.4,0.5,11009.6,53.9,1.8,3.3,91.26,23.7,0.8,7.4,1.1,25081.0,5.3,1.6,313.3,12935.4,8.02,-1.64,5.7,27.8,145701.5,1
2013_LV,5.2,74.0,1.0,8.1,184.1,23.2,41956.1,-3.1,8984.3,-66.4,5.7,6.5,98.21,39.4,-1.7,5.87,-13.0,-15156.0,14.4,-1.0,92.6,194.2,-21.12,21.49,-3.2,0.9,21103.0,0
2013_MT,1.6,66.3,5.9,9.8,2946.2,12.7,225138.5,-0.3,5226.6,27.0,2.8,-1.4,94.14,68.4,-1.2,-0.64,-0.5,2060.3,6.2,1.5,143.8,209.1,1.6,-12.81,-0.8,2.7,10994.9,1
2013_NL,-1.6,79.4,1.5,4.8,1367.4,13.2,9031495.0,1.2,446944.0,30.7,2.5,-7.9,96.81,67.7,0.5,-11.36,2.1,202572.0,6.0,2.7,257.7,63992.0,-11.21,-11.39,9.5,9.7,1702342.0,2
2013_PL,7.4,67.0,1.7,3.1,161.6,27.3,2676757.0,1.4,922755.0,-68.9,4.4,-4.8,96.29,55.7,-4.3,-0.28,3.6,-1142247.0,10.0,0.2,75.4,54108.0,-4.66,0.81,-3.4,3.3,1249382.0,0
2013_PT,-5.4,73.0,-0.7,-3.4,511.9,38.1,871566.7,3.6,219714.8,-116.3,9.3,-2.7,94.22,129.0,-0.6,-7.47,9.9,-197970.0,15.0,0.3,202.4,-2644.1,-7.38,-7.99,-2.1,-1.6,344546.1,4
2013_RO,0.8,64.9,0.0,-4.7,100.6,23.7,639179.4,0.8,238882.3,-62.8,3.2,-2.8,101.39,37.6,0.5,13.74,1.6,-398917.0,7.0,4.0,66.8,-9162.3,-10.75,23.67,-3.6,-1.4,424457.4,4
2013_SE,9.1,81.1,2.0,8.6,533.7,23.6,20141197.0,-0.2,1535220.0,-16.0,1.4,4.7,82.38,40.7,5.1,-17.21,-1.2,-605549.0,7.9,1.7,195.4,171241.0,1.81,-23.28,5.5,4.5,7372698.0,2
2013_SI,-10.3,70.5,-1.0,0.5,183.7,21.6,66581.0,2.0,25504.9,-39.6,5.2,-7.2,105.58,70.4,-0.6,-18.22,6.9,-14344.1,9.1,1.4,107.2,-1454.0,-21.49,-17.38,1.3,-4.0,38860.0,3
2013_SK,1.7,69.9,1.2,2.2,130.3,33.7,96677.4,0.8,40600.0,-62.3,10.0,-0.4,93.4,54.7,2.1,-4.1,-0.2,-46212.1,14.0,1.0,76.9,3807.9,-20.39,-1.58,-0.7,5.1,56999.6,0
2013_UK,-7.7,76.4,1.0,3.3,1175.9,20.7,20712536.0,0.2,1499789.0,-18.0,2.7,0.3,89.52,85.2,3.4,-11.96,0.8,-317483.0,7.8,-1.5,172.8,122455.0,-9.0,-14.93,-3.6,7.0,3043409.0,2
2014_AT,-0.8,75.4,0.8,7.9,444.7,10.3,1481380.6,0.3,280001.0,3.4,1.5,1.4,96.78,84.0,1.9,-15.74,1.4,11285.0,5.3,1.7,124.8,2938.7,-12.89,-16.51,2.0,0.9,415800.6,0
2014_BE,3.3,67.7,1.0,5.6,565.0,23.2,2260373.4,0.8,430185.6,45.1,4.3,-1.1,99.04,107.5,-0.6,-13.41,4.5,180562.0,8.2,0.2,166.8,-8216.5,-6.89,-15.51,-0.4,-2.1,667416.0,2
2014_BG,5.6,69.0,3.1,17.8,181.0,23.8,151616.0,0.6,22723.6,-72.3,6.9,1.5,98.47,27.1,-2.8,5.59,-1.2,-60544.8,12.2,-0.8,123.4,-909.0,-25.51,23.17,0.6,-1.1,103395.0,3
2014_CY,-3.6,74.3,0.8,-8.0,1586.2,36.0,279329.4,6.1,19013.8,-147.0,7.7,-1.0,99.77,108.0,-1.7,-24.15,13.6,-25885.0,14.6,-0.8,352.4,-57.7,-20.24,-27.97,-5.1,-0.3,62054.8,4
2014_CZ,5.2,73.5,3.0,4.0,194.1,15.9,8374722.0,0.0,1819098.0,-36.6,2.7,1.8,96.3,42.2,-10.0,-6.24,-2.2,-1577079.0,6.7,-5.2,71.5,71558.0,-16.16,-4.57,-0.6,1.7,3085841.0,0
2014_DE,4.6,77.7,0.4,7.0,447.1,7.7,13137296.0,-0.6,2212280.4,40.6,2.2,2.2,96.08,75.3,-0.4,-9.53,-0.8,1193745.0,5.2,0.8,99.0,2356.0,-7.87,-10.1,6.9,0.1,2898735.0,2
2014_DK,7.3,78.1,-1.2,2.3,814.7,12.6,16140443.0,-0.1,877067.0,43.3,1.7,3.2,93.87,44.3,-1.2,-15.89,-1.6,858461.0,7.0,0.8,214.0,-5108.0,-11.88,-17.29,7.7,-0.3,4239375.0,0
2014_EE,13.2,75.2,0.5,14.1,192.5,15.0,38608.6,-3.8,2108.4,-47.0,3.3,12.6,93.49,10.5,4.8,20.49,-7.4,-9425.5,8.7,2.8,116.1,1129.8,6.57,30.2,-0.2,5.6,23287.2,0
2014_EL,-8.2,67.4,0.1,-10.4,262.5,52.4,468962.4,10.7,319629.0,-131.9,19.5,-5.1,103.49,178.9,-5.6,-18.49,7.7,-235734.0,26.2,-0.6,130.6,-5441.4,-25.02,-5.48,-2.5,-3.0,233397.1,4
2014_ES,0.3,74.2,0.3,-3.4,432.5,53.2,4488681.0,4.0,1041624.0,-98.0,12.9,0.1,96.35,100.4,-1.0,-12.29,7.0,-1016562.0,25.1,-0.5,166.1,-70233.0,-18.59,-8.71,0.8,-6.8,1723724.0,2
2014_FI,9.2,75.4,0.5,7.8,404.1,20.5,830335.0,0.2,123696.0,-3.2,1.9,-1.7,100.5,60.2,2.7,-26.39,0.4,-6534.5,8.2,2.5,149.8,3587.0,-9.56,-30.87,-2.1,1.7,307866.0,2
2014_FR,5.6,71.0,1.3,4.4,609.5,24.2,13103562.0,0.5,2039884.0,-15.6,4.5,-1.7,101.8,94.9,-1.3,-14.53,1.6,-335699.0,10.1,0.3,141.5,69792.0,-2.49,-19.05,-0.8,3.2,3041653.0,3
2014_HR,0.6,66.1,2.0,-6.5,197.4,44.9,654554.1,1.7,278493.5,-85.3,10.1,-1.1,102.47,84.0,-0.8,-20.27,8.3,-282784.0,16.8,0.5,118.0,282.4,-25.47,-10.56,0.9,0.1,391307.3,3
2014_HU,8.4,67.0,4.6,5.7,299.5,20.4,97579858.0,-1.5,24989251.0,-80.3,3.7,3.4,88.25,76.7,-6.8,-16.69,-5.6,-26159066.2,9.6,-3.6,91.4,-28081.0,-7.85,-18.82,2.3,-0.1,29768869.0,2
2014_IE,19.5,71.8,0.6,-3.7,2210.9,23.4,4317763.0,-2.2,203364.5,-164.3,6.6,15.1,90.08,104.1,-3.6,-14.64,-6.2,-320867.0,13.7,-0.8,279.0,4958.0,6.58,-26.42,-0.3,2.5,543540.0,2
2014_IT,0.6,63.9,1.8,2.3,352.7,42.7,5720573.0,3.4,2137333.2,-21.0,7.7,-5.0,104.21,131.8,0.2,-15.29,13.5,-341018.0,11.8,0.3,119.0,-7693.0,-19.25,-14.49,0.9,-0.5,1930418.0,3
2014_LT,16.2,73.7,2.3,8.7,113.8,19.3,41613.6,-3.2,14827.1,-45.1,4.8,6.3,95.61,40.5,1.7,33.64,-13.3,-16492.1,12.0,3.0,53.9,96.7,30.46,34.34,0.9,0.3,19717.4,0
2014_LU,9.6,70.8,2.9,7.1,19834.0,22.3,9882172.8,0.2,11330.5,48.8,1.6,3.9,94.79,22.7,0.5,14.89,5.9,24296.0,5.7,0.5,334.7,14720.3,22.93,1.55,5.4,29.5,166750.1,0
2014_LV,10.4,74.6,1.8,16.3,196.1,19.6,46314.6,-4.2,9668.5,-66.1,4.6,4.3,102.46,40.9,0.4,10.97,-11.4,-15607.0,12.6,2.9,96.2,-2795.1,-14.81,27.77,-2.7,-11.8,22732.3,0
2014_MT,6.4,67.8,6.0,2.8,2828.9,11.7,239535.2,-0.3,5390.0,43.0,2.7,2.1,96.14,63.4,0.1,-12.48,-1.6,3659.9,6.0,0.6,135.1,327.3,-7.06,-21.03,1.8,3.8,11491.1,0
2014_NL,8.0,79.0,0.9,3.7,1452.9,12.7,9756933.0,1.3,455706.0,48.0,2.9,-0.1,96.72,67.9,0.7,-11.35,2.7,322619.0,6.8,-0.1,267.2,28618.0,-10.21,-11.67,9.5,4.3,1794154.0,2
2014_PL,0.7,67.9,2.2,2.9,156.7,23.9,2696016.0,0.2,867345.0,-69.1,3.8,1.2,97.43,50.4,-1.0,4.69,-1.9,-1188192.0,9.8,1.0,78.1,79412.0,6.95,3.99,-2.4,4.6,1343117.0,0
2014_PT,-7.5,73.2,-0.4,-2.7,465.7,34.7,805980.9,2.2,226040.5,-118.6,8.4,3.9,97.92,130.6,-1.8,-6.14,4.5,-205329.0,15.4,-0.5,190.5,-9784.4,-5.2,-5.87,0.0,-5.7,329643.3,3
2014_RO,1.3,65.7,1.6,6.7,96.9,24.0,647769.3,-0.1,262195.3,-57.3,2.8,-3.1,98.2,39.2,-1.0,20.13,0.1,-383117.0,6.9,1.4,62.1,-15786.5,16.59,21.58,-2.2,-2.4,414862.4,2
2014_SE,13.0,81.5,1.6,6.9,577.5,22.9,22758209.0,-0.1,1791624.0,-2.3,1.4,8.3,89.2,45.5,-3.7,-9.63,0.1,-90607.0,8.0,-4.6,194.7,192109.0,5.0,-14.49,5.1,4.9,7674548.0,2
2014_SI,-0.2,70.9,0.6,0.0,176.7,20.2,66457.0,1.7,30219.9,-38.4,5.3,-6.6,98.61,80.4,1.2,-12.73,4.5,-14448.8,9.6,1.1,97.4,-1767.0,-16.38,-11.82,3.3,-4.7,36614.0,2
2014_SK,8.7,70.3,1.6,1.8,138.1,29.7,105042.2,0.1,40725.0,-63.6,9.3,1.5,94.82,53.5,1.2,1.88,-4.0,-48385.8,13.8,0.2,82.5,4356.4,-4.84,2.1,1.3,5.7,62759.3,0
2014_UK,4.8,76.7,1.2,3.4,1177.4,17.0,21714700.0,-0.5,1604788.0,-22.1,2.2,6.0,94.85,87.0,10.1,-9.63,-4.3,-407147.0,7.2,7.1,166.0,124388.0,-5.91,-10.87,-4.6,6.7,3062163.0,2
2015_AT,-0.1,75.5,0.4,6.2,429.8,10.6,1479500.8,0.5,291687.7,2.2,1.7,3.3,100.0,84.7,1.3,-9.17,1.2,7610.0,5.6,-2.4,124.2,7430.5,-12.28,-9.19,2.0,2.2,427704.1,1
2015_BE,2.7,67.6,0.7,1.3,564.4,22.1,2320408.9,1.0,437176.1,45.9,4.4,1.0,100.0,106.4,-1.7,-11.9,2.3,188511.0,8.5,-3.4,180.9,50927.2,-10.03,-14.01,-0.7,12.4,743623.8,1
2015_BG,6.2,69.3,2.2,14.9,181.8,21.6,161054.0,-1.2,23217.2,-63.0,5.6,1.6,100.0,26.2,-4.3,11.78,-6.5,-55822.8,11.2,-3.6,110.5,-290.0,-9.07,18.93,0.8,-0.3,97835.0,3
2015_CY,11.1,73.9,0.4,-10.9,1748.0,32.8,310203.8,3.2,19164.0,-145.0,6.8,0.2,100.0,108.0,-6.2,-12.25,5.1,-25734.0,15.7,-6.5,353.5,732.2,-20.01,-17.53,-3.6,4.1,62724.3,3
2015_CZ,8.1,74.0,2.4,0.1,196.9,12.6,9051264.0,-0.6,1836255.0,-32.9,2.4,3.8,100.0,40.0,-8.2,-2.19,-6.9,-1512936.0,6.1,-0.9,68.1,15250.0,-18.74,2.44,0.0,0.3,3131193.0,0
2015_DE,2.9,77.6,0.4,5.6,443.5,7.2,13520236.0,-0.4,2181971.9,46.4,2.0,4.1,100.0,71.6,-1.5,-3.2,-0.8,1413508.0,4.9,-4.4,98.9,98872.0,-5.12,-1.87,7.4,3.3,2995297.0,2
2015_DK,-1.0,78.5,-0.1,2.2,785.1,10.8,15986470.0,-0.4,809934.4,34.3,1.7,6.5,100.0,39.8,-1.7,-8.52,-3.3,699441.0,6.6,-3.4,211.4,58704.0,-18.38,-5.99,8.3,2.9,4305784.0,0
2015_EE,8.6,76.7,1.9,13.2,203.1,13.1,41945.2,-3.1,2034.9,-40.2,2.4,7.0,100.0,9.9,5.8,7.38,-7.8,-8300.3,7.4,0.1,113.5,561.3,-3.14,9.96,1.1,2.7,23434.9,1
2015_EL,15.2,67.8,0.3,-9.7,304.8,49.8,540286.8,3.7,311729.0,-135.4,18.2,-3.4,100.0,175.9,-5.6,-15.41,-5.5,-240013.0,26.3,-4.5,127.9,-5157.7,-27.5,-9.22,-1.5,-2.9,226762.9,4
2015_ES,-1.7,74.3,0.0,-0.3,407.9,48.3,4410576.0,0.4,1073934.0,-89.5,11.4,3.8,100.0,99.3,-3.2,-4.06,-4.6,-967287.0,24.2,-4.5,155.0,-19013.0,-18.52,0.97,1.3,-1.8,1675888.0,2
2015_FI,1.4,75.8,0.6,3.4,401.0,22.4,841962.0,0.7,133206.0,1.5,2.3,-0.5,100.0,63.4,2.1,-21.62,3.4,3252.0,8.8,-3.2,152.6,14518.0,-3.73,-27.67,-1.6,6.9,320439.0,2
2015_FR,2.2,71.3,1.0,2.3,609.0,24.7,13388907.0,0.5,2101255.0,-12.9,4.6,-1.8,100.0,95.6,-2.9,-3.7,0.3,-284191.0,10.3,-4.7,142.8,100628.0,-4.37,-5.47,-0.6,4.6,3139180.0,3
2015_HR,2.0,66.9,3.0,-6.3,196.5,42.3,667472.9,0.0,284372.9,-76.4,10.2,-2.4,100.0,83.7,0.1,-6.16,0.1,-259360.0,16.9,-1.5,113.0,-4605.3,-17.57,-2.54,2.4,-1.4,383695.8,3
2015_HU,0.4,68.6,4.9,-0.6,285.0,17.3,97985924.0,-1.9,26366346.0,-67.5,3.1,13.3,100.0,76.7,-7.2,-9.24,-10.9,-23222645.2,8.2,-2.4,84.6,-874240.0,-9.7,-8.67,2.7,-2.5,29068619.0,1
2015_IE,9.6,72.1,1.0,-18.6,1803.0,20.2,4732176.0,-3.9,201635.1,-198.7,5.3,11.0,100.0,76.8,-6.4,37.8,-10.6,-521499.0,11.9,-7.2,305.6,-6139.0,13.05,49.33,2.3,-2.3,803116.0,2
2015_IT,1.3,64.0,0.5,1.6,350.7,40.3,5795409.0,1.3,2173428.0,-19.5,6.9,-4.0,100.0,131.6,-2.4,-9.31,5.0,-322858.0,12.2,-4.5,115.1,-23245.0,-24.27,-4.91,1.4,-1.4,1902225.0,3
2015_LT,7.0,74.1,2.3,11.8,119.0,16.3,44530.1,-2.7,15940.2,-43.4,3.9,4.6,100.0,42.6,4.2,14.87,-10.4,-16254.2,10.5,0.3,54.8,888.0,14.82,15.32,0.6,2.4,20510.2,0
2015_LU,45.8,70.9,1.5,2.6,27943.8,16.6,14413123.9,0.3,11446.9,31.1,1.9,5.5,100.0,22.2,-0.7,28.69,-1.4,16039.0,6.1,-2.7,345.4,11846.4,23.08,-3.2,5.2,23.0,178168.6,0
2015_LV,12.2,75.7,1.3,17.5,213.6,16.3,51959.0,-3.3,8953.3,-63.5,4.5,-2.4,100.0,36.8,2.5,12.46,-12.2,-15453.0,10.9,0.6,88.9,180.0,-6.62,19.56,-1.6,0.7,21626.0,0
2015_MT,1.3,68.8,4.9,-1.4,2548.4,11.6,242725.2,-0.6,5586.2,37.4,2.4,4.0,100.0,57.9,-2.8,9.06,-2.2,3607.4,5.7,-4.8,120.8,261.8,4.77,-18.03,2.9,2.7,11667.6,0
2015_NL,4.0,79.6,0.6,-0.4,1470.8,11.3,10148934.0,1.1,446058.0,48.9,3.0,3.4,100.0,64.6,-0.9,-6.77,-0.4,337602.0,7.2,-3.4,262.8,74.0,5.6,-10.62,8.2,0.0,1813098.0,2
2015_PL,2.4,68.1,1.6,0.2,153.4,20.8,2761319.0,-1.1,923259.0,-62.1,3.0,2.6,100.0,51.3,-1.4,9.15,-5.7,-1117822.0,8.9,-2.6,78.9,62502.0,-0.62,12.22,-1.3,3.5,1420410.0,0
2015_PT,-1.6,73.4,0.0,0.5,440.9,32.0,792830.4,-0.5,231512.6,-113.2,7.2,2.1,100.0,128.8,-3.1,1.63,-6.0,-203520.0,14.4,-2.9,179.4,-3440.9,-4.52,2.0,0.6,-1.9,322513.7,3
2015_RO,4.1,66.1,1.3,0.6,94.6,21.7,674188.0,0.0,269151.3,-54.6,3.0,1.8,100.0,37.8,2.7,20.46,-0.9,-389169.0,6.9,-2.6,59.1,1303.7,38.94,15.55,-1.0,0.2,421374.6,1
2015_SE,2.4,81.7,1.4,2.5,554.8,20.4,23309138.0,0.0,1856324.0,-4.0,1.5,12.1,100.0,44.2,-8.3,-9.34,-3.3,-167082.0,7.8,-5.5,188.3,312544.0,5.1,-15.74,4.6,7.4,7913467.0,2
2015_SI,-3.7,71.8,1.4,-0.4,164.7,16.3,64008.0,0.4,32087.4,-31.2,4.7,1.4,100.0,82.6,0.3,-4.64,-4.3,-12115.4,9.6,-2.1,86.7,-1939.0,-17.73,-0.69,4.1,-5.0,33711.0,2
2015_SK,10.8,70.9,1.5,2.1,147.1,26.5,116429.4,-1.8,41295.0,-64.4,7.6,5.5,100.0,52.2,-1.2,4.14,-7.5,-50984.0,13.0,-2.4,83.3,6481.1,-0.98,7.01,0.4,8.2,65934.6,0
2015_UK,-8.5,76.9,0.8,2.4,1047.6,14.6,19860412.0,-1.1,1665979.0,-20.1,1.6,5.4,100.0,87.9,10.7,1.98,-6.6,-381025.0,6.3,4.9,164.8,62698.0,-0.12,-2.37,-5.0,3.3,3123700.0,1
2016_AT,-2.6,76.2,0.7,5.3,404.3,11.2,1440426.2,0.6,295611.9,3.7,1.9,7.0,107.03,83.0,0.9,-3.36,1.5,13033.0,5.8,1.7,124.1,12231.5,-8.47,-3.41,2.2,3.4,442226.5,0
2016_BE,2.3,67.6,0.1,-0.4,559.3,20.1,2374675.9,0.1,450544.7,57.0,4.0,0.9,100.92,106.1,-0.4,-2.45,-3.6,242154.0,8.3,2.9,198.9,97557.2,-4.67,-3.36,-0.8,23.0,844398.1,0
2016_BG,11.2,68.7,0.3,9.1,190.2,17.2,179022.0,-2.9,27858.2,-49.2,4.5,7.1,107.13,29.6,-4.7,8.12,-11.2,-46281.6,9.4,-0.4,104.8,3895.0,1.27,9.71,1.3,4.1,98673.0,3
2016_CY,1.8,73.4,-0.2,-6.9,1708.7,29.1,315935.4,-0.3,19509.2,-123.0,5.8,1.7,101.69,105.5,-7.4,-2.16,-9.8,-22746.0,14.7,-0.2,337.8,1801.1,-11.76,-22.3,-3.6,9.7,62459.6,3
2016_CZ,16.3,75.0,2.1,2.7,220.7,10.5,10524787.0,-1.3,1754883.0,-26.9,1.7,6.7,106.67,36.8,-3.7,2.39,-8.4,-1283097.0,5.1,2.5,68.7,207088.0,-14.24,7.8,0.7,4.3,3276106.0,0
2016_DE,5.1,77.9,0.3,4.6,449.6,7.1,14204845.0,-0.6,2165891.1,50.8,1.7,6.8,106.75,68.5,-2.1,1.96,-0.7,1605467.0,4.6,1.6,99.3,115871.0,0.54,3.85,8.0,3.7,3111864.0,2
2016_DK,5.1,80.0,1.9,2.1,800.4,12.0,16809268.0,-0.4,781229.7,54.6,1.4,4.7,104.7,37.2,-1.7,-2.96,-1.0,1145888.0,6.3,1.0,209.5,58477.0,-17.94,0.67,8.4,2.8,4400465.0,0
2016_EE,6.9,77.5,2.4,12.0,206.8,13.4,44834.4,-1.7,1986.8,-38.9,2.1,3.8,103.82,9.2,4.4,-0.11,-5.3,-8430.4,6.8,1.5,112.2,1307.6,-4.0,-1.54,1.5,6.0,24330.7,0
2016_EL,-16.6,68.2,0.7,-3.3,255.5,47.3,450840.7,-1.5,315010.0,-137.8,17.0,-1.7,98.35,178.5,-4.0,-11.22,-11.0,-243271.0,25.0,1.1,125.1,-3709.4,-27.05,-6.55,-1.4,-2.1,220724.2,4
2016_ES,0.4,74.2,-0.1,-0.5,395.8,44.4,4427896.0,-3.5,1107220.0,-85.3,9.5,4.6,104.62,99.0,-4.3,2.58,-11.1,-954546.0,22.1,0.7,147.0,-13278.0,-14.58,7.65,1.5,-1.2,1644224.0,2
2016_FI,3.9,75.9,0.7,0.7,404.8,20.1,874720.0,0.6,136150.0,8.6,2.3,0.0,100.04,63.0,0.4,-13.91,0.2,18579.0,9.0,1.2,148.5,2958.0,-2.29,-19.26,-1.1,1.4,320960.0,1
2016_FR,4.5,71.4,0.7,1.7,627.8,24.6,13990973.0,0.2,2188481.0,-13.0,4.6,0.8,100.81,98.0,-3.2,1.1,-0.3,-290561.0,10.3,1.3,146.3,155156.0,-6.34,1.05,-0.6,6.9,3267751.0,3
2016_HR,3.3,65.6,1.9,-5.1,196.3,31.8,689537.7,-4.4,282766.0,-69.9,6.6,2.1,102.12,80.5,0.0,7.68,-18.1,-245661.0,15.6,1.1,105.0,-213.8,-8.28,8.92,3.0,-0.1,368877.5,3
2016_HU,19.4,70.1,5.4,3.8,329.8,12.9,116977633.0,-2.5,26967177.0,-58.7,2.4,13.6,113.61,76.0,-5.2,-0.35,-13.7,-20840215.0,6.5,0.8,77.9,-1074411.0,-3.27,0.99,3.4,-3.0,27634740.0,0
2016_IE,1.5,72.7,0.9,-17.7,1758.7,16.8,4805403.0,-3.8,200710.5,-170.7,4.2,6.6,106.61,73.5,-7.1,58.52,-9.9,-466388.0,10.1,0.9,284.9,-42697.0,23.42,73.87,0.4,-15.7,774043.0,2
2016_IT,3.3,64.9,1.5,1.6,356.3,37.8,5988952.0,-0.2,2220369.6,-10.2,6.7,0.1,100.1,131.4,-3.4,-3.26,-2.2,-172705.0,12.1,0.8,111.8,-858.0,-19.84,2.01,1.9,-0.1,1888670.0,3
2016_LT,16.6,75.5,3.1,15.3,133.7,14.5,51937.4,-2.1,15524.5,-42.7,3.0,4.5,104.46,40.0,5.3,5.02,-7.4,-16606.0,9.2,1.9,56.1,1716.0,18.99,2.18,0.0,4.4,21791.7,0
2016_LU,4.8,70.0,0.1,3.6,28328.8,19.1,15100080.3,0.4,11024.4,46.9,2.2,5.6,105.59,20.7,-1.5,31.37,2.2,24997.0,6.3,0.7,344.8,12553.0,18.66,-5.14,5.1,23.6,183762.2,0
2016_LV,5.8,76.3,2.3,16.9,219.6,17.3,54982.0,-1.7,10091.6,-58.4,4.0,7.3,107.31,40.3,4.8,9.24,-5.9,-14634.0,10.1,1.2,88.0,63.0,-6.96,13.56,-0.2,0.3,22022.0,0
2016_MT,3.8,70.6,4.3,-1.1,2475.1,10.7,251967.4,-0.9,5739.9,35.4,1.9,4.8,104.82,55.5,-2.9,22.47,-2.0,3661.5,5.3,1.4,121.5,1151.0,13.06,-17.79,4.1,11.1,12569.1,0
2016_NL,6.7,79.7,0.3,-0.3,1528.1,10.8,10824310.0,0.0,438418.0,61.4,2.5,4.4,104.39,61.9,-2.3,-3.0,-2.4,434580.0,6.8,1.2,259.3,27649.0,1.31,-4.44,7.6,3.9,1836736.0,2
2016_PL,9.0,68.8,1.8,2.5,161.8,17.7,3011205.0,-2.2,1009257.0,-61.6,2.2,2.3,102.27,54.2,-5.1,17.68,-9.6,-1145969.0,7.6,-3.5,81.6,95604.0,7.26,21.29,-1.1,5.1,1517931.0,0
2016_PT,-0.3,73.7,0.7,0.1,423.8,28.2,790304.6,-3.1,240962.6,-105.5,6.2,6.1,106.06,129.2,-1.8,5.42,-9.9,-196761.0,12.6,1.6,169.3,-3878.3,-2.91,5.1,0.3,-2.1,315659.9,3
2016_RO,6.9,65.6,0.7,9.5,94.2,20.6,720457.0,-0.2,285553.1,-49.0,3.0,5.2,105.21,37.3,-2.6,23.16,-3.1,-375018.0,6.5,-1.3,55.6,4430.2,45.32,17.77,-1.3,0.6,425065.1,0
2016_SE,9.3,82.1,1.0,2.5,581.2,18.9,25488179.0,-0.1,1857761.0,0.1,1.3,7.6,107.55,42.4,-9.2,-7.59,-4.7,4278.0,7.4,0.8,188.5,352473.0,-1.58,-12.04,4.2,8.0,8265986.0,2
2016_SI,3.2,71.6,1.1,0.9,163.7,15.2,66072.0,-0.9,31753.4,-28.9,4.3,3.8,103.77,78.7,-0.6,3.66,-6.4,-11646.3,8.9,0.5,80.6,-318.0,-8.34,7.52,4.6,-0.8,32513.0,2
2016_SK,8.5,71.9,2.0,3.1,155.5,22.2,126278.2,-4.2,42053.2,-66.6,5.8,7.0,107.02,51.8,-1.6,7.95,-11.5,-54112.4,11.5,0.5,90.5,7727.6,11.98,11.21,-0.9,9.5,73493.9,0
2016_UK,11.7,77.3,0.9,3.0,1126.8,13.0,22192968.0,-1.4,1731392.0,-2.4,1.3,5.4,105.4,87.9,0.2,0.91,-7.7,-47452.0,5.4,-10.9,170.0,226509.0,-2.71,-5.57,-5.0,11.5,3347685.0,0
2017_AT,1.8,76.4,1.0,3.7,396.5,9.8,1466702.4,0.3,289253.2,3.7,1.8,3.5,110.82,78.2,0.1,2.04,-0.5,13792.0,5.7,0.9,122.5,15768.4,-3.09,2.1,2.1,4.3,453222.8,0
2017_BE,0.7,68.0,0.3,1.1,544.5,19.3,2391240.1,-0.8,454112.2,52.4,3.5,1.7,102.67,103.4,0.9,3.56,-3.9,230059.0,7.8,1.5,187.2,-5632.5,-5.34,5.34,-0.3,-1.3,822325.5,0
2017_BG,1.1,71.3,2.3,13.6,179.1,12.9,180951.0,-3.5,25904.2,-44.7,3.4,6.2,113.8,25.6,-3.3,18.96,-10.9,-45176.7,7.7,0.6,100.1,6253.0,-1.08,25.19,1.9,6.2,101100.0,2
2017_CY,-2.3,73.9,-0.4,-2.5,1577.5,24.7,308731.6,-3.2,18814.1,-121.1,4.5,1.3,103.04,95.8,-6.6,6.63,-11.3,-23785.0,13.0,0.1,315.1,1693.7,1.11,-21.35,-5.0,8.6,61908.5,3
2017_CZ,22.9,75.9,2.4,5.9,256.3,7.9,12934068.0,-1.7,1749532.0,-25.0,1.0,9.1,116.33,34.7,5.3,8.66,-8.0,-1263684.0,4.0,3.6,67.3,209634.0,-5.52,13.22,1.2,4.2,3395808.0,0
2017_DE,4.0,78.2,0.5,4.6,450.8,6.8,14774825.0,-0.6,2115396.7,54.4,1.6,4.5,111.53,64.5,-2.0,5.83,-0.9,1783108.0,4.2,0.9,101.1,160691.0,4.3,7.41,8.3,5.0,3279545.0,2
2017_DK,4.8,78.8,0.7,2.4,808.6,11.0,17612379.0,-0.4,772862.0,55.5,1.3,3.3,108.16,35.5,-2.2,0.21,-1.6,1207796.0,6.0,0.3,201.7,2372.0,-16.66,5.98,8.0,0.1,4392337.0,0
2017_EE,9.7,78.8,3.6,12.4,208.2,12.1,49167.9,-1.4,2176.7,-31.4,1.9,1.8,105.65,9.2,2.9,2.28,-2.9,-7416.9,6.3,1.3,106.4,842.9,-4.43,2.22,2.3,3.6,25123.3,0
2017_EL,-12.9,68.3,0.9,-1.0,217.8,43.6,392577.5,-3.9,317485.0,-140.5,15.6,-1.6,96.77,176.2,-2.9,-1.58,-8.8,-253231.0,23.3,0.6,117.3,-1564.6,-9.92,-5.6,-1.4,-0.9,211403.0,4
2017_ES,4.0,73.9,-0.3,0.0,394.8,38.6,4604427.0,-5.2,1144425.0,-83.5,7.7,4.5,109.35,98.1,-2.6,9.46,-14.6,-973976.0,19.6,1.3,139.0,5605.0,-4.95,13.32,1.8,0.5,1620707.0,2
2017_FI,-3.9,76.7,1.3,-3.3,375.4,20.1,840398.0,0.2,137278.0,1.4,2.1,1.0,101.0,61.3,-2.7,-4.61,-0.4,3070.0,8.9,-0.6,145.8,16142.0,2.4,-8.73,-0.7,7.2,326475.0,0
2017_FR,4.3,71.5,0.5,1.5,636.7,22.3,14591497.0,-0.3,2258656.0,-16.6,4.2,2.2,103.03,98.4,-3.0,2.5,-1.9,-380863.0,10.0,0.5,148.0,160200.0,-6.59,3.7,-0.5,7.0,3396939.0,2
2017_HR,3.9,66.4,0.3,-4.3,195.9,27.2,716464.1,-5.5,284315.7,-62.4,4.6,2.8,104.96,77.8,-0.1,19.6,-17.7,-228267.0,13.5,0.3,98.2,4411.9,2.42,23.43,3.6,1.2,358940.3,3
2017_HU,-8.0,71.2,4.2,6.7,280.7,10.7,107657971.0,-2.0,28158019.0,-53.0,1.7,3.3,117.31,73.4,0.0,11.05,-9.7,-20336927.0,5.4,1.7,71.6,379775.0,9.61,11.83,3.9,1.0,27459172.0,0
2017_IE,4.3,72.7,0.9,-15.4,1704.3,14.4,5012561.0,-3.6,201367.8,-168.9,3.0,9.5,116.73,68.5,-6.2,71.49,-9.0,-496850.0,8.4,0.1,241.2,-22106.0,47.11,77.49,0.2,-7.4,716596.0,2
2017_IT,4.3,65.4,1.5,1.1,363.7,34.7,6244714.0,-1.2,2269009.9,-6.4,6.5,-2.3,97.83,131.4,-3.2,1.75,-8.0,-109898.0,11.6,0.5,110.3,36386.0,-14.25,6.65,2.2,2.1,1905307.0,3
2017_LT,14.0,75.9,2.2,16.0,140.4,13.3,59227.6,-2.1,16625.1,-35.9,2.7,5.4,110.07,39.4,2.3,9.41,-6.0,-15127.3,8.0,0.0,56.1,1558.3,29.35,4.83,-0.7,3.7,23653.8,0
2017_LU,-1.6,70.2,-0.6,7.1,26862.0,15.5,14854547.9,0.5,12697.1,43.1,2.1,3.9,109.76,23.0,-1.0,19.8,-6.8,23829.0,6.1,1.0,316.4,-8278.8,12.27,-16.42,5.1,-15.0,174965.2,0
2017_LV,6.1,77.0,2.4,14.7,215.7,17.0,58313.0,-1.3,10806.8,-56.3,3.3,5.5,113.25,40.0,1.6,7.45,-2.6,-15210.0,9.4,-0.2,83.5,90.0,-2.65,9.38,0.6,0.3,22572.0,0
2017_MT,4.7,72.2,4.4,1.3,2368.7,10.6,263863.1,-1.1,5682.6,64.5,1.6,4.1,109.17,50.2,-2.4,25.21,-1.1,7289.8,4.7,1.1,118.5,319.7,19.35,-14.22,5.7,2.8,13391.8,0
2017_NL,-0.1,79.7,0.7,-0.1,1465.4,8.9,10816959.0,-1.0,419778.0,59.4,1.9,6.1,110.72,57.0,-1.8,1.61,-3.8,438408.0,5.9,0.5,249.1,27561.0,10.61,-1.0,8.4,3.7,1838463.0,2
2017_PL,6.3,69.6,1.7,4.2,160.8,14.8,3199533.0,-2.3,1005722.0,-61.0,1.5,2.2,104.53,50.6,-3.5,28.06,-9.1,-1213112.0,6.2,2.7,76.4,55863.0,19.79,30.89,-0.3,2.8,1519181.0,0
2017_PT,1.9,74.7,1.5,3.5,413.9,23.8,805411.5,-3.9,242804.8,-104.9,4.5,7.9,114.39,124.8,-0.8,14.29,-10.9,-204069.0,10.9,0.6,163.0,3963.5,11.29,11.46,0.4,2.0,317196.8,2
2017_RO,8.1,67.3,1.6,13.5,90.9,18.3,778658.5,-0.8,301158.3,-47.8,2.0,3.3,108.67,35.2,-5.6,36.63,-5.7,-409448.0,5.9,-1.8,51.0,14307.3,54.66,31.08,-2.2,1.7,436528.4,0
2017_SE,6.8,82.5,1.0,3.8,594.3,17.8,27213894.0,-0.2,1869076.0,4.4,1.2,4.6,112.54,40.8,-5.5,-4.47,-5.1,202254.0,7.0,-0.7,195.6,598558.0,-3.75,-6.72,3.6,13.1,8954765.0,2
2017_SI,5.1,74.2,3.3,3.4,161.5,11.2,69443.0,-2.2,31859.1,-24.2,3.1,6.2,110.24,74.1,-2.1,18.19,-9.0,-10421.4,7.9,-0.4,75.6,364.0,4.36,22.45,4.9,0.8,32506.0,1
2017_SK,17.9,72.1,1.8,6.9,175.5,18.9,148886.9,-4.2,43231.1,-65.6,5.1,4.4,111.76,50.9,-2.1,6.35,-10.8,-55630.9,9.8,-0.2,96.1,5020.0,12.35,8.6,-2.0,5.9,81568.5,0
2017_UK,-1.7,77.6,0.9,5.3,1064.7,12.1,21822784.0,-1.1,1786069.0,-8.1,1.1,2.4,107.92,87.1,-10.8,-1.27,-4.9,-165555.0,4.8,-4.6,171.5,167227.0,-7.48,-4.31,-4.5,8.2,3516120.0,0
