,tipsgo10-GD-S13-PC_GDP,tipspc20-CO-S11_S14_S15-LIAB-F3_F4-MIO_NAC,tipsfs10-F-NCO-S12-LIAB-PC_GDP,tipslm10-NULC_PER-PCH_3Y,tipsii10-NSA-FA-S1-S1-N_LE-WRL_REST-PC_GDP,tipsun10-TOTAL-AVG_3Y-T,tipslm60-T-PPCH_3Y,tipspd20-CO-S11_S14_S15-LIAB-F3_F4-MIO_NAC,tipslm70-PC_ACT-T,tipspc20-CO-S11_S14_S15-LIAB-F3_F4-PC_GDP,tipsbp10-PC_GDP_3Y-NSA-CA-BAL-WRL_REST,tipsii10-NSA-FA-S1-S1-N_LE-WRL_REST-MIO_NAC,tipsex10-PCH_WRL_5Y-S-CRE-WRL_REST,tipsfs10-F-NCO-S12-LIAB-PCH_PRE,tipser10-PCH_3Y,tipser10-PCH_1Y,tipsex10-PCH_WRL_5Y-G-CRE-WRL_REST,tipspd20-CO-S11_S14_S15-LIAB-F3_F4-PC_GDP,tipslm60-T-PC_POP,tipsho10-INX_A_AVG,tipsgo10-GD-S13-MIO_NAC,tipslm80-Y_LT25-T-PC_ACT,tipslm70-PPCH_3Y-T,tipslm80-Y_LT25-T-PPCH_3Y,tipsho10-RCH_A_AVG,tipsex10-PCH_WRL_5Y-GS-CRE-WRL_REST,tipsfs10-F-NCO-S12-LIAB-MIO_NAC,label
2012_AT,81.9,3781.5,484.3,3.8,-3.2,4.8,0.8,408450.0,1.2,1.2,2.0,-10154.0,-17.45,0.4,-4.7,-1.8,-22.98,128.2,75.1,92.67,261040.8,9.4,0.0,-1.3,4.8,-21.72,1543115.1,0
2012_BE,104.3,51332.6,559.8,5.4,51.8,7.7,0.0,733416.9,3.4,13.2,0.2,200554.0,7.48,-5.1,-4.3,-2.3,-21.48,189.3,66.9,99.74,404292.1,19.8,-0.1,-2.1,0.3,-15.55,2169220.9,2
2012_BG,16.7,2468.0,167.8,12.2,-77.9,11.3,-0.1,102533.0,6.8,3.0,-0.7,-63898.6,-29.74,10.2,-4.0,-2.1,13.25,125.0,67.1,96.62,13700.3,28.1,3.8,13.0,-5.3,-1.01,137672.0,2
2012_CZ,44.5,118076.0,176.1,3.8,-45.9,7.0,1.5,2869270.0,3.0,2.9,-2.4,-1864093.0,-0.31,5.2,0.5,-2.8,-5.37,70.7,71.6,95.33,1805429.0,19.5,1.0,2.9,-3.6,-4.48,7147743.0,0
2012_DE,79.9,35005.0,485.7,2.7,28.5,6.1,0.9,2806950.0,2.4,1.3,6.2,787230.0,-7.13,3.3,-9.0,-3.3,-18.34,101.8,77.2,92.1,2202864.1,8.0,-1.1,-3.1,2.0,-16.63,13398237.0,0
2012_DK,44.9,150302.0,779.7,-0.2,36.1,7.5,-1.6,4244903.0,2.1,7.9,6.5,684239.0,-17.0,2.5,-7.8,-2.9,-17.43,224.0,78.6,88.3,850746.0,14.1,1.5,2.3,-4.9,-17.73,14775965.0,2
2012_EE,9.7,1227.7,172.3,0.0,-51.1,13.0,0.8,21135.3,5.5,6.8,0.4,-9170.1,-0.7,10.5,-3.6,-0.9,11.03,117.8,74.8,77.23,1745.5,20.9,1.8,-6.5,3.2,6.76,30896.6,0
2012_EL,159.6,-11186.9,322.5,-2.3,-115.9,18.4,0.1,251431.1,14.5,-5.9,-8.4,-221569.0,-36.09,-2.4,-5.0,-4.4,-7.02,131.5,67.5,120.03,305085.0,55.3,10.6,29.6,-12.1,-25.28,616701.1,4
2012_ES,85.7,-116938.0,491.9,-5.1,-89.9,22.0,1.2,1955123.0,11.0,-11.2,-2.4,-934535.0,-20.43,2.9,-5.3,-2.4,-16.87,188.0,74.3,106.97,891502.0,52.9,6.7,15.2,-16.8,-18.24,5114934.0,2
2012_FI,53.9,14767.0,430.3,6.0,11.7,8.0,0.2,296886.0,1.6,7.4,-1.0,23406.2,36.81,-1.4,-8.3,-2.6,-41.28,148.6,75.2,103.34,107708.0,19.0,0.2,-2.5,-0.4,-31.68,859641.0,2
2012_FR,90.6,88584.0,591.4,4.1,-12.8,9.4,0.5,2889072.0,4.1,4.2,-0.8,-267763.0,-6.42,1.4,-7.8,-3.2,-22.36,138.3,70.3,106.3,1892503.0,24.4,0.8,0.8,-2.0,-18.3,12353518.0,2
2012_HU,78.4,-1755701.0,317.0,5.0,-93.6,11.1,2.5,29288794.0,5.0,-6.1,0.9,-26953287.0,-5.8,-5.8,-0.8,-1.9,-24.32,101.8,63.7,89.24,22556631.0,28.2,0.8,1.8,-9.3,-21.33,91227110.0,2
2012_IE,119.9,-1027.0,2021.9,-12.7,-137.7,15.2,-1.9,489941.0,9.2,-0.6,-2.1,-241241.0,-0.67,-1.8,-12.2,-4.4,-27.89,279.6,71.1,78.63,210022.3,30.8,5.7,6.3,-14.8,-18.34,3542735.0,4
2012_IT,123.4,-13396.0,362.4,2.1,-22.2,9.2,1.2,2018718.0,5.6,-0.8,-2.2,-358220.0,-27.55,7.3,-6.2,-1.9,-25.23,125.1,63.5,118.6,1990129.7,35.3,2.2,10.0,-5.1,-25.64,5846061.0,2
2012_LT,39.8,124.8,108.9,-4.2,-53.6,15.5,2.2,20367.4,6.6,0.4,-2.4,-17878.2,13.01,-0.7,-6.7,-2.0,37.35,61.1,71.8,89.74,13264.1,26.7,3.3,-2.9,-3.2,32.29,36328.4,0
2012_LU,22.0,11408.6,18530.4,5.9,50.9,4.8,0.7,133971.4,1.6,25.9,6.1,22472.0,-5.59,15.2,-2.4,-1.6,-1.32,303.7,69.4,88.35,9699.7,18.0,0.4,1.5,2.1,-6.22,8174150.8,0
2012_LV,41.2,-454.5,182.2,-6.9,-67.2,16.9,0.9,21428.8,7.8,-2.1,-1.6,-14834.0,-13.65,5.2,-8.6,-1.5,20.46,97.9,74.4,92.19,9020.0,28.5,3.3,-4.8,-0.4,7.91,39875.6,0
2012_MT,67.7,-47.9,3092.9,8.7,19.6,6.5,4.5,10981.4,3.0,-0.7,-2.9,1404.6,30.81,6.1,-7.6,-2.0,-16.02,153.2,63.9,95.5,4855.1,13.8,0.1,-0.7,0.4,12.18,221699.1,0
2012_NL,66.2,36014.0,1344.2,2.6,26.7,5.3,-0.7,1636805.0,1.9,5.5,8.6,174288.0,-8.98,5.0,-6.0,-1.8,-13.74,250.7,79.0,105.12,432428.0,11.7,1.1,1.5,-7.9,-12.82,8777345.0,0
2012_PL,53.7,77865.0,153.0,5.3,-65.3,9.8,1.8,1196643.0,4.1,4.8,-4.8,-1064732.0,0.68,10.7,1.4,-2.2,1.51,73.4,66.5,101.1,875260.0,26.5,1.6,5.9,-6.6,1.39,2492477.0,0
2012_PT,126.2,-6528.8,546.8,-6.3,-116.5,13.6,0.0,354222.3,7.7,-3.9,-6.0,-196233.0,-13.46,-3.0,-4.0,-1.6,-17.63,210.3,73.4,96.81,212556.0,38.0,3.5,12.7,-8.8,-16.64,920876.4,4
2012_RO,36.9,1792.4,106.8,6.4,-67.6,7.0,1.7,427985.1,3.0,0.3,-5.0,-401364.0,-24.84,4.4,-2.0,-6.1,28.51,72.1,64.8,104.31,219761.5,22.6,0.8,2.6,-9.1,12.3,634292.4,4
2012_SE,38.1,91402.0,500.3,4.0,-15.7,8.1,1.4,7121403.0,1.5,2.5,5.7,-580404.0,-6.06,5.5,10.3,-0.7,-23.3,193.1,80.3,78.66,1403632.0,23.7,0.4,-1.3,0.7,-19.51,18456564.0,2
2012_SI,53.8,-1041.0,205.7,0.6,-50.1,8.1,-1.4,40512.0,4.3,-2.9,0.7,-18059.5,-11.32,-0.7,-4.5,-1.2,-23.07,112.3,70.4,113.8,19404.0,20.6,2.5,7.0,-8.4,-20.98,74212.0,2
2012_SK,52.2,2236.3,130.7,0.8,-61.4,14.1,1.0,52204.5,9.4,3.1,-2.9,-44671.1,-30.32,0.7,-3.2,0.1,-7.89,71.8,69.4,93.78,37925.7,34.0,2.9,6.4,-6.0,-10.3,95021.6,0
2012_UK,84.1,28975.0,1324.0,3.0,-28.4,7.9,0.4,3023073.0,2.7,1.7,-3.0,-482037.0,-21.4,-3.5,6.0,4.4,-19.77,178.4,76.1,89.29,1424798.0,21.2,0.8,2.1,-1.7,-20.97,22434412.0,2
2013_AT,81.3,3120.0,461.1,6.4,1.3,5.0,1.1,411587.2,1.3,1.0,1.7,4189.0,-16.28,-3.2,0.8,2.1,-19.48,127.1,75.5,95.44,263229.5,9.7,0.1,0.2,3.0,-18.43,1493546.2,0
2013_BE,105.5,32127.4,557.8,8.3,51.9,7.7,-0.2,663715.7,3.9,8.2,-0.5,203800.0,-4.51,0.9,-0.2,1.5,-15.91,169.2,67.5,100.1,413732.8,23.7,-0.1,1.3,0.4,-13.06,2188507.7,2
2013_BG,17.1,5947.0,175.3,16.0,-73.6,12.2,1.7,108339.0,7.4,7.3,0.3,-60244.7,-33.84,4.3,-0.9,0.1,15.63,132.3,68.4,96.99,13978.1,28.4,2.7,6.5,0.4,-0.16,143539.0,2
2013_CY,103.1,-2407.8,1598.0,-2.6,-138.7,11.9,0.0,61692.6,6.1,-13.3,-5.0,-25167.0,-18.91,-15.3,-0.8,1.1,-9.43,340.1,73.6,100.77,18706.4,38.9,4.8,22.3,-3.9,-15.26,289887.7,4
2013_CZ,44.9,179733.0,194.3,4.2,-41.4,6.9,2.7,3019209.0,3.0,4.4,-1.4,-1695149.0,-17.33,11.4,-3.0,-2.2,-8.19,73.7,72.9,94.56,1840412.0,18.9,0.0,0.6,-0.8,-9.79,7963007.0,0
2013_DE,77.4,57116.0,444.5,5.9,34.5,5.5,0.9,2903443.0,2.3,2.0,6.6,974739.0,-7.52,-6.2,-1.8,2.2,-13.14,102.7,77.6,94.01,2188128.0,7.8,-1.0,-2.0,2.1,-12.42,12561910.0,0
2013_DK,44.0,-58540.0,779.4,1.5,37.2,7.4,-1.3,4170603.0,1.8,-3.0,6.9,718686.0,-21.23,1.8,-2.5,1.0,-16.37,216.1,78.1,91.0,849938.0,13.0,0.3,-0.9,3.1,-17.82,15040150.0,2
2013_EE,10.2,669.4,180.2,9.1,-50.1,10.3,1.2,21935.1,3.8,3.5,0.0,-9478.7,-4.64,10.4,3.1,2.9,16.88,115.9,75.1,83.04,1923.7,18.7,-3.8,-14.2,7.5,9.68,34121.1,0
2013_EL,177.4,-8665.5,281.3,-10.0,-130.4,23.3,-0.3,235418.0,18.5,-4.8,-5.3,-235606.0,-39.2,-17.6,-4.4,-0.6,-6.4,130.3,67.5,109.06,320498.0,58.3,12.8,25.3,-9.1,-25.7,508214.0,4
2013_ES,95.5,-105696.0,446.4,-4.1,-95.2,24.1,0.8,1817321.0,13.0,-10.3,-0.6,-976711.0,-21.48,-10.5,-0.3,1.9,-6.77,177.2,74.3,96.24,979031.0,55.5,5.7,14.0,-10.0,-11.22,4578477.0,3
2013_FI,56.5,5657.0,373.8,9.1,3.9,7.9,0.7,300393.0,1.7,2.8,-2.1,7833.6,-7.54,-11.6,0.2,2.9,-36.86,147.7,75.2,101.98,114801.0,19.9,-0.3,-1.5,-1.3,-31.44,760129.0,2
2013_FR,93.4,44167.0,586.3,4.6,-16.6,9.8,0.9,2909122.0,4.4,2.1,-0.8,-350487.0,-4.78,0.5,-2.2,1.6,-18.25,137.4,70.7,103.54,1977697.0,24.9,0.5,1.6,-2.6,-14.24,12413707.0,2
2013_HU,77.1,-283608.0,297.6,6.2,-83.1,10.7,2.8,28786741.0,4.9,-0.9,2.1,-25145514.6,-9.71,-1.3,-3.8,-1.4,-25.32,95.2,64.7,85.38,23334879.0,26.6,-0.6,0.2,-4.3,-22.8,90020485.0,2
2013_IE,119.7,-2542.0,2007.4,-3.8,-133.3,14.9,0.2,481665.0,8.0,-1.4,-1.2,-239757.0,4.86,1.9,-3.8,1.6,-21.67,267.7,71.8,78.24,215337.8,26.7,1.1,-1.4,-0.5,-10.59,3611739.0,4
2013_IT,129.0,-47669.0,354.4,2.9,-22.7,10.4,1.4,1951908.0,6.9,-3.0,-0.8,-363506.0,-20.99,-2.7,0.1,1.9,-19.96,121.6,63.4,109.65,2070253.8,40.0,2.9,12.1,-7.5,-20.2,5686570.0,2
2013_LT,38.8,-146.7,102.5,6.2,-47.1,13.5,2.2,19693.3,5.1,-0.4,-1.7,-16448.5,15.77,-1.4,-0.6,0.9,20.16,56.3,72.4,89.93,13550.6,21.9,-2.3,-13.8,0.2,19.28,35824.4,0
2013_LU,23.7,12935.4,19395.8,7.6,53.9,5.3,1.7,145701.5,1.8,27.8,5.7,25081.0,8.04,10.3,0.8,1.6,-1.64,313.3,69.9,91.26,11009.6,16.9,0.5,1.1,3.3,7.4,9018954.4,0
2013_LV,39.0,194.2,184.1,8.1,-66.4,14.4,1.0,21103.0,5.7,0.9,-3.2,-15156.0,-21.1,5.2,-1.7,-1.0,21.49,92.6,74.0,98.21,8892.7,23.2,-3.1,-13.0,6.5,5.87,41956.1,0
2013_MT,68.4,209.1,2946.2,9.8,26.9,6.2,5.9,10994.9,2.8,2.7,-0.8,2060.3,1.63,1.6,-1.2,1.5,-12.81,143.8,66.3,94.14,5226.6,12.7,-0.3,-0.5,-1.4,-0.64,225138.5,2
2013_NL,67.7,54766.0,1322.7,4.8,30.7,6.0,1.2,1683674.0,2.5,8.3,9.5,202572.0,-11.19,-0.5,0.5,2.7,-11.39,254.9,79.4,96.81,446944.0,13.2,1.3,2.1,-7.9,-11.36,8735769.0,2
2013_PL,55.7,54108.0,161.6,3.1,-68.9,10.0,1.7,1249382.0,4.4,3.3,-3.4,-1142247.0,-4.64,7.4,-4.3,0.2,0.81,75.4,67.0,96.29,922755.0,27.3,1.4,3.6,-4.8,-0.27,2676757.0,0
2013_PT,129.0,-2644.1,511.9,-3.4,-116.3,15.0,-0.7,344546.1,9.3,-1.6,-2.1,-197970.0,-7.36,-5.4,-0.6,0.3,-7.99,202.4,73.0,94.22,219714.8,38.1,3.6,9.9,-2.7,-7.47,871566.7,4
2013_RO,37.6,-9162.3,100.6,-5.6,-62.8,7.0,0.0,424457.4,3.2,-1.4,-3.6,-398917.0,-10.73,0.8,0.5,4.0,23.67,66.8,64.9,101.39,238882.3,23.7,0.8,1.6,-2.8,13.74,639179.4,4
2013_SE,40.7,171241.0,533.7,8.6,-16.0,7.9,2.0,7372698.0,1.4,4.5,5.5,-605549.0,1.84,9.1,5.1,1.7,-23.28,195.4,81.1,82.38,1535220.0,23.6,-0.2,-1.2,4.7,-17.2,20141197.0,2
2013_SI,70.4,-1454.0,183.7,0.5,-47.2,9.1,-1.0,38860.0,5.2,-4.0,2.2,-17087.1,-22.21,-10.3,-0.6,1.4,-17.38,107.2,70.5,105.58,25504.9,21.6,2.0,6.9,-7.2,-18.37,66581.0,3
2013_SK,54.7,3807.9,130.3,2.2,-62.3,14.0,1.2,56999.6,10.0,5.1,-0.7,-46212.1,-20.37,1.7,2.1,1.0,-1.58,76.9,69.9,93.4,40600.0,33.7,0.8,-0.2,-0.4,-4.1,96677.4,0
2013_UK,85.2,122455.0,1175.9,3.3,-18.0,7.8,1.0,3043409.0,2.7,7.0,-3.6,-317483.0,-8.98,-7.7,3.4,-1.5,-14.93,172.8,76.4,89.52,1499789.0,20.7,0.2,0.8,0.3,-11.95,20712536.0,2
2014_AT,84.0,2938.7,444.7,7.9,3.4,5.3,0.8,415800.6,1.5,0.9,2.0,11285.0,-12.93,-0.8,1.9,1.7,-16.49,124.8,75.4,96.78,280001.0,10.3,0.3,1.4,1.4,-15.74,1481380.6,0
2014_BE,107.6,-8216.5,565.0,5.6,45.1,8.2,1.0,667416.0,4.3,-2.1,-0.4,180562.0,-6.93,3.3,-0.6,0.2,-15.49,166.8,67.7,99.04,430373.3,23.2,0.8,4.5,-1.1,-13.4,2260373.4,2
2014_BG,27.1,-909.0,181.0,17.8,-72.3,12.2,3.1,103395.0,6.9,-1.1,0.6,-60544.8,-25.54,5.6,-2.8,-0.8,23.2,123.4,69.0,98.47,22723.6,23.8,0.6,-1.2,1.5,5.6,151616.0,2
2014_CY,108.0,-57.7,1586.2,-8.0,-147.0,14.6,0.8,62054.8,7.7,-0.3,-5.1,-25885.0,-20.27,-3.6,-1.7,-0.8,-27.96,352.4,74.3,99.77,19013.8,36.0,6.1,13.6,-1.0,-24.14,279329.4,4
2014_CZ,42.2,71558.0,194.1,4.0,-36.6,6.7,3.0,3085841.0,2.7,1.7,-0.6,-1577079.0,-16.2,5.2,-10.0,-5.2,-4.55,71.5,73.5,96.3,1819098.0,15.9,0.0,-2.2,1.8,-6.23,8374722.0,0
2014_DE,74.5,2356.0,447.1,6.7,40.6,5.2,0.4,2898735.0,2.2,0.1,7.1,1193744.0,-7.42,4.6,-0.4,0.8,-9.44,98.6,77.7,96.08,2189568.6,7.7,-0.6,-0.8,2.2,-8.9,13137296.0,2
2014_DK,44.3,-5108.0,814.7,2.3,43.3,7.0,-1.2,4239375.0,1.7,-0.3,7.7,858461.0,-11.91,7.3,-1.2,0.8,-17.27,214.0,78.1,93.87,877067.0,12.6,-0.1,-1.6,3.2,-15.88,16140443.0,1
2014_EE,10.5,1129.8,192.5,14.1,-47.0,8.7,0.5,23287.2,3.3,5.6,-0.2,-9425.5,6.53,13.2,4.8,2.8,30.22,116.1,75.2,93.49,2108.4,15.0,-3.8,-7.4,12.6,20.51,38608.6,0
2014_EL,178.9,-4918.6,261.2,-10.4,-131.9,26.2,0.1,230866.9,19.5,-2.8,-2.5,-235734.0,-25.05,-8.2,-5.6,-0.6,-5.46,129.2,67.4,103.49,319629.0,52.4,10.7,7.7,-5.1,-18.49,466659.9,4
2014_ES,100.4,-70395.0,439.2,-3.4,-98.0,25.1,0.3,1723487.0,12.9,-6.8,0.8,-1016562.0,-18.62,-0.4,-1.0,-0.5,-8.69,166.1,74.2,96.35,1041624.0,53.2,4.0,7.0,0.1,-12.28,4558609.0,2
2014_FI,60.2,3587.0,404.1,7.8,-3.2,8.2,0.5,307866.0,1.9,1.7,-2.1,-6534.5,-9.6,9.2,2.7,2.5,-30.86,149.8,75.4,100.3,123696.0,20.5,0.2,0.4,-1.6,-26.38,830335.0,2
2014_FR,94.9,69792.0,609.5,4.4,-15.6,10.1,1.3,3041653.0,4.5,3.2,-0.8,-335699.0,-2.53,5.6,-1.3,0.3,-19.03,141.5,71.0,101.8,2039848.1,24.2,0.5,1.6,-1.7,-14.52,13103562.0,2
2014_HR,84.0,282.4,197.3,-6.5,-85.3,16.8,2.0,391307.3,10.1,0.1,0.9,-282784.0,-25.49,0.7,-0.8,0.4,-10.54,118.0,66.1,102.47,278369.7,44.9,1.7,8.3,-1.1,-20.26,654054.0,3
2014_HU,76.6,-28081.0,299.5,5.7,-80.3,9.6,4.6,29768769.0,3.7,-0.1,2.3,-26159066.2,-7.88,8.4,-6.8,-3.6,-18.8,91.4,67.0,88.25,24975014.0,20.4,-1.5,-5.6,3.4,-16.68,97601558.0,2
2014_IE,104.1,4958.0,2210.9,-3.7,-164.3,13.7,0.6,543540.0,6.6,2.5,-0.3,-320867.0,6.54,19.5,-3.6,-0.8,-26.4,278.3,71.8,90.08,203355.4,23.4,-2.2,-6.2,15.1,-14.63,4317763.0,2
2014_IT,131.8,-7693.0,352.7,2.3,-21.0,11.8,1.8,1930418.0,7.7,-0.5,0.9,-341018.0,-19.28,0.6,0.2,0.3,-14.47,119.0,63.9,104.21,2137322.0,42.7,3.4,13.5,-5.0,-15.28,5720573.0,3
2014_LT,40.5,96.7,113.8,8.7,-45.1,12.0,2.3,19717.4,4.8,0.3,0.9,-16492.1,30.41,16.2,1.7,3.0,34.37,53.9,73.7,95.61,14827.1,19.3,-3.2,-13.3,6.3,33.65,41613.6,0
2014_LU,22.7,14776.4,24611.0,7.1,48.8,5.7,2.9,177697.6,1.6,29.7,5.4,24296.0,22.88,36.0,0.5,0.5,1.58,356.6,70.8,94.79,11330.5,22.3,0.2,5.9,3.9,14.9,12262295.6,1
2014_LV,40.9,-2795.1,196.1,16.3,-66.1,12.6,1.8,22732.3,4.6,-11.8,-2.7,-15607.0,-14.84,10.4,0.4,2.9,27.8,96.2,74.6,102.46,9668.5,19.6,-4.2,-11.4,4.3,10.98,46314.6,0
2014_MT,63.7,327.3,2828.9,3.1,43.0,6.0,6.0,11491.1,2.7,3.8,1.8,3659.9,-7.1,6.4,0.1,0.6,-21.02,135.1,67.8,96.14,5390.0,11.7,-0.3,-1.6,2.1,-12.47,239535.2,1
2014_NL,67.9,24675.0,1363.8,3.7,48.0,6.8,0.9,1800218.0,2.9,3.7,9.5,322619.0,-10.24,4.8,0.7,-0.1,-11.65,268.1,79.0,96.72,455706.0,12.7,1.3,2.7,-0.1,-11.34,9158485.0,2
2014_PL,50.4,78888.0,156.7,2.9,-69.1,9.8,2.2,1343117.0,3.8,4.6,-2.4,-1188192.0,6.91,0.7,-1.0,1.0,4.01,78.1,67.9,97.43,867345.0,23.9,0.2,-1.9,1.2,4.69,2696016.0,0
2014_PT,130.6,-9784.4,465.7,-2.7,-118.6,15.4,-0.4,329643.3,8.4,-5.7,0.0,-205329.0,-5.23,-7.5,-1.8,-0.5,-5.85,190.5,73.2,97.92,226040.5,34.7,2.2,4.5,3.9,-6.13,805980.9,4
2014_RO,39.2,-15786.5,96.9,5.4,-57.3,6.9,1.6,414862.4,2.8,-2.4,-2.2,-383117.0,16.55,1.3,-1.0,1.4,21.61,62.1,65.7,98.2,262195.3,24.0,-0.1,0.1,-3.1,20.14,647769.3,4
2014_SE,45.5,192109.0,577.5,6.9,-2.3,8.0,1.6,7674548.0,1.4,4.9,5.1,-90607.0,4.96,13.0,-3.7,-4.6,-14.47,194.7,81.5,89.2,1791624.0,22.9,-0.1,0.1,8.3,-9.62,22758209.0,2
2014_SI,80.4,-1767.0,176.7,0.0,-45.8,9.6,0.6,36614.0,5.3,-4.7,4.1,-17219.0,-17.41,-0.2,1.2,1.1,-11.8,97.4,70.9,98.61,30219.9,20.2,1.7,4.5,-6.6,-12.91,66457.0,3
2014_SK,53.5,4356.4,138.1,1.8,-63.6,13.8,1.6,62759.3,9.3,5.7,1.3,-48385.8,-4.87,8.7,1.2,0.2,2.13,82.5,70.3,94.82,40725.0,29.7,0.1,-4.0,1.5,1.89,105042.2,0
2014_UK,87.0,124388.0,1177.4,3.4,-22.1,7.2,1.2,3062163.0,2.2,6.7,-4.6,-407147.0,-5.95,4.8,10.1,7.1,-10.85,166.0,76.7,94.85,1604788.0,17.0,-0.5,-4.3,6.0,-9.62,21714700.0,2
2015_AT,84.8,7430.5,429.8,6.2,2.2,5.6,0.4,427704.1,1.7,2.2,2.0,7610.0,-12.23,-0.1,1.4,-2.3,-9.19,124.2,75.5,100.0,291910.7,10.6,0.5,1.2,3.3,-9.15,1479500.8,0
2015_BE,106.5,50917.8,564.8,1.3,45.9,8.5,0.7,743626.1,4.4,12.4,-0.7,188511.0,-9.97,2.7,-1.6,-3.3,-14.01,180.9,67.6,100.0,437540.9,22.1,1.0,2.3,1.0,-11.88,2321308.5,2
2015_BG,26.2,-290.0,181.8,14.9,-63.0,11.2,2.2,97835.0,5.6,-0.3,0.8,-55822.8,-9.01,6.2,-4.2,-3.5,18.94,110.5,69.3,100.0,23217.0,21.6,-1.2,-6.5,1.6,11.8,161054.0,3
2015_CY,108.0,732.2,1748.0,-10.9,-145.0,15.7,0.4,62724.3,6.8,4.1,-3.6,-25734.0,-19.96,11.1,-6.1,-6.5,-17.52,353.5,73.9,100.0,19164.0,32.8,3.2,5.1,0.2,-12.24,310203.8,4
2015_CZ,40.0,15776.0,196.9,0.1,-32.9,6.1,2.4,3131719.0,2.4,0.3,0.0,-1512936.0,-18.69,8.1,-8.0,-0.7,2.45,68.1,74.0,100.0,1836255.0,12.6,-0.6,-6.9,3.8,-2.17,9051263.0,0
2015_DE,70.8,98872.0,443.5,5.4,46.4,4.9,0.4,2995297.0,2.0,3.2,7.7,1413830.0,-4.95,2.9,-2.1,-4.9,-1.16,98.2,77.6,100.0,2159746.0,7.2,-0.4,-0.8,4.1,-2.63,13520236.0,2
2015_DK,39.9,58704.0,788.6,2.2,34.3,6.6,-0.1,4305784.0,1.7,2.9,8.3,699441.0,-18.33,-1.0,-1.6,-3.4,-5.98,211.4,78.5,100.0,809664.0,10.8,-0.4,-3.3,6.5,-8.5,15986470.0,0
2015_EE,9.9,561.3,203.1,13.2,-40.2,7.4,1.9,23434.9,2.4,2.7,1.1,-8300.3,-3.08,8.6,5.9,0.1,9.97,113.5,76.7,100.0,2034.9,13.1,-3.1,-7.8,7.0,7.4,41945.2,0
2015_EL,175.9,-5009.8,305.3,-9.7,-135.4,26.3,0.3,224664.8,18.2,-2.8,-1.5,-240013.0,-27.46,15.3,-5.6,-4.5,-9.21,126.7,67.8,100.0,311725.0,49.8,3.7,-5.5,-3.4,-15.39,538248.3,4
2015_ES,99.3,-17649.0,414.8,-0.3,-89.5,24.2,0.0,1677015.0,11.4,-1.6,1.3,-967287.0,-18.47,-1.6,-3.1,-4.5,0.98,155.1,74.3,100.0,1073934.0,48.3,0.4,-4.6,3.8,-4.04,4485050.0,2
2015_FI,63.6,14518.0,401.7,3.4,1.6,8.8,0.6,320439.0,2.3,6.9,-1.6,3252.0,-3.67,1.4,2.2,-3.1,-27.62,152.6,75.8,100.0,133206.0,22.4,0.7,3.4,-0.3,-21.57,841962.0,2
2015_FR,95.6,100628.0,609.0,2.3,-12.9,10.3,1.0,3139180.0,4.6,4.6,-0.6,-284191.0,-4.31,2.2,-2.8,-4.7,-5.46,142.8,71.3,100.0,2101221.2,24.7,0.5,0.3,-1.8,-3.68,13388907.0,3
2015_HR,83.7,-4605.9,196.3,-6.3,-76.4,16.9,3.0,383697.9,10.2,-1.4,2.4,-259360.0,-17.52,1.9,0.2,-1.4,-2.53,113.0,66.9,100.0,284206.2,42.3,0.0,0.1,-2.4,-6.14,666799.5,3
2015_HU,76.6,-874240.0,285.1,-0.6,-67.5,8.2,4.9,29068519.0,3.1,-2.5,2.7,-23222645.2,-9.65,0.4,-7.1,-2.3,-8.67,84.6,68.6,100.0,26336529.0,17.3,-1.9,-10.9,13.3,-9.23,98002963.0,2
2015_IE,76.8,-6139.0,1803.0,-18.6,-198.7,11.9,1.0,803116.0,5.3,-2.3,2.3,-521499.0,13.12,9.6,-6.4,-7.1,49.34,306.0,72.1,100.0,201624.1,20.2,-3.9,-10.6,11.0,37.83,4732176.0,2
2015_IT,131.6,-23245.0,350.7,1.6,-19.5,12.2,0.5,1902225.0,6.9,-1.4,1.5,-322858.0,-24.22,1.3,-2.4,-4.4,-4.9,115.1,64.0,100.0,2173402.7,40.3,1.3,5.0,-4.0,-9.3,5795409.0,3
2015_LT,42.6,888.0,119.0,11.8,-43.4,10.5,2.3,20510.2,3.9,2.4,0.6,-16254.2,14.89,7.0,4.3,0.4,15.32,54.8,74.1,100.0,15939.5,16.3,-2.7,-10.4,4.6,14.89,44530.1,0
2015_LU,22.2,14230.9,27892.3,2.6,31.1,6.1,1.5,195689.0,1.9,27.6,5.2,16039.0,23.16,17.3,-0.6,-2.6,-3.19,379.4,70.9,100.0,11446.9,16.6,0.3,-1.4,5.5,28.72,14386535.5,0
2015_LV,36.8,180.0,213.6,17.5,-63.5,10.9,1.3,21626.0,4.5,0.7,-1.6,-15453.0,-6.56,12.2,2.6,0.6,19.56,88.9,75.7,100.0,8953.3,16.3,-3.3,-12.2,-2.4,12.48,51959.0,0
2015_MT,58.6,261.8,2548.4,-1.0,38.1,5.7,4.9,11667.6,2.4,2.7,2.8,3669.7,4.03,1.3,-2.7,-4.7,-18.03,121.0,68.8,100.0,5585.5,11.6,-0.6,-2.2,4.0,8.39,242725.2,0
2015_NL,64.6,5907.0,1377.4,-0.4,50.1,7.2,0.6,1823338.0,3.0,0.9,8.2,345741.0,5.66,3.8,-0.8,-3.3,-10.62,264.2,79.6,100.0,446058.0,11.3,1.1,-0.4,3.4,-6.75,9504297.0,2
2015_PL,51.3,62068.0,153.4,0.2,-62.1,8.9,1.6,1420407.0,3.0,3.4,-1.3,-1117822.0,-0.56,2.4,-1.3,-2.5,12.23,78.9,68.1,100.0,923206.0,20.8,-1.1,-5.7,2.6,9.17,2761300.0,0
2015_PT,128.8,-3440.9,440.9,0.5,-113.2,14.4,0.0,322513.7,7.2,-1.9,0.6,-203520.0,-4.46,-1.6,-3.0,-2.9,2.01,179.4,73.4,100.0,231512.6,32.0,-0.5,-6.0,2.1,1.65,792830.4,3
2015_RO,37.8,1303.7,94.6,0.6,-54.6,6.9,1.3,421374.6,3.0,0.2,-1.0,-389169.0,39.03,4.1,2.8,-2.5,15.56,59.1,66.1,100.0,269151.3,21.7,0.0,-0.9,1.8,20.48,674048.7,2
2015_SE,44.2,312544.0,554.8,2.5,-4.0,7.8,1.4,7913295.0,1.5,7.4,4.7,-167082.0,5.16,2.4,-8.2,-5.4,-15.74,188.3,81.7,100.0,1856324.0,20.4,0.0,-3.3,12.1,-9.33,23308100.0,2
2015_SI,82.6,-1939.0,164.7,-0.4,-39.6,9.6,1.4,33711.0,4.7,-5.0,4.9,-15399.2,-16.57,-3.7,0.4,-2.0,-0.68,86.7,71.8,100.0,32087.4,16.3,0.4,-4.3,1.4,-4.36,64008.0,2
2015_SK,52.2,6481.1,147.1,2.1,-64.4,13.0,1.5,65934.6,7.6,8.2,0.4,-50984.0,-0.92,10.8,-1.1,-2.2,7.02,83.3,70.9,100.0,41295.0,26.5,-1.8,-7.5,5.5,4.16,116429.4,0
2015_UK,87.9,62698.0,1047.6,2.4,-20.1,6.3,0.8,3123700.0,1.6,3.3,-5.0,-381025.0,-0.05,-8.5,10.8,5.0,-2.36,164.8,76.9,100.0,1665979.0,14.6,-1.1,-6.6,5.4,2.0,19860412.0,2
2016_AT,83.0,12231.5,404.3,5.3,3.7,5.8,0.7,442226.5,1.9,3.4,2.2,13033.0,-8.37,-2.6,1.0,1.7,-3.31,124.1,76.2,107.03,295845.2,11.2,0.6,1.5,7.0,-3.26,1440426.2,1
2016_BE,106.1,97553.5,559.6,-0.4,57.0,8.3,0.1,844745.8,4.0,23.0,-0.8,242154.0,-4.57,2.4,-0.3,2.9,-3.26,198.9,67.6,100.92,450390.4,20.1,0.1,-3.6,0.9,-2.34,2376566.8,1
2016_BG,29.6,3895.0,190.2,9.1,-49.2,9.4,0.3,98673.0,4.5,4.1,1.3,-46281.6,1.38,11.2,-4.7,-0.4,9.82,104.8,68.7,107.13,27862.0,17.2,-2.9,-11.2,7.1,8.24,179022.0,3
2016_CY,105.5,1801.1,1708.7,-6.9,-123.0,14.7,-0.2,62459.6,5.8,9.7,-3.6,-22746.0,-11.66,1.8,-7.4,-0.2,-22.22,337.8,73.4,101.69,19509.2,29.1,-0.3,-9.8,1.7,-2.05,315935.4,3
2016_CZ,36.8,214994.0,220.7,2.7,-26.9,5.1,2.1,3284538.0,1.7,4.5,0.7,-1283097.0,-14.15,16.3,-3.6,2.5,7.91,68.9,75.0,106.67,1754883.0,10.5,-1.3,-8.4,6.7,2.5,10524787.0,0
2016_DE,67.9,115871.0,449.6,4.7,50.7,4.6,0.3,3111864.0,1.7,3.7,8.3,1602511.0,-0.01,5.1,-2.6,1.6,4.87,98.5,77.9,105.26,2143904.1,7.1,-0.6,-0.7,5.3,2.63,14204845.0,2
2016_DK,37.9,27588.0,815.8,2.1,54.3,6.3,1.9,4367574.0,1.4,1.3,8.4,1141467.0,-17.85,5.4,-1.7,1.0,0.77,208.0,80.0,104.7,783029.0,12.0,-0.4,-1.0,4.7,-2.85,16855094.0,0
2016_EE,9.2,1307.6,206.8,12.0,-38.9,6.8,2.4,24330.7,2.1,6.0,1.5,-8430.4,-3.9,6.9,4.4,1.5,-1.43,112.2,77.5,103.82,1986.8,13.4,-1.7,-5.3,3.8,0.0,44834.4,1
2016_EL,178.5,-3687.1,257.7,-3.3,-137.8,25.0,0.7,218799.4,17.0,-2.1,-1.4,-243271.0,-26.97,-16.6,-4.0,1.1,-6.45,124.0,68.2,98.35,315011.0,47.3,-1.5,-11.0,-1.7,-11.12,448993.5,4
2016_ES,99.0,-12485.0,405.0,-0.5,-85.3,22.1,-0.1,1646144.0,9.5,-1.1,1.5,-954546.0,-14.49,1.0,-4.3,0.7,7.76,147.1,74.2,104.62,1107220.0,44.4,-3.5,-11.1,4.6,2.69,4531008.0,2
2016_FR,98.2,155156.0,627.8,1.3,-14.9,10.3,0.7,3267751.0,4.6,7.0,-0.7,-332185.0,-5.88,4.5,-3.1,1.3,1.06,146.6,71.4,101.11,2188348.6,24.6,0.2,-0.3,1.1,1.28,13990973.0,3
2016_HR,80.2,-235.9,196.1,-5.1,-69.9,15.6,1.9,369797.5,6.6,-0.1,3.0,-245661.0,-8.18,3.3,0.1,1.1,9.03,105.3,65.6,102.12,281741.9,31.8,-4.4,-18.1,2.1,7.8,688894.7,3
2016_HU,75.9,-1078757.0,329.7,3.8,-58.5,6.5,5.4,27628614.0,2.4,-3.0,3.5,-20736878.9,-3.17,19.3,-5.1,0.8,1.09,77.9,70.1,113.61,26912197.0,12.9,-2.5,-13.7,13.6,-0.24,116953002.0,1
2016_IE,73.4,-42697.0,1758.7,-18.8,-170.7,10.1,0.9,774043.0,4.2,-15.6,0.4,-466388.0,23.56,1.5,-7.0,0.9,74.05,283.3,72.7,106.61,200677.8,16.8,-3.8,-9.9,6.6,58.7,4805403.0,2
2016_IT,131.4,-858.0,356.3,1.6,-10.2,12.1,1.5,1888670.0,6.7,-0.1,2.0,-172705.0,-19.76,3.3,-3.3,0.8,2.12,111.8,64.9,100.1,2219581.2,37.8,-0.2,-2.2,0.1,-3.15,5988952.0,3
2016_LT,39.9,1716.0,133.7,15.3,-42.7,9.2,3.1,21791.7,3.0,4.4,0.0,-16606.0,19.12,16.6,5.3,1.9,2.29,56.1,75.5,104.46,15515.4,14.5,-2.1,-7.4,4.5,5.14,51937.4,0
2016_LU,20.7,2748.1,28200.6,3.6,46.9,6.3,0.1,188365.7,2.2,5.2,5.1,24997.0,18.79,4.5,-1.4,0.7,-5.04,353.4,70.0,105.59,11024.4,19.1,0.4,2.2,5.6,31.51,15031755.5,0
2016_LV,40.3,63.0,219.6,16.9,-58.4,10.1,2.3,22022.0,4.0,0.3,-0.2,-14634.0,-6.86,5.8,4.9,1.2,13.67,88.0,76.3,107.31,10091.6,17.3,-1.7,-5.9,7.3,9.36,54982.0,0
2016_MT,56.3,1151.0,2475.1,-0.9,36.2,5.3,4.3,12569.1,1.9,11.1,3.9,3739.1,12.18,3.8,-2.8,1.4,-17.91,121.5,70.6,104.82,5734.9,10.7,-0.9,-2.0,4.8,21.65,251967.4,0
2016_NL,61.9,39498.0,1422.0,-0.6,62.7,6.8,0.3,1856383.0,2.5,5.6,7.6,444314.0,1.42,6.0,-2.2,1.2,-4.34,262.1,79.7,104.39,438418.0,10.8,0.0,-2.4,4.4,-2.89,10072382.0,2
2016_PL,54.2,95622.0,161.8,2.5,-61.6,7.6,1.8,1517931.0,2.2,5.1,-1.1,-1145969.0,7.37,9.0,-5.0,-3.5,21.42,81.6,68.8,102.27,1009216.0,17.7,-2.2,-9.6,2.3,17.81,3011186.0,0
2016_PT,129.2,-3878.3,423.8,0.1,-105.5,12.6,0.7,315659.9,6.2,-2.1,0.3,-196761.0,-2.8,-0.3,-1.8,1.6,5.21,169.3,73.7,106.06,240962.6,28.2,-3.1,-9.9,6.1,5.54,790304.6,3
2016_RO,37.3,4430.2,94.2,9.5,-49.0,6.5,0.7,425065.1,3.0,0.6,-1.3,-375018.0,45.47,6.9,-2.5,-1.3,17.89,55.6,65.6,105.21,285553.1,20.6,-0.2,-3.1,5.2,23.29,720457.0,1
2016_SE,42.4,328107.0,581.0,2.5,0.1,7.4,1.0,8252621.0,1.3,7.5,4.2,4278.0,-1.48,9.3,-9.1,0.8,-11.95,188.2,82.1,107.55,1857761.0,18.9,-0.1,-4.7,7.6,-7.49,25478532.0,2
2016_SI,78.7,-318.0,163.7,0.9,-36.8,8.9,1.1,32513.0,4.3,-0.8,5.3,-14858.0,-7.19,3.2,-0.5,0.5,7.63,80.6,71.6,103.77,31753.4,15.2,-0.9,-6.4,3.8,3.99,66072.0,2
2016_SK,51.8,7727.6,155.5,3.1,-66.6,11.5,2.0,73493.9,5.8,9.5,-0.9,-54112.4,12.1,8.5,-1.5,0.5,11.33,90.5,71.9,107.02,42053.2,22.2,-4.2,-11.5,7.0,8.07,126278.2,0
2016_UK,87.9,226509.0,1126.8,3.0,-2.4,5.4,0.9,3347685.0,1.3,11.5,-5.0,-47452.0,-2.6,11.7,0.2,-10.9,-5.47,170.0,77.3,105.4,1731392.0,13.0,-1.4,-7.7,5.4,1.03,22192968.0,1
2017_AT,78.3,15768.4,396.5,3.7,3.7,5.7,1.0,453222.8,1.8,4.3,2.1,13792.0,-2.63,1.8,0.3,0.9,2.35,122.5,76.4,110.82,289665.8,9.8,0.3,-0.5,3.5,2.34,1466702.4,0
2017_BE,103.4,-6570.4,544.9,1.1,52.4,7.8,0.3,821209.6,3.5,-1.5,-0.3,230059.0,-4.89,0.7,0.9,1.5,5.59,187.0,68.0,102.67,453993.6,19.3,-0.8,-3.9,1.7,3.87,2392255.3,0
2017_BG,25.6,6253.0,179.1,13.6,-41.8,7.7,2.3,101100.0,3.4,6.2,3.0,-42245.7,-0.46,1.1,-3.3,0.6,25.49,100.1,71.3,113.8,25907.8,12.9,-3.5,-10.9,6.2,19.35,180951.0,3
2017_CY,96.1,1693.7,1577.5,-2.7,-121.5,13.0,-0.4,61908.5,4.5,8.7,-5.0,-23785.0,1.59,-2.3,-6.6,0.1,-21.16,316.3,73.9,103.04,18814.1,24.7,-3.2,-11.3,1.3,6.94,308731.6,3
2017_CZ,34.7,208588.0,256.3,5.9,-26.5,4.0,2.4,3403194.0,1.0,4.1,1.0,-1337009.0,-6.02,22.9,5.4,3.6,12.7,67.4,75.9,116.33,1749532.0,7.9,-1.7,-8.0,9.1,8.17,12937645.0,0
2017_DE,63.9,160691.0,450.8,5.1,54.0,4.2,0.5,3279545.0,1.6,4.9,8.5,1771400.0,2.9,4.0,-2.5,0.9,8.6,100.1,78.2,108.31,2092781.2,6.8,-0.6,-0.9,2.9,6.5,14774825.0,2
2017_DK,36.1,-7822.0,815.0,2.4,55.6,6.0,0.7,4371464.0,1.3,-0.4,8.0,1209946.0,-16.27,3.9,-2.1,0.3,6.23,200.7,78.8,108.16,775060.0,11.0,-0.4,-1.6,3.3,0.5,17518275.0,0
2017_EE,8.7,842.9,208.2,12.4,-31.4,6.3,3.6,25123.3,1.9,3.6,2.3,-7416.9,-3.99,9.7,2.9,1.3,2.47,106.4,78.8,105.65,2063.7,12.1,-1.4,-2.9,1.8,2.58,49167.9,0
2017_EL,176.1,-1400.4,220.0,-1.0,-140.5,23.3,0.9,209714.9,15.6,-0.8,-1.4,-253231.0,-9.49,-12.9,-2.8,0.6,-5.37,116.4,68.3,96.77,317414.0,43.6,-3.9,-8.8,-1.6,-1.29,391003.5,4
2017_ES,98.1,4293.0,404.3,0.0,-83.8,19.6,-0.3,1624278.0,7.7,0.4,1.8,-977698.0,-4.5,4.1,-2.5,1.3,13.59,139.3,73.9,109.35,1144425.0,38.6,-5.2,-14.6,4.5,9.79,4715768.0,2
2017_FI,61.3,16360.0,375.6,-3.1,2.4,8.9,1.3,327005.0,2.1,7.3,-0.7,5328.0,2.72,-3.9,-2.6,-0.6,-8.4,146.1,76.7,100.21,137278.0,20.1,0.2,-0.4,0.5,-4.3,840739.0,1
2017_FR,98.5,160200.0,636.7,1.3,-20.1,10.0,0.5,3396939.0,4.2,7.0,-0.6,-461480.0,-4.76,4.3,-2.9,0.5,3.04,148.2,71.5,102.92,2257764.9,22.3,-0.3,-1.9,1.8,2.69,14591497.0,3
2017_HR,77.5,4231.9,195.8,-4.3,-62.4,13.5,0.3,359675.8,4.6,1.2,3.6,-228267.0,2.9,3.9,0.0,0.3,23.73,98.4,66.4,104.96,283317.7,27.2,-5.5,-17.7,2.8,19.95,716023.7,3
2017_HU,73.3,342053.0,280.6,6.7,-52.9,5.4,4.2,27398974.0,1.7,0.9,4.0,-20305364.7,9.61,-8.0,0.1,1.7,12.11,71.4,71.2,117.31,28095477.0,10.7,-2.0,-9.7,3.3,11.27,107613150.0,0
2017_IE,68.4,-22106.0,1704.3,-17.2,-149.3,8.4,0.9,716596.0,3.0,-7.5,2.9,-439224.0,45.85,4.3,-6.2,0.1,73.45,243.6,72.7,116.73,201289.9,14.4,-3.6,-9.0,9.5,68.6,5012561.0,2
2017_IT,131.2,36386.0,363.7,1.1,-6.3,11.6,1.5,1905307.0,6.5,2.1,2.3,-109217.0,-13.31,4.3,-3.1,0.5,6.65,110.5,65.4,97.83,2263479.2,34.7,-1.2,-8.0,-2.3,1.98,6244714.0,3
2017_LT,39.4,1558.3,140.4,16.0,-35.9,8.0,2.2,23653.8,2.7,3.7,-0.7,-15127.3,29.96,14.0,2.3,0.0,5.08,56.1,75.9,110.07,16614.1,13.3,-2.1,-6.0,5.4,9.73,59227.6,0
2017_LU,23.0,-8568.9,26714.3,7.1,47.0,6.1,-0.6,178534.6,2.1,-15.5,5.0,26015.0,12.36,-1.7,-0.9,1.0,-15.65,322.9,70.2,109.76,12697.1,15.5,0.5,-6.8,3.9,19.9,14772832.9,0
2017_LV,40.0,90.0,215.7,14.7,-56.3,9.4,2.4,22572.0,3.3,0.3,0.6,-15210.0,-2.19,6.1,1.7,-0.2,9.65,83.5,77.0,113.25,10806.8,17.0,-1.3,-2.6,5.5,7.77,58313.0,0
2017_MT,50.9,319.7,2368.7,1.2,66.2,4.7,4.4,13391.8,1.6,2.8,5.4,7480.0,19.02,4.7,-2.3,1.1,-14.15,118.6,72.2,109.17,5670.6,10.6,-1.1,-1.1,4.1,24.77,263863.1,0
2017_NL,57.0,22422.0,1394.1,-0.2,59.8,5.9,0.7,1858220.0,1.9,3.0,8.3,440987.0,7.95,2.0,-1.6,0.5,-0.47,252.1,79.7,110.61,419778.0,8.9,-1.0,-3.8,6.0,1.41,10274916.0,2
2017_PL,50.6,55389.0,160.9,4.5,-61.0,6.2,1.7,1519181.0,1.5,2.8,-0.3,-1213112.0,20.35,6.3,-3.4,2.7,31.2,76.4,69.6,104.01,1005688.0,14.8,-2.3,-9.1,1.7,28.44,3199497.0,0
2017_PT,124.8,2545.9,413.3,3.5,-104.9,10.9,1.5,315680.0,4.5,1.3,0.4,-204069.0,11.81,1.8,-0.7,0.6,11.73,162.2,74.7,114.39,242804.5,23.8,-3.9,-10.9,7.9,14.62,804285.7,3
2017_RO,35.1,14307.7,90.9,13.5,-47.8,5.9,1.6,436528.4,2.0,1.7,-2.2,-409448.0,55.39,8.1,-5.5,-1.8,31.4,51.0,67.3,108.67,301158.5,18.3,-0.8,-5.7,3.3,37.02,778658.5,0
2017_SE,40.8,598326.0,594.5,3.8,4.4,7.0,1.0,8901611.0,1.2,13.1,3.7,200119.0,-4.13,6.8,-5.4,-0.7,-6.37,194.4,82.5,112.54,1869507.0,17.8,-0.2,-5.1,4.6,-4.36,27222717.0,2
2017_SI,74.1,364.0,161.5,3.4,-32.3,7.9,3.3,32506.0,3.1,0.8,5.7,-13869.3,5.58,5.1,-2.0,-0.4,22.68,75.6,74.2,110.24,31859.1,11.2,-2.2,-9.0,6.2,18.64,69443.0,2
2017_SK,50.9,5020.0,175.5,6.9,-65.6,9.8,1.8,81568.5,5.1,5.9,-2.0,-55630.9,12.88,17.9,-1.9,-0.2,8.86,96.1,72.1,111.76,43229.8,18.9,-4.2,-10.8,4.4,6.67,148886.9,0
2017_UK,87.4,167227.0,1067.4,5.3,-8.1,4.8,0.9,3516120.0,1.1,8.2,-4.5,-165555.0,-7.05,-1.7,-10.7,-4.6,-4.08,171.5,77.6,107.92,1786069.0,12.1,-1.1,-4.9,2.4,-0.98,21822784.0,0
